[
  {
    "id": 45096,
    "title": "Онуфріївка",
    "text": "(noun:inanim:f:v_naz:prop:geo) (noun:inanim:n:v_naz) (adj:m:v_rod) (noun:anim:m:v_dav:xp1) (conj) (noun) (adj:m:v_naz) (noun:inanim:m:v_naz:xp1) (adj:m:v_rod) (noun:inanim:m:v_rod) (adj:f:v_rod) (noun:inanim:f:v_rod) ",
    "timestamp": "2018-07-17T04:12:04Z"
  },
  {
    "id": 45106,
    "title": "PostScript",
    "text": "(noun) (noun:inanim:f:v_naz) (noun:inanim:n:v_naz) (conj:coord) (noun:inanim:f:v_naz) (noun:inanim:f:v_rod) (noun:inanim:p:v_rod) (conj) (adj:m:v_dav:compb) (verb:rev:imperf:pres:s:3) (conj) (adj:p:v_rod) (noun:inanim:p:v_mis) ",
    "timestamp": "2018-07-21T03:37:34Z"
  },
  {
    "id": 45115,
    "title": "Шульга",
    "text": "(noun:anim:m:v_naz:prop:lname) (conj:coord) (noun:anim:m:v_naz) (conj) (adj:f:v_dav:compb) (noun:inanim:f:v_dav) (verb:imperf:pres:s:3) (noun:anim:f:v_zna) (noun:anim:m:v_rod) (adv) (verb:imperf:pres:s:3) (noun:inanim:f:v_zna) (noun:inanim:f:v_zna) ",
    "timestamp": "2018-07-23T12:33:33Z"
  },
  {
    "id": 45121,
    "title": "Совєтський район (Крим)",
    "text": "(noun:inanim:m:v_naz:prop:geo) (noun:inanim:m:v_naz) (adj:m:v_naz) (noun:inanim:m:v_naz) (noun:inanim:n:v_naz:nv) (num) (noun) (adj:s) (noun:inanim:m:v_naz) (noun:inanim:p:v_rod) (noun) (noun:inanim:m:v_naz) (adj) (noun) (noun) (noun:inanim:m:v_naz) (noun:inanim:f:v_naz:nv:np:abbr) (noun:inanim:m:v_naz:prop:geo) (adj:m:v_naz) (noun:inanim:m:v_naz:xp1) (noun:inanim:n:v_naz:nv:abbr) (noun:inanim:m:v_naz:prop:geo) ",
    "timestamp": "2018-09-13T12:23:51Z"
  },
  {
    "id": 45128,
    "title": "Тартаковський Анатолій Ісакович",
    "text": "(noun:anim:m:v_naz:prop:fname) (noun) (num) (noun:inanim:m:v_rod) (num) (noun:anim:m:v_naz) (noun:anim:m:v_naz) (noun:anim:m:v_rod:prop:fname) (noun) ",
    "timestamp": "2014-07-17T05:36:49Z"
  },
  {
    "id": 45138,
    "title": "Усенко Іван Степанович",
    "text": "(noun:anim:m:v_naz:prop:fname) (noun:anim:f:v_naz:nv:np:prop:lname) (noun:anim:m:v_naz:prop:lname) (num) (noun:inanim:m:v_rod) (num) (noun:anim:m:v_naz:prop:lname) (adj:m:v_naz) (noun:inanim:m:v_naz) (noun:inanim:f:v_naz:prop:geo) (num) (noun:inanim:m:v_rod:xp1) (num) (noun:anim:m:v_naz) (noun:anim:m:v_naz) (noun:anim:m:v_naz) (adj:p:v_rod) (noun:inanim:p:v_rod) (num) (noun:anim:m:v_naz) (noun:anim:m:v_naz:xp1) (noun:anim:m:v_naz) (noun:inanim:f:v_naz:nv:abbr) (noun:inanim:f:v_naz:nv:np:prop:abbr) (conj) (num) ",
    "timestamp": "2018-09-08T16:02:32Z"
  },
  {
    "id": 45141,
    "title": "Щербак Микола (маляр)",
    "text": "(noun:anim:m:v_naz:prop:lname) (noun:anim:m:v_naz:prop:fname) (noun:inanim:p:v_rod:ns) (num) (noun:anim:m:v_naz) (noun:anim:m:v_naz) (conj:coord) (noun:anim:m:v_naz) (noun:inanim:m:v_oru) (conj) (noun:inanim:m:v_rod:prop:geo) ",
    "timestamp": "2017-05-21T02:08:15Z"
  },
  {
    "id": 45142,
    "title": "Чернишов Борис Ісидорович",
    "text": "(noun:anim:m:v_naz:prop:fname) (noun:anim:m:v_naz:prop:pname) (noun:anim:m:v_naz:prop:lname) (num) (noun:inanim:m:v_rod) (num) (noun:anim:f:v_naz:prop:lname) (num) (noun:inanim:m:v_rod) (num) (adj:m:v_naz:&&adjp:pasv:imperf) (noun:anim:m:v_naz) (noun:anim:m:v_naz) (noun:anim:m:v_naz) ",
    "timestamp": "2017-10-04T21:34:41Z"
  },
  {
    "id": 45166,
    "title": "Картоплярство",
    "text": "(noun:inanim:n:v_naz) (noun) (noun:inanim:f:v_naz) (adj:m:v_rod) (noun:inanim:n:v_rod) (conj:subord) (verb:imperf:pres:s:3) (noun:inanim:f:v_zna) (conj) (adj:p:v_rod) (adj:p:v_rod) (conj:coord) (adj:p:v_rod) (noun:inanim:p:v_rod) ",
    "timestamp": "2017-06-16T06:32:12Z"
  },
  {
    "id": 45176,
    "title": "Литвин",
    "text": "(noun:anim:m:v_naz:prop:lname) (adj:n:v_naz:compb:&&adjp:pasv:perf) (adj:n:v_naz:compb) (noun:inanim:n:v_naz) ",
    "timestamp": "2018-10-11T16:18:03Z"
  },
  {
    "id": 45178,
    "title": "Литовченко",
    "text": "(noun:anim:m:v_naz:prop:lname) (conj:coord) (noun:anim:m:v_naz:prop:lname) (adj:n:v_naz:compb:&&adjp:pasv:perf) (adj:n:v_naz:compb) (noun:inanim:n:v_naz) (noun:inanim:n:v_naz) (adj:m:v_rod:&pron:int:rel:def) (part) (conj:coord) (adj:p:v_rod:&pron:ind) (adj:p:v_rod:&pron:def) (noun:anim:m:v_naz:prop:lname) (noun:anim:m:v_naz:prop:lname:xp1) (noun:anim:m:v_naz:prop:lname) (part) (adj:p:v_naz:&&adjp:pasv:imperf) (adv:compb) (verb:imperf:pres:p:3) (conj) (adj:p:v_oru:compb:&&adjp:pasv:perf) (conj) (noun:inanim:f:v_rod) (conj) (noun) (noun:inanim:p:v_oru) (noun:anim:p:v_rod) (noun) (noun) (conj:coord) (adj:p:v_rod:compb) (noun:anim:p:v_rod) (noun:anim:p:v_naz) ",
    "timestamp": "2018-04-03T14:37:27Z"
  },
  {
    "id": 45181,
    "title": "Мілла Йовович",
    "text": "(noun:anim:f:v_naz:prop:fname) (noun:anim:f:v_naz:prop:pname:xp1) (noun) (noun:anim:f:v_naz:nv:np:prop:lname) (noun) (noun) (noun) (noun:anim:m:v_naz) (noun) (noun) (noun:inanim:p:v_rod) (noun) (noun:anim:f:v_naz:nv:np:prop:lname) (noun:inanim:p:v_rod:ns) (num) (noun:inanim:m:v_rod) (num) (noun:inanim:m:v_naz:prop:geo) (num) (adj:f:v_naz) (noun:anim:f:v_naz) (noun:anim:m:v_naz:xp1) (noun:anim:f:v_naz:xp1) (noun:anim:m:v_naz) (noun:inanim:m:v_oru) (conj) (noun) ",
    "timestamp": "2018-09-05T15:50:50Z"
  },
  {
    "id": 45256,
    "title": "Татарська мова",
    "text": "(adj:f:v_naz) (noun:inanim:f:v_naz) (noun:anim:p:v_rod) (noun) (noun:anim:n:v_naz) (verb:imperf:pres:s:1) (noun:inanim:f:v_oru) (noun:inanim:f:v_oru) (conj:subord) (verb:imperf:pres:s:3:xp1) (noun:inanim:n:v_naz:nv) (adj:f:v_rod) (adj:f:v_rod) (noun:inanim:f:v_rod:xp1) ",
    "timestamp": "2018-09-06T21:34:14Z"
  },
  {
    "id": 45392,
    "title": "Етери",
    "text": "(noun) (conj:coord) (adj:p:v_naz:compb) (noun:inanim:p:v_naz) (adj:p:v_naz:compb) (noun:inanim:f:v_rod) (noun:inanim:f:v_rod) (adj:p:v_rod:&pron:int:rel:def) (verb:rev:imperf:pres:p:3) (conj) (num:p:v_rod) (adj:p:v_rod) (noun:anim:p:v_rod:xp1) (adj:p:v_rod:&adjp:pasv:perf) (conj) (noun:v_oru:&pron:refl) (noun:inanim:m:v_oru) (noun:inanim:m:v_rod) ",
    "timestamp": "2018-09-17T12:36:16Z"
  },
  {
    "id": 45399,
    "title": "Єсипок Володимир Миколайович",
    "text": "(noun:anim:m:v_naz:prop:fname:xp1) (noun:anim:m:v_naz:prop:pname) (noun) (noun:inanim:p:v_rod:ns) (num) (noun:inanim:m:v_rod) (num) (noun:inanim:f:v_naz:prop:geo) (adj:m:v_naz:compb) (noun:anim:m:v_naz) (noun:anim:m:v_naz) (noun:inanim:m:v_naz) ",
    "timestamp": "2018-05-08T22:14:15Z"
  },
  {
    "id": 45400,
    "title": "Медаль «За оборону Києва»",
    "text": "(noun:inanim:f:v_naz) (conj) (noun:inanim:f:v_zna) (noun) (adj:f:v_naz) (noun:inanim:f:v_naz) (noun) (adj:f:v_naz:compb) (noun:inanim:f:v_naz) (noun) (prep) (noun:inanim:f:v_rod) (noun:inanim:p:v_rod) (conj) (noun:inanim:f:v_zna) ",
    "timestamp": "2018-09-18T04:32:50Z"
  },
  {
    "id": 45408,
    "title": "Бобир Андрій Матвійович",
    "text": "(noun:anim:m:v_naz:prop:fname) (noun:anim:m:v_naz:prop:pname) (noun:anim:m:v_naz:prop:lname) (num) (noun:inanim:m:v_rod) (num) (noun:inanim:f:v_naz:prop:geo) (adv:&pron:dem) (adj) (noun:inanim:f:v_naz) (num) (noun:inanim:m:v_rod) (num) (noun:inanim:m:v_naz:prop:geo) (noun:anim:m:v_naz) (noun:anim:m:v_naz) (noun:anim:m:v_naz) (noun:anim:m:v_naz) ",
    "timestamp": "2017-09-18T23:48:49Z"
  },
  {
    "id": 45412,
    "title": "Олекса Негребецький",
    "text": "(noun:anim:m:v_naz:prop:fname) (noun:anim:m:v_naz:prop:lname) (adj:n:v_naz:compb) (noun:inanim:n:v_naz) (noun:inanim:f:v_kly:prop:geo) (noun) (noun:anim:m:v_naz:prop:pname) (noun:inanim:p:v_rod:ns) (num) (noun:inanim:m:v_rod) (num) (noun:inanim:n:v_naz) (noun:inanim:m:v_kly:prop:geo) (noun:anim:f:v_naz:prop:lname) (noun:inanim:f:v_naz) (noun:anim:m:v_naz) (noun:inanim:m:v_rod) (noun:anim:m:v_naz:xp1) (adj:m:v_naz:compb) (noun:anim:m:v_naz) (adj:m:v_naz:&pron:int:rel:def) (verb:imperf:pres:s:3) (adv) (conj) (adj:p:v_oru:compb) (noun:inanim:p:v_oru) ",
    "timestamp": "2018-09-26T15:37:09Z"
  },
  {
    "id": 45419,
    "title": "Морозов Віктор Євгенович",
    "text": "(noun:anim:m:v_naz:prop:fname) (noun:anim:m:v_naz:prop:pname) (noun:anim:m:v_naz:prop:lname) (num) (noun:inanim:m:v_rod) (num) (noun) (adj:m:v_naz:compb) (noun:anim:m:v_naz) (noun:anim:m:v_naz) (noun:anim:m:v_naz) ",
    "timestamp": "2018-09-24T19:42:09Z"
  },
  {
    "id": 45424,
    "title": "Горбатюк Володимир Григорович",
    "text": "(noun:anim:m:v_naz:prop:lname) (noun:anim:m:v_naz:prop:fname:xp1) (noun) (noun:inanim:m:v_naz) (noun) (noun) (noun:inanim:p:v_rod:ns) (num) (noun:inanim:m:v_rod) (num) (noun:inanim:f:v_naz:nv:abbr) (noun:inanim:f:v_naz:prop:geo) (adj:f:v_naz) (noun:inanim:f:v_naz) (adj:m:v_naz:compb) (noun:anim:m:v_naz) (adj:m:v_naz:&adjp:pasv:perf:compb) (noun:anim:m:v_naz) (noun:inanim:p:v_rod) (noun) ",
    "timestamp": "2017-06-12T11:00:02Z"
  },
  {
    "id": 45441,
    "title": "Ґо (гра)",
    "text": "(noun:inanim:n:v_naz:nv) (noun:anim:m:v_naz:xp1) (noun) (noun) (noun) (noun) (noun) (noun) (noun) (adj:f:v_naz:compb) (adj:f:v_naz) (adj:f:v_naz:compb) (adj:f:v_naz) (noun:inanim:f:v_naz) (conj) (num:p:v_rod) (noun:anim:p:v_rod) (adj:f:v_naz:compb:&&adjp:pasv:perf) (conj) (noun:inanim:p:v_mis) (adj:f:v_rod:compb) (noun:inanim:f:v_rod:prop:geo) (conj:coord) (adj:f:v_oru:compc) (noun:inanim:f:v_oru) (conj) (adj:m:v_dav:&pron:gen) (noun:inanim:m:v_mis) ",
    "timestamp": "2018-09-25T21:48:08Z"
  },
  {
    "id": 45446,
    "title": "Жерела до історії України-Руси",
    "text": "(noun) (noun:inanim:n:v_naz:nv) (noun:inanim:f:v_rod) (noun) (noun:inanim:f:v_rod:prop:alt) (noun:inanim:m:v_naz) (adj:p:v_rod) (noun:inanim:p:v_rod) (conj) (noun:inanim:f:v_rod) (noun) (num) (num) (noun) (adj:m:v_naz:&adjp:pasv:perf) (adj:f:v_oru) (noun:inanim:f:v_oru) (adj:m:v_rod) (noun:inanim:n:v_rod) (noun:inanim:n:v_naz) (noun:anim:m:v_rod:prop:lname) (conj) (noun:anim:m:v_dav:prop:fname) (num) (num) (num) ",
    "timestamp": "2017-03-13T13:39:07Z"
  },
  {
    "id": 45451,
    "title": "Путилівка",
    "text": "(noun:inanim:f:v_naz:prop:geo) (adv:&insert) (noun) (noun:inanim:f:v_naz) (noun:inanim:p:v_rod) (conj:subord) (verb:imperf:pres:s:3:xp1) (adv) (conj) (noun:inanim:n:v_rod) (noun) ",
    "timestamp": "2017-03-12T07:59:05Z"
  },
  {
    "id": 45481,
    "title": "Марамба",
    "text": "(noun) (adv:&insert) (noun:anim:m:v_naz:prop:lname:xp1) (noun) (noun) (conj:coord:subord) (noun) (noun:inanim:n:v_naz) (conj) (noun:inanim:f:v_rod:prop:geo) (noun:inanim:f:v_naz) (adj:f:v_rod:compb) (noun:inanim:f:v_rod) (adj:f:v_naz:&adjp:pasv:perf) (conj) (num) (noun:inanim:m:v_naz:nv:abbr) (conj) (noun:inanim:m:v_rod) (noun:inanim:f:v_naz:prop:geo) (intj) (adj:m:v_dav:compb) (noun:inanim:m:v_mis) (noun:inanim:f:v_naz:nv:np:prop:geo) (noun:anim:m:v_rod) (conj) (noun:inanim:n:v_dav:&pron:dem) (noun:inanim:n:v_mis) (verb:imperf:pres:s:3) (noun:inanim:m:v_naz) (noun:inanim:f:v_rod:prop:geo) (conj) (noun:inanim:n:v_naz:nv:np:prop:geo) ",
    "timestamp": "2018-04-04T13:27:48Z"
  },
  {
    "id": 45504,
    "title": "Густав Клімт",
    "text": "(noun:anim:m:v_naz:prop:fname) (noun:anim:m:v_naz:prop:lname) (noun:m:v_mis:&pron:pers:3) (noun) (noun) (num) (noun:inanim:m:v_rod) (num) (noun:inanim:m:v_naz:prop:geo) (adj:f:v_naz) (noun:inanim:f:v_naz) (num) (adj:m:v_rod:compb) (num) (noun:inanim:m:v_naz:prop:geo) (noun:inanim:f:v_naz:prop:geo) (noun:inanim:f:v_naz:prop:geo) (adj:m:v_naz) (noun:anim:m:v_naz) (conj:coord) (noun:anim:m:v_naz:xp1) (noun:anim:m:v_naz) ",
    "timestamp": "2018-03-04T10:44:11Z"
  },
  {
    "id": 45531,
    "title": "Бас-барабан",
    "text": "(noun:anim:m:v_naz:prop:lname) (noun:inanim:m:v_naz) (adv:&insert) (adj:m:v_naz:compb) (noun:inanim:m:v_naz) (adj:m:v_naz:comps) (conj) (adj:p:v_rod:compb) (noun:inanim:p:v_rod:xp1) (adj:f:v_rod:compb) (noun:inanim:f:v_rod) (conj:subord) (verb:imperf:pres:s:3) (noun:v_oru:&pron:refl) (adj:m:v_naz:compb) (adj:m:v_naz) (conj:coord) (adj:m:v_naz) (noun:inanim:m:v_naz) (adj:m:v_naz:&adjp:pasv:perf) (conj) (num:p:v_rod) (noun:inanim:p:v_rod) (noun:inanim:f:v_oru) ",
    "timestamp": "2018-04-03T07:47:53Z"
  },
  {
    "id": 45541,
    "title": "Медаль «За оборону Москви»",
    "text": "(noun:inanim:f:v_naz) (conj) (noun:inanim:f:v_zna) (noun:inanim:f:v_rod:prop:geo) (adj:f:v_naz) (noun:inanim:f:v_naz) (noun) (verb:perf:impers) (noun:inanim:m:v_oru) (noun:inanim:f:v_rod) (adj:f:v_rod) (noun:anim:f:v_rod:prop:fname) (noun) (conj) (num) (noun:inanim:m:v_rod) (num) (noun) ",
    "timestamp": "2016-01-09T11:50:49Z"
  },
  {
    "id": 45543,
    "title": "Медаль «За оборону Кавказу»",
    "text": "(noun:inanim:f:v_naz) (conj) (noun:inanim:f:v_zna) (noun:inanim:m:v_dav:prop:geo:xp1) (adj:f:v_naz) (noun:inanim:f:v_naz) (noun) (adj:f:v_naz:&adjp:pasv:perf) (noun:inanim:m:v_oru) (noun:inanim:f:v_rod) (adj:f:v_rod) (noun:anim:f:v_rod:prop:fname) (noun) (conj) (num) (noun:inanim:m:v_rod) (num) (noun) ",
    "timestamp": "2017-06-16T12:21:57Z"
  },
  {
    "id": 45545,
    "title": "Буття (ансамбль)",
    "text": "(noun:inanim:n:v_naz) (adj:m:v_naz:compb) (adj:m:v_naz) (noun:inanim:m:v_naz:xp1) (adj:f:v_rod:compb) (noun:anim:m:v_rod:xp1) (conj) (noun) ",
    "timestamp": "2018-04-04T15:52:30Z"
  },
  {
    "id": 45563,
    "title": "Контрабас",
    "text": "(noun:inanim:m:v_naz) (adj:m:v_naz) (adj:m:v_naz:compb) (noun:inanim:m:v_naz:xp1) (adj:m:v_naz:&pron:int:rel:def) (verb) (noun:inanim:f:v_rod) (part) (adj:m:v_rod) (noun:inanim:n:v_rod) (adv:&pron:dem) (conj:coord) (noun:inanim:n:v_rod) (noun:inanim:p:v_rod) ",
    "timestamp": "2018-04-22T23:18:47Z"
  },
  {
    "id": 45564,
    "title": "Клавесин",
    "text": "(noun:inanim:m:v_naz) (adj:m:v_naz:compb) (adj:m:v_naz) (adj:m:v_naz) (adj:m:v_naz:compb) (noun:inanim:m:v_naz:xp1) (adj:p:v_naz) (noun:inanim:f:v_rod) (adj:m:v_rod:&pron:int:rel:def) (verb:rev:imperf:pres:p:3) (noun) (conj) (noun:anim:m:v_rod) (conj:coord) (noun:inanim:f:v_rod) ",
    "timestamp": "2017-10-31T13:14:52Z"
  },
  {
    "id": 45583,
    "title": "Глибоке (Ужгородський район)",
    "text": "(adj:n:v_naz:compb) (noun:inanim:n:v_naz) (conj) (adj:m:v_dav) (noun:inanim:m:v_mis) (adj:f:v_rod) (noun:inanim:f:v_rod) ",
    "timestamp": "2018-05-12T10:59:01Z"
  },
  {
    "id": 45584,
    "title": "Гута (Ужгородський район)",
    "text": "(noun:anim:m:v_rod:prop:lname) (noun:inanim:n:v_naz) (conj) (adj:m:v_dav) (noun:inanim:m:v_mis) (adj:f:v_rod) (noun:inanim:f:v_rod) ",
    "timestamp": "2015-12-02T14:07:32Z"
  },
  {
    "id": 45585,
    "title": "Демечі",
    "text": "(noun:inanim:p:v_naz:prop:geo:ns) (noun:inanim:n:v_naz) (conj) (noun) (conj) (adj:m:v_dav) (noun:inanim:m:v_mis) (adj:f:v_rod) (noun:inanim:f:v_rod) (noun:inanim:m:v_naz:xp1) (adj:m:v_rod) (noun:inanim:n:v_naz) (adj:f:v_naz) (adj:f:v_naz) (noun:inanim:m:v_rod) ",
    "timestamp": "2016-08-29T10:14:59Z"
  },
  {
    "id": 45587,
    "title": "Довге Поле (Ужгородський район)",
    "text": "(adj:n:v_naz:compb) (noun:anim:m:v_kly:prop:fname) (noun:inanim:n:v_naz) (conj) (adj:m:v_dav) (noun:inanim:m:v_mis) (adj:f:v_rod) (noun:inanim:f:v_rod) ",
    "timestamp": "2015-01-17T19:05:01Z"
  },
  {
    "id": 45588,
    "title": "Дубрівка (Ужгородський район)",
    "text": "(noun:inanim:f:v_naz:prop:geo) (noun:inanim:n:v_naz) (conj) (adj:m:v_dav) (noun:inanim:m:v_mis) (adj:f:v_rod) (noun:inanim:f:v_rod) (adj:n:v_naz:&adjp:pasv:perf) (intj) (noun:inanim:p:v_mis) (noun:inanim:f:v_dav:prop:geo) (conj:coord) (noun) ",
    "timestamp": "2018-05-12T11:09:47Z"
  },
  {
    "id": 45589,
    "title": "Есень",
    "text": "(noun:inanim:f:v_naz:prop:geo) (noun:inanim:n:v_naz) (conj) (noun) (conj) (adj:m:v_dav) (noun:inanim:m:v_mis) (adj:f:v_rod) (noun:inanim:f:v_rod) (noun:inanim:m:v_naz:xp1) (adj:f:v_rod) (noun:inanim:p:v_naz) ",
    "timestamp": "2018-04-21T06:34:12Z"
  },
  {
    "id": 45595,
    "title": "Кінчеш",
    "text": "(noun:inanim:m:v_naz:prop:geo) (noun:inanim:n:v_naz) (conj) (noun) (conj) (adj:m:v_dav) (noun:inanim:m:v_mis) (adj:f:v_rod) (noun:inanim:f:v_rod) (noun:inanim:m:v_naz:xp1) (adj:m:v_rod) (noun:inanim:n:v_naz) (adj:f:v_naz) (adj:f:v_naz) (noun:inanim:m:v_rod) ",
    "timestamp": "2016-08-29T10:35:32Z"
  },
  {
    "id": 45598,
    "title": "Коритняни",
    "text": "(noun:inanim:p:v_naz:prop:geo:ns) (noun:inanim:n:v_naz) (conj) (adj:m:v_dav) (noun:inanim:m:v_mis) (adj:f:v_rod) (noun:inanim:f:v_rod) ",
    "timestamp": "2017-12-15T15:26:29Z"
  },
  {
    "id": 45600,
    "title": "Ляхівці",
    "text": "(noun:inanim:p:v_naz:prop:geo:ns) (noun:inanim:n:v_naz) (conj) (adj:m:v_dav) (noun:inanim:m:v_mis) (adj:f:v_rod) (noun:inanim:f:v_rod) (intj) (noun:inanim:f:v_dav) (noun) ",
    "timestamp": "2018-08-22T23:42:44Z"
  },
  {
    "id": 45615,
    "title": "Забороло",
    "text": "(noun:inanim:n:v_naz) (conj:coord) (noun:inanim:n:v_naz) (adj:f:v_naz) (noun:inanim:f:v_naz) (noun:inanim:m:v_rod) (conj:subord) (verb:rev:imperf:pres:s:3) (intj) (noun:inanim:n:v_naz) (conj) (noun:inanim:m:v_rod) (conj) (noun:inanim:p:v_rod) ",
    "timestamp": "2018-01-13T09:41:34Z"
  },
  {
    "id": 45624,
    "title": "Мар'їне",
    "text": "(adj:n:v_naz) (noun) (noun:inanim:p:v_rod) (noun) (noun:inanim:f:v_naz) (noun:inanim:m:v_rod) (adj:p:v_rod) (noun:inanim:p:v_rod) (verb:imperf:pres:s:3:xp1) (conj) (adj:m:v_rod:compb) (adj:m:v_rod) (noun:inanim:n:v_rod) (noun:anim:f:v_naz:prop:fname) (noun:inanim:p:v_rod) (noun) ",
    "timestamp": "2016-04-10T18:51:40Z"
  },
  {
    "id": 45642,
    "title": "Гаваші Олег Олодарович",
    "text": "(noun) (noun:anim:m:v_naz:prop:fname) (noun) (num) (noun:inanim:m:v_rod:xp1) (num) (noun:inanim:n:v_naz:prop:geo) (adj:f:v_naz) (noun:inanim:f:v_naz) (noun:inanim:m:v_rod:prop:geo) (noun:inanim:f:v_naz:nv:np:prop:geo) (noun) (adj:m:v_naz:compb) (noun:anim:m:v_naz) (noun:anim:m:v_naz) (noun) (conj) (adj:f:v_dav) (noun:inanim:f:v_dav:prop:geo) (num) (num) (noun:anim:m:v_naz:xp1) (adj:f:v_rod) (adj:f:v_rod) (adj:f:v_rod) (noun:inanim:f:v_rod) (num) (num) ",
    "timestamp": "2017-12-12T00:37:26Z"
  },
  {
    "id": 45648,
    "title": "Ґорґани",
    "text": "(noun) (adj:m:v_naz) (noun:inanim:m:v_naz) (noun:inanim:f:v_naz) (adj:p:v_rod) (noun:inanim:p:v_rod) (conj) (adj:m:v_naz) (noun:inanim:f:v_dav) (adj:p:v_rod:compb) (noun:inanim:p:v_rod:prop:geo:ns) ",
    "timestamp": "2018-06-27T09:39:13Z"
  },
  {
    "id": 45650,
    "title": "Джаз",
    "text": "(noun:inanim:m:v_naz) (noun) (noun) (noun:inanim:m:v_naz) (adj:m:v_rod:compb) (noun) (conj:subord) (verb:perf:past:m) (intj) (noun:inanim:f:v_rod) (num) (num) (noun:inanim:n:v_naz) (conj) (noun:inanim:p:v_naz:nv:ns:prop:geo) (noun:inanim:p:v_rod) (adj:m:v_rod:&adjp:pasv:perf) (adj:m:v_rod:compb) (adj:m:v_rod) (noun) (noun:inanim:p:v_rod) (noun:anim:p:v_rod:xp1) (adj:p:v_rod:compb) (noun:anim:p:v_rod) (adv) (adj:p:v_rod:&adjp:pasv:perf) (prep) (adj:f:v_rod:&pron:pos) (noun:inanim:f:v_rod) ",
    "timestamp": "2018-07-14T19:12:45Z"
  },
  {
    "id": 45654,
    "title": "Віра Бахаї",
    "text": "(noun:anim:f:v_naz:prop:fname) (noun:anim:p:v_naz:ns) (noun:anim:m:v_naz) (noun) (noun) (adv:compb) (noun:inanim:f:v_naz) (adj:f:v_naz) (noun:inanim:f:v_naz) (adj:f:v_naz:&adjp:pasv:perf) (noun) (conj) (noun:inanim:f:v_rod:prop:geo) (conj) (num) (intj) (noun:inanim:n:v_mis) (noun:anim:m:v_rod) (intj) (noun:inanim:m:v_dav:xp1) (num) (intj) (noun:inanim:n:v_naz) (verb:imperf:pres:s:3) (adv:compb) (noun:inanim:f:v_rod) (noun:inanim:p:v_rod:&&numr) (noun:anim:p:v_rod) (adv) (conj) (adj:p:v_rod:&pron:gen) (noun:inanim:p:v_mis) (noun:inanim:m:v_rod) ",
    "timestamp": "2018-04-30T21:48:12Z"
  },
  {
    "id": 45663,
    "title": "Серпа Пінту",
    "text": "(noun) (noun) (noun:inanim:f:v_naz:prop:geo) (noun:inanim:m:v_rod) (noun:inanim:f:v_zna) (noun:inanim:m:v_naz) (noun) (noun) (noun) (noun) (noun) (num) (noun:inanim:m:v_rod) (num) (prep) (num) (noun:inanim:m:v_rod) (num) (prep) (noun:inanim:m:v_naz:prop:geo) (noun:inanim:f:v_naz:prop:geo) (adj:m:v_naz) (adj:m:v_naz) (noun:anim:m:v_naz) (noun:anim:m:v_naz) (conj:coord) (adj:m:v_naz) (noun:anim:m:v_naz) (adj:m:v_naz:&pron:int:rel:def) (conj) (num) (num) (noun) (verb:perf:past:m) (noun:inanim:f:v_naz) (conj) (adj:m:v_rod:compb) (noun:inanim:n:v_naz:nv) (adj:m:v_rod:compb) (noun:inanim:n:v_naz) (noun:inanim:f:v_rod:prop:geo) (prep) (noun:f:v_rod:&pron:pers:3) (adj:p:v_naz) (noun:inanim:p:v_naz) (conj:coord) (verb:perf:past:m) (noun:p:v_rod:&pron:pers:3) (intj) (noun:inanim:f:v_zna) ",
    "timestamp": "2018-04-24T11:30:30Z"
  },
  {
    "id": 45664,
    "title": "Пол ван Дайк",
    "text": "(noun:anim:m:v_naz:prop:fname) (part:pers) (noun) (noun) (noun) (adj:n:v_naz:compb) (noun:inanim:n:v_naz) (noun:anim:m:v_naz:prop:lname) (noun:anim:m:v_naz:prop:fname) (noun) (noun) (num) (noun:inanim:m:v_rod) (num) (noun) (noun:m:v_mis:&pron:pers:3) (noun) (noun:inanim:f:v_naz:prop:geo) (adj:m:v_naz:comps) (adj:m:v_naz) (noun:anim:m:v_naz:alt) (noun:inanim:m:v_rod) (adj:m:v_naz:&pron:dem:ind) (prep) (adj:p:v_rod:comps) (noun:anim:p:v_rod) (adj:f:v_rod) (noun:anim:m:v_rod:xp1) ",
    "timestamp": "2018-04-29T15:32:18Z"
  },
  {
    "id": 45667,
    "title": "Соль (нота)",
    "text": "(noun:inanim:n:v_naz:nv) (noun:inanim:m:v_naz) (noun) (conj:coord) (noun) (adj:f:v_naz:&pron:dem:ind) (prep) (noun:inanim:f:v_rod) (noun:inanim:p:v_rod) (noun:inanim:p:v_rod) (adj:n:v_naz:compb) (adj:n:v_naz) (noun:inanim:n:v_naz) ",
    "timestamp": "2015-03-13T19:15:30Z"
  },
  {
    "id": 45684,
    "title": "Мороз Валентин Якович",
    "text": "(noun:anim:m:v_naz:prop:fname) (noun:anim:m:v_naz:prop:pname) (noun:anim:m:v_naz:prop:lname) (noun:inanim:p:v_rod:ns) (num) (noun:inanim:m:v_rod) (num) (noun:inanim:f:v_naz:nv:abbr) (noun:inanim:m:v_naz:prop:geo) (adj:m:v_naz:compb) (noun:anim:m:v_naz) (adj:m:v_naz:&pron:dem:ind) (prep) (noun:anim:p:v_rod) (adj:m:v_rod:compb) (adj:m:v_rod) (noun:inanim:m:v_rod) (noun:anim:m:v_naz) (noun:anim:m:v_naz) (noun:anim:m:v_naz) (prep) (num) (adj:p:v_rod) (noun:inanim:p:v_rod) ",
    "timestamp": "2018-05-25T03:19:18Z"
  },
  {
    "id": 45691,
    "title": "Френк Герберт",
    "text": "(noun:anim:m:v_naz:prop:fname) (noun:anim:m:v_naz:prop:fname) (noun) (noun) (noun) (num) (noun:inanim:m:v_rod) (num) (num) (adj:m:v_rod:compb) (num) (adj:m:v_naz) (noun:anim:m:v_naz) (noun:anim:m:v_naz) (adv:comps) (adj:m:v_naz:compb) (part) (noun:anim:m:v_naz) (noun:inanim:f:v_rod) (conj:coord) (noun:f:v_rod:&pron:pers:3) (noun:inanim:p:v_rod) ",
    "timestamp": "2018-09-04T08:05:57Z"
  },
  {
    "id": 45697,
    "title": "Ля (нота)",
    "text": "(noun:inanim:n:v_naz:nv) (noun:inanim:m:v_naz) (noun) (adj:f:v_naz:&pron:dem:ind) (prep) (noun:inanim:f:v_rod) (noun:inanim:p:v_rod) (noun:inanim:p:v_rod) ",
    "timestamp": "2013-03-24T03:01:08Z"
  },
  {
    "id": 45698,
    "title": "Сі (нота)",
    "text": "(noun:inanim:f:v_naz:nv:np:prop) (noun:inanim:m:v_naz) (noun) (adj:f:v_naz:&pron:dem:ind) (prep) (noun:inanim:f:v_rod) (noun:inanim:p:v_rod) (noun:inanim:p:v_rod) ",
    "timestamp": "2014-09-15T19:03:49Z"
  },
  {
    "id": 45699,
    "title": "До (нота)",
    "text": "(noun:inanim:n:v_naz:nv) (noun:inanim:m:v_naz) (noun) (adj:f:v_naz:&pron:dem:ind) (prep) (noun:inanim:f:v_rod) (noun:inanim:p:v_rod) (noun:inanim:p:v_rod) ",
    "timestamp": "2018-05-29T07:40:10Z"
  },
  {
    "id": 45700,
    "title": "Ре (нота)",
    "text": "(noun:inanim:n:v_naz:nv) (noun:inanim:m:v_naz) (noun) (adj:f:v_naz:&pron:dem:ind) (prep) (noun:inanim:f:v_rod) (noun:inanim:p:v_rod) (noun:inanim:p:v_rod) ",
    "timestamp": "2013-06-02T23:31:14Z"
  },
  {
    "id": 45701,
    "title": "Мі (нота)",
    "text": "(noun:inanim:n:v_naz:nv) (noun:inanim:m:v_naz) (noun) (adj:f:v_naz:&pron:dem:ind) (prep) (noun:inanim:f:v_rod) (noun:inanim:p:v_rod) (noun:inanim:p:v_rod) ",
    "timestamp": "2017-04-20T18:04:02Z"
  },
  {
    "id": 45702,
    "title": "Фа (нота)",
    "text": "(noun:inanim:n:v_naz:nv) (noun:inanim:m:v_naz) (noun) (adj:f:v_naz:&pron:dem:ind) (prep) (noun:inanim:f:v_rod) (noun:inanim:p:v_rod) (noun:inanim:p:v_rod) ",
    "timestamp": "2016-01-17T00:10:49Z"
  },
  {
    "id": 45715,
    "title": "Альт (музичний інструмент)",
    "text": "(noun:inanim:m:v_naz) (noun) (noun) (noun) (noun) (adj:m:v_naz) (adj:m:v_naz:compb) (noun:inanim:m:v_naz:xp1) (adj:m:v_rod) (noun:inanim:n:v_rod) ",
    "timestamp": "2017-10-24T23:13:36Z"
  },
  {
    "id": 45724,
    "title": "Міст Патона",
    "text": "(noun:inanim:m:v_naz) (noun:inanim:n:v_rod) (noun:anim:m:v_rod:prop:lname) (adj:m:v_naz:&pron:dem:ind) (prep) (noun:inanim:p:v_rod) (prep) (noun:inanim:m:v_naz:prop:geo) (conj) (noun:inanim:m:v_mis:prop:geo) ",
    "timestamp": "2018-09-28T10:23:56Z"
  },
  {
    "id": 45729,
    "title": "XML schema",
    "text": "(noun) (noun) (noun:inanim:m:v_naz) (noun:inanim:n:v_naz) (noun:anim:m:v_dav:xp1) (noun) (noun:inanim:m:v_dav) (part) (noun:inanim:n:v_naz) (verb:rev:imperf:pres:s:3) (noun:inanim:m:v_oru) (noun:inanim:n:v_naz) (noun:inanim:p:v_rod) (intj) (noun:inanim:f:v_zna) (conj:coord) (noun:inanim:m:v_naz) (noun:inanim:p:v_rod) (adj:m:v_rod:&adjp:pasv:perf) (noun:anim:m:v_dav:xp1) (intj) (noun:inanim:m:v_naz) (noun:inanim:n:v_naz:nv) (adj:p:v_rod:compb) (adj:p:v_rod) (noun:inanim:p:v_rod) (adj:m:v_rod:&pron:def) (noun:inanim:m:v_rod) (noun) ",
    "timestamp": "2013-03-22T01:46:41Z"
  },
  {
    "id": 45736,
    "title": "Мацура Степан Макарович",
    "text": "(noun:anim:m:v_naz:prop:fname) (noun:anim:m:v_naz:prop:pname) (noun) (num) (noun:inanim:m:v_rod) (num) (noun:inanim:f:v_naz:nv:abbr) (noun:inanim:m:v_naz:prop:geo) (noun:anim:m:v_rod:prop:lname) (noun:inanim:m:v_rod) (adj:f:v_rod) (noun:inanim:f:v_rod) (num) (noun:anim:m:v_naz) ",
    "timestamp": "2018-09-16T07:59:52Z"
  },
  {
    "id": 45739,
    "title": "Гасюк Олег Володиморович",
    "text": "(noun:anim:m:v_naz:prop:lname) (noun:anim:m:v_naz:prop:fname) (noun) (num) (num) (num) (noun:inanim:f:v_naz:nv:abbr) (noun) (adj:m:v_rod) (noun:inanim:m:v_rod) (adj:f:v_rod) (noun:inanim:f:v_rod) (noun:anim:m:v_naz) ",
    "timestamp": "2017-09-19T01:35:27Z"
  },
  {
    "id": 45743,
    "title": "Mylivepage.ru",
    "text": "(noun) (adj:m:v_naz) (noun:inanim:m:v_naz) (conj) (noun:inanim:n:v_naz) (noun:inanim:p:v_rod) (adv) (conj) (adj:f:v_zna:compb) (noun:inanim:f:v_zna) ",
    "timestamp": "2015-02-10T22:50:29Z"
  },
  {
    "id": 45755,
    "title": "Мухаммед Асад",
    "text": "(noun:anim:m:v_naz:prop:lname) (noun:anim:m:v_naz:prop:lname) (noun:inanim:f:v_naz:nv:np) (noun) (noun) (noun:inanim:n:v_naz) (verb:imperf:impr:s:2) (noun:inanim:n:v_mis) (noun:anim:m:v_naz:prop:fname) (noun) (noun) (noun) (noun) (num) (noun:inanim:m:v_rod) (num) (noun:inanim:m:v_naz:prop:geo) (num) (adj:m:v_rod:compb) (num) (noun) (noun:inanim:f:v_naz:prop:geo) (adj:m:v_naz) (noun:anim:m:v_naz) (adj:m:v_naz:compb) (adj:m:v_naz) (noun:anim:m:v_naz) (noun:anim:m:v_naz) (noun:anim:m:v_naz:xp1) (noun:anim:m:v_naz) (noun:inanim:m:v_rod:prop:geo) (conj) (noun:inanim:f:v_naz:nv:np:prop:abbr) (intj) (noun) (num) (noun) (noun:anim:m:v_naz) (noun:inanim:m:v_rod:prop) (noun:inanim:f:v_oru) (noun:inanim:f:v_oru) ",
    "timestamp": "2018-06-09T19:23:42Z"
  },
  {
    "id": 45768,
    "title": "Ноти",
    "text": "(noun:inanim:f:v_naz) (noun:inanim:m:v_naz) (noun) (noun:inanim:m:v_naz:xp1) (adj:m:v_naz:compb) (adj:m:v_naz) (noun:inanim:m:v_naz:xp1) (conj:subord) (verb:rev:imperf:pres:s:3) (intj) (adj:m:v_dav) (noun:inanim:m:v_mis:xp1) (noun) (conj:coord) (verb:imperf:pres:s:3) (noun:inanim:f:v_zna) (conj:coord) (adj:f:v_zna) (noun:inanim:f:v_naz) (adj:m:v_rod:&pron:int:rel:def) (noun:inanim:m:v_dav:xp1) (conj) (adj:p:v_rod) (noun:inanim:p:v_mis) (adv:&insert) (conj:coord) (noun:inanim:m:v_naz) (noun:inanim:n:v_naz) ",
    "timestamp": "2017-10-27T16:23:59Z"
  },
  {
    "id": 45774,
    "title": "Господь",
    "text": "(noun:anim:m:v_naz:prop) (noun:anim:m:v_naz) (noun:anim:m:v_naz) (noun) (noun) (noun) (noun) (adj:m:v_naz) (noun:inanim:m:v_naz) (adj:m:v_rod) (noun:inanim:n:v_naz) (conj:subord) (verb:rev:imperf:pres:s:3) (conj) (noun:inanim:p:v_mis) (noun:inanim:n:v_rod) (noun:inanim:m:v_rod:prop:geo) (part) (adv) (noun:anim:m:v_rod:prop:fname) (noun:anim:m:v_rod:prop:fname) (adv:&pron:dem) (conj:coord) (adv) (noun:anim:m:v_rod) (noun:anim:m:v_rod) ",
    "timestamp": "2017-11-04T08:49:17Z"
  },
  {
    "id": 45799,
    "title": "Антарктика",
    "text": "(noun:inanim:f:v_naz:prop:geo) (conj) (adj:m:v_dav:compb) (noun:inanim:n:v_mis) (adj:f:v_naz:compb) (adj:f:v_naz:compb) (noun:inanim:f:v_naz) (noun:inanim:f:v_rod:prop) (noun:inanim:n:v_naz:nv) (noun:inanim:m:v_rod) (adj) (verb:imperf:pres:s:3) (noun:inanim:m:v_naz) (noun:inanim:f:v_naz:prop:geo) (conj:coord) (noun:inanim:f:v_rod) (adj:m:v_rod) (adj:m:v_rod) (conj:coord) (noun:anim:m:v_rod:prop:lname) (noun:inanim:p:v_rod) (conj:subord) (verb:imperf:pres:p:3) (conj) (noun:inanim:f:v_oru:prop:geo) (conj:coord) (noun:inanim:f:v_rod) (noun:inanim:n:v_rod:prop:geo) (noun:inanim:m:v_rod) ",
    "timestamp": "2018-06-30T07:43:52Z"
  },
  {
    "id": 45803,
    "title": "Лоїс Макмастер Буджолд",
    "text": "(noun) (noun) (noun) (noun) (noun) (noun) (noun) (num) (noun:inanim:m:v_rod:xp1) (num) (noun) (noun:inanim:m:v_naz:nv:np:prop:geo) (num) (noun:inanim:m:v_rod:xp1) (num) (noun) (noun:inanim:m:v_naz:nv:np:prop:geo) (adj:f:v_naz) (noun:anim:f:v_naz) (noun:anim:m:v_naz) ",
    "timestamp": "2018-06-18T12:33:08Z"
  },
  {
    "id": 45806,
    "title": "Радивилів (книга)",
    "text": "(noun:inanim:m:v_naz:prop:geo) (adj:p:v_naz) (noun:inanim:p:v_naz) (adj:f:v_naz) (noun:inanim:f:v_naz) (noun:anim:m:v_rod) (conj:coord) (noun:anim:m:v_rod) (noun:anim:m:v_rod:prop:fname:xp1) (noun:anim:m:v_rod:prop:lname) ",
    "timestamp": "2016-02-01T02:53:58Z"
  },
  {
    "id": 45822,
    "title": "Монорейка Джексонвілла",
    "text": "(adj:f:v_naz) (noun:inanim:f:v_naz) (conj) (noun) (noun) (noun) (noun) (conj) (noun:inanim:n:v_mis) (noun) (noun:inanim:m:v_naz) (noun:inanim:f:v_naz:prop:geo) (noun:inanim:p:v_naz:nv:ns:prop:geo) ",
    "timestamp": "2018-06-23T00:37:11Z"
  },
  {
    "id": 45829,
    "title": "Гасова лампа",
    "text": "(adj:f:v_naz) (noun) (noun:inanim:m:v_naz) (conj) (adj:m:v_dav:&pron:int:rel:def) (adv:compb) (verb:rev:imperf:pres:s:3) (prep) (noun:inanim:n:v_naz) (noun:inanim:m:v_rod) ",
    "timestamp": "2018-05-20T07:14:14Z"
  },
  {
    "id": 45832,
    "title": "POSM",
    "text": "(noun) (adj:p:v_naz) (noun:inanim:p:v_naz) (noun) (noun) (noun) (conj) (noun) (noun) (noun) (noun:inanim:p:v_naz) (conj:subord) (verb:imperf:pres:p:3) (noun:inanim:n:v_dav) (noun:inanim:m:v_rod) (conj:coord) (noun:inanim:m:v_rod) (intj) (noun:inanim:p:v_mis) (noun:inanim:p:v_rod) ",
    "timestamp": "2017-09-22T20:30:30Z"
  },
  {
    "id": 45838,
    "title": "Філіп Дік",
    "text": "(noun:anim:m:v_naz:prop:fname) (noun) (noun) (noun) (noun) (noun) (noun:inanim:p:v_rod:ns) (num) (noun:inanim:m:v_rod) (num) (noun:inanim:n:v_naz:nv:np:prop:geo) (noun:inanim:m:v_naz) (noun:inanim:m:v_naz:prop:geo) (noun:inanim:p:v_naz:nv:ns:prop:geo) (verb) (num) (noun:inanim:m:v_rod) (num) (noun:anim:m:v_naz:prop:fname) (noun:inanim:m:v_naz) (noun:inanim:f:v_naz:prop:geo) (noun:inanim:p:v_naz:nv:ns:prop:geo) (adj:m:v_naz) (noun:anim:m:v_naz) (noun:anim:m:v_naz) (noun:anim:m:v_naz) (adj:f:v_naz) (noun:inanim:f:v_naz) (noun:inanim:p:v_rod) (adj:m:v_rod:&pron:int:rel:def) (verb:imperf:pres:s:3:xp1) (noun:inanim:n:v_naz:nv) (noun:inanim:m:v_rod) (adj:f:v_rod) (noun:inanim:f:v_rod) ",
    "timestamp": "2018-10-20T05:10:34Z"
  },
  {
    "id": 45840,
    "title": "Оранжлав",
    "text": "(noun) (noun) (noun) (adv) (noun) (noun:inanim:f:v_naz) (noun:inanim:f:v_naz) (noun:anim:m:v_rod) (noun:anim:m:v_rod:prop:fname:xp1) (noun:anim:m:v_rod:prop:lname) (part) (noun:inanim:m:v_naz:abbr) (conj:coord) (noun:inanim:n:v_naz) (num:p:v_rod) (adj:p:v_rod:compb) (noun:anim:p:v_rod) (conj) (noun:inanim:m:v_mis) (adj:f:v_rod) (noun:inanim:f:v_rod) ",
    "timestamp": "2018-03-11T13:40:42Z"
  },
  {
    "id": 45849,
    "title": "Кафуе (річка)",
    "text": "(noun) (noun) (noun) (adj:f:v_naz:&pron:dem:ind) (conj) (adj:p:v_rod:comps) (noun:inanim:p:v_rod) (noun:inanim:f:v_rod:prop:geo) (adj:f:v_naz:comps) (conj) (noun:inanim:p:v_rod) (noun:inanim:f:v_naz:nv:np:prop:geo) (conj) (noun:inanim:m:v_oru) (noun:inanim:m:v_rod) (noun:inanim:f:v_oru) (num) (noun:inanim:m:v_naz:nv:abbr) ",
    "timestamp": "2017-09-14T22:33:19Z"
  },
  {
    "id": 45854,
    "title": "Істина",
    "text": "(adj:f:v_naz:compb) (noun:inanim:f:v_naz) (adj) (noun:inanim:m:v_naz) (adj:p:v_rod:&pron:pos) (noun:inanim:p:v_rod) (conj:subord) (part) (verb:imperf:pres:s:3:xp1) (conj) (noun:anim:m:v_rod:xp1) (conj) (noun:inanim:m:v_oru) (conj) (noun:inanim:f:v_oru) (adv:&pron:gen) (verb:imperf:pres:s:3:xp1) (noun:inanim:n:v_dav:&pron:dem) (noun:inanim:f:v_naz) (adj:f:v_naz:compb) (conj) (noun:inanim:f:v_oru) ",
    "timestamp": "2018-07-09T05:19:59Z"
  },
  {
    "id": 45855,
    "title": "Свідомість",
    "text": "(noun:inanim:f:v_naz) (noun:inanim:f:v_naz) (noun:anim:f:v_rod) (verb:imperf:inf) (adj:m:v_naz) (noun:inanim:m:v_naz) (conj:coord) (adj:f:v_zna:&pron:def) (noun:v_rod:&pron:refl) (conj) (noun) (noun:inanim:n:v_naz) (conj:coord) (noun:inanim:m:v_rod) (conj) (noun:inanim:m:v_mis) (adv) (verb:rev:imperf:pres:s:3) (noun:inanim:m:v_naz) (noun:inanim:f:v_rod) ",
    "timestamp": "2018-08-26T15:33:52Z"
  },
  {
    "id": 45857,
    "title": "Золочівський район (Харківська область)",
    "text": "(adj:m:v_naz) (noun:inanim:m:v_naz) (noun:inanim:m:v_naz) (adj:f:v_rod) (noun:inanim:f:v_rod) (conj) (noun) (conj) (adj:m:v_oru) (noun:inanim:m:v_oru:xp1) (conj) (noun:inanim:n:v_mis) (adj:m:v_rod) (noun:anim:m:v_dav:xp1) (noun:inanim:m:v_naz:prop:geo) ",
    "timestamp": "2018-08-23T09:56:01Z"
  },
  {
    "id": 45870,
    "title": "Основа (журнал)",
    "text": "(noun:inanim:f:v_naz:prop:geo) (adv) (adj:m:v_naz) (adj:m:v_naz) (noun:inanim:m:v_naz) ",
    "timestamp": "2018-08-28T06:40:47Z"
  },
  {
    "id": 45873,
    "title": "Торі (партія)",
    "text": "(noun:anim:m:v_mis:prop:fname) (conj) (adj:m:v_rod) (noun) (noun:anim:p:v_naz) (adj:f:v_naz) (noun:inanim:f:v_naz) (conj) (noun:inanim:f:v_rod:prop:geo) (conj:coord) (conj) (adj:f:v_dav:compb) (noun:inanim:f:v_rod:prop:geo) (conj:subord) (verb:imperf:past:f) (noun:inanim:p:v_naz) (adj:f:v_rod:compb:bad) (noun:inanim:f:v_rod) (conj:coord) (adj:m:v_rod:compc) (noun:inanim:n:v_rod) ",
    "timestamp": "2017-10-23T21:28:06Z"
  },
  {
    "id": 45876,
    "title": "Галіон",
    "text": "(noun) (adv:&insert) (noun) (adj:f:v_naz) (noun:inanim:f:v_naz) (adj:p:v_rod:compb) (noun:inanim:p:v_rod) ",
    "timestamp": "2015-04-15T00:39:54Z"
  },
  {
    "id": 45877,
    "title": "Шлюп",
    "text": "(noun:inanim:m:v_naz) (noun) (noun) (adj:n:v_naz) (adj:n:v_naz) (adv) ",
    "timestamp": "2016-11-17T13:58:31Z"
  },
  {
    "id": 45879,
    "title": "Бриг",
    "text": "(noun:inanim:m:v_naz) (noun) (noun) (conj) (noun) (noun) (noun:inanim:f:v_naz) (adj:n:v_naz) (adj:n:v_naz) (adv) (num) (num) ",
    "timestamp": "2017-03-18T09:39:21Z"
  },
  {
    "id": 45880,
    "title": "Щогла",
    "text": "(noun:inanim:f:v_naz) (adj:m:v_naz:compb) (noun:inanim:m:v_naz) (adj:f:v_naz) (adj:f:v_naz) (conj:coord) (noun:inanim:f:v_naz) (noun:inanim:f:v_naz) (intj) (adj:m:v_dav) (adj:p:v_naz) (noun:inanim:m:v_mis) (adv:compb:&insert) (adj:f:v_naz:&adjp:pasv:imperf) (noun:inanim:p:v_oru) (adj:f:v_naz:&adjp:pasv:perf) (conj) (noun:inanim:n:v_naz) (noun:inanim:p:v_rod) ",
    "timestamp": "2018-02-20T08:06:19Z"
  },
  {
    "id": 45884,
    "title": "Коксування вугілля",
    "text": "(noun:inanim:n:v_naz) (noun:inanim:n:v_naz) (noun:inanim:m:v_naz) (adj:f:v_rod) (noun:inanim:f:v_rod) (adv) (adj:m:v_rod) (noun:inanim:n:v_naz) (conj:subord) (verb:imperf:pres:s:3:xp1) (conj) (noun:m:v_rod:&pron:pers:3) (noun:inanim:n:v_mis) (noun:inanim:m:v_rod) (noun:inanim:n:v_naz) (noun:inanim:n:v_naz:nv) (num) (num) (noun) (conj:coord) (noun:inanim:f:v_rod) (verb:imperf:impr:s:2) (adj:f:v_dav:&pron:dem) (noun:inanim:f:v_dav) (prep) (adv) (noun:inanim:n:v_naz) (verb:rev:imperf:pres:s:3) (conj) (noun:inanim:n:v_oru) (adj:p:v_rod) (noun:inanim:p:v_rod) (conj:coord) (noun:inanim:n:v_rod) (noun:inanim:m:v_rod) (noun:inanim:m:v_rod) ",
    "timestamp": "2017-02-11T08:57:58Z"
  },
  {
    "id": 45886,
    "title": "Лист-протест 139",
    "text": "(noun:inanim:m:v_naz:xp1) (noun:inanim:m:v_naz) (num) (noun:anim:s:v_naz:&pron:pers:2) (adj:m:v_naz) (noun:inanim:m:v_naz:xp1) (adj:m:v_naz) (noun:inanim:m:v_naz:xp1) (intj) (noun:inanim:n:v_naz) (noun:anim:m:v_rod:prop:fname) (noun:anim:m:v_rod:prop:lname) (noun:anim:m:v_rod:prop:fname) (noun:anim:m:v_rod:prop:lname) (conj:coord) (noun:anim:m:v_rod:prop:fname) (noun:anim:m:v_rod:prop:lname) (conj) (noun:inanim:f:v_oru) (verb:perf:inf) (noun:anim:m:v_dav) (adj:p:v_rod) (adj:p:v_rod) (adj:p:v_rod) (noun:inanim:p:v_rod) ",
    "timestamp": "2018-07-23T02:01:55Z"
  },
  {
    "id": 45889,
    "title": "Фредерік Беґбеде",
    "text": "(noun:anim:m:v_naz:prop:fname) (noun) (conj:coord) (noun:anim:m:v_naz:prop:fname) (noun) (num) (noun) (noun) (noun) (noun:inanim:p:v_rod:ns) (num) (noun:inanim:m:v_rod) (num) (noun) (intj) (adj:m:v_naz) (noun:anim:m:v_naz) (noun:anim:m:v_naz) (adj:m:v_naz) (noun:anim:m:v_naz) (noun:anim:m:v_naz:xp1) (noun:anim:m:v_naz) (noun:anim:m:v_naz) (conj:coord) (noun:anim:m:v_naz) ",
    "timestamp": "2018-08-06T09:18:30Z"
  },
  {
    "id": 45904,
    "title": "Вепси",
    "text": "(noun:anim:p:v_naz) (noun:anim:m:v_naz) (noun) (noun:inanim:n:v_naz:nv) (num) (prep) (adv:compb) (noun:inanim:f:v_naz) (noun:unanim:f:v_kly) (adj:m:v_naz) (noun:inanim:m:v_naz) (intj) (adj:m:v_dav:compb) (noun:inanim:m:v_mis) (noun:inanim:f:v_rod:prop:geo) ",
    "timestamp": "2018-05-27T14:21:54Z"
  },
  {
    "id": 45911,
    "title": "Збірна Еквадору з футболу",
    "text": "(noun:inanim:f:v_naz) (noun:inanim:m:v_rod:prop:geo) (conj) (noun:inanim:m:v_rod) (adj:f:v_naz) (adj:f:v_naz:compb) (noun:inanim:f:v_naz) (noun:inanim:m:v_rod:prop:geo) (adj:f:v_oru:&pron:int:rel:def) (verb:imperf:pres:s:3) (adj:f:v_naz) (noun:inanim:f:v_naz) (noun:inanim:m:v_rod) ",
    "timestamp": "2017-03-25T16:09:36Z"
  },
  {
    "id": 45919,
    "title": "Збірна Німеччини з футболу",
    "text": "(noun:inanim:f:v_naz) (noun:inanim:f:v_rod:prop:geo) (conj) (noun:inanim:m:v_rod) (noun:m:v_mis:&pron:pers:3) (adj) (noun) (adj:f:v_naz) (noun:inanim:f:v_naz) (noun:inanim:f:v_naz) (conj:subord) (verb:imperf:pres:s:3) (noun:inanim:f:v_zna:prop:geo) (intj) (adj:p:v_rod) (noun:inanim:p:v_mis) (conj) (noun:inanim:m:v_rod) ",
    "timestamp": "2018-07-02T09:04:39Z"
  },
  {
    "id": 45921,
    "title": "Мавзолей у Галікарнасі",
    "text": "(noun:inanim:m:v_naz) (noun:inanim:m:v_naz) (noun:inanim:f:v_naz) (conj:coord) (adj:m:v_naz) (noun:inanim:m:v_naz) (noun:anim:m:v_rod) (noun) (noun) (noun) (adj:m:v_naz:&adjp:pasv:perf) (conj) (noun:inanim:f:v_dav) (num) (noun:inanim:n:v_naz) (noun:inanim:n:v_naz:nv) (intj) (conj) (noun:inanim:m:v_oru) (noun:m:v_rod:&pron:pers:3) (noun:anim:f:v_rod:xp1) (noun) (num) (conj) (noun:inanim:m:v_mis:prop:geo) (adj:m:v_naz:compb) (noun) (noun:inanim:f:v_naz:prop:geo) (adj:n:v_naz:&pron:dem:ind) (conj) (adj:p:v_rod) (noun:inanim:p:v_rod:xp2) (noun:inanim:m:v_rod) ",
    "timestamp": "2018-10-06T19:09:58Z"
  },
  {
    "id": 45923,
    "title": "Збірна Англії з футболу",
    "text": "(noun:inanim:f:v_naz) (noun:inanim:f:v_rod:prop:geo) (conj) (noun:inanim:m:v_rod) (noun) (noun) (adj) (noun) (adj:f:v_naz) (adj:f:v_naz:compb) (noun:inanim:f:v_naz) (noun:inanim:f:v_rod:prop:geo) (adj:f:v_oru:&pron:int:rel:def) (verb:imperf:pres:s:3) (adj:f:v_naz:compb) (noun:inanim:f:v_naz) (noun:inanim:f:v_rod:prop:geo) ",
    "timestamp": "2018-08-11T12:59:16Z"
  },
  {
    "id": 45928,
    "title": "Александрійський маяк",
    "text": "(adj:m:v_naz) (noun:inanim:m:v_naz) (conj:coord) (adj) (noun:inanim:m:v_naz) (adj:n:v_naz:&pron:dem:ind) (conj) (noun:inanim:f:v_rod) (noun:inanim:p:v_rod:xp2) (adj:m:v_rod:compb) (noun:inanim:m:v_rod) (noun:inanim:m:v_naz) (conj:subord) (verb:rev:imperf:past:m) (intj) (noun:inanim:m:v_mis) (noun) (adv) (noun:inanim:m:v_naz) (conj) (noun:inanim:p:v_mis) (noun:inanim:n:v_rod) (noun:inanim:f:v_naz:prop:geo) (conj) (noun:inanim:m:v_mis:prop:geo) ",
    "timestamp": "2018-02-08T18:28:07Z"
  },
  {
    "id": 45931,
    "title": "Колос Родоський",
    "text": "(noun:anim:m:v_naz:prop:lname) (adj:m:v_naz) (noun) (noun) (noun) (noun:inanim:m:v_naz) (noun) (noun) (adj:f:v_naz) (noun:inanim:f:v_naz) (adj:m:v_rod) (noun:anim:m:v_rod) (noun) (noun:anim:m:v_rod:prop:fname) (adj:f:v_naz:&adjp:pasv:perf) (conj) (num) (conj:coord) (num) (noun:inanim:p:v_oru) (noun:inanim:n:v_naz:nv) (intj) (intj) (noun:inanim:m:v_mis) (noun:inanim:n:v_naz:nv) (noun:inanim:f:v_dav) (noun:inanim:m:v_rod) (noun:inanim:m:v_naz:prop:geo) (noun:anim:m:v_oru) (noun) (noun) (prep) (noun) ",
    "timestamp": "2018-07-29T20:53:52Z"
  },
  {
    "id": 45937,
    "title": "Збірна Аргентини з футболу",
    "text": "(noun:inanim:f:v_naz) (noun:inanim:f:v_rod:prop:geo) (conj) (noun:inanim:m:v_rod) (verb:imperf:pres:s:3) (noun:inanim:f:v_zna:prop:geo) (intj) (adj:p:v_rod) (noun:inanim:p:v_mis) (conj:coord) (conj) (adj:p:v_rod) (noun:inanim:p:v_mis) (conj) (noun:inanim:m:v_rod) ",
    "timestamp": "2018-07-04T20:22:26Z"
  },
  {
    "id": 45941,
    "title": "Полюга Лев Михайлович",
    "text": "(noun:anim:m:v_naz:prop:lname) (noun:anim:m:v_naz:prop:fname) (noun:anim:m:v_naz:prop:lname) (num) (noun:inanim:m:v_rod:xp1) (num) (noun:inanim:m:v_naz) (num) (noun:inanim:f:v_naz:nv:abbr) (noun:inanim:n:v_naz:prop:geo) (adv:&pron:dem) (adj:m:v_rod) (noun:inanim:m:v_rod) (adj:f:v_rod) (noun:inanim:f:v_rod) (verb:imperf:pres:s:1) (noun:anim:m:v_oru) (noun:anim:m:v_oru) (adj:p:v_rod) (noun:inanim:p:v_rod) (noun:anim:m:v_naz) (conj) (num) ",
    "timestamp": "2017-07-16T13:27:01Z"
  },
  {
    "id": 45942,
    "title": "Статуя Зевса в Олімпії",
    "text": "(noun:inanim:f:v_naz) (noun:anim:m:v_rod:prop:fname) (adj:m:v_rod) (conj) (noun:inanim:p:v_oru) (adj:n:v_naz:&pron:dem:ind) (conj) (noun:inanim:f:v_rod) (noun:inanim:p:v_rod:xp2) (noun:inanim:m:v_rod) (noun:inanim:f:v_naz) (noun:inanim:f:v_naz) (noun:anim:m:v_rod:prop:fname) (noun:anim:p:v_naz) (noun) (adj:f:v_naz:rare) (adj:f:v_naz:&adjp:pasv:perf) (conj) (noun:inanim:m:v_mis:xp1) (noun:inanim:m:v_rod) (noun:anim:m:v_rod:prop:fname) (conj) (noun:inanim:f:v_rod:prop:geo) (intj) (noun:inanim:m:v_mis) (noun:inanim:m:v_naz:prop:geo) ",
    "timestamp": "2018-02-08T18:29:10Z"
  },
  {
    "id": 45944,
    "title": "Морачевський Пилип Семенович",
    "text": "(noun:anim:m:v_naz:prop:fname) (noun:anim:m:v_naz:prop:lname) (noun) (noun:inanim:p:v_rod:coll) (noun) (noun) (num) (num) (noun:inanim:m:v_rod:xp1) (num) (num) (noun:inanim:m:v_rod) (num) (conj) (adj:p:v_oru:&pron:def) (noun) (num) (num) (noun:inanim:m:v_rod) (num) (num) (adj:m:v_naz:compb) (noun:anim:m:v_naz) (noun:anim:m:v_naz) (noun:anim:m:v_naz) (noun:anim:m:v_naz) (noun:anim:m:v_naz) (noun:anim:m:v_naz) ",
    "timestamp": "2018-10-13T19:29:02Z"
  },
  {
    "id": 45947,
    "title": "Свєнціцький Іларіон Семенович",
    "text": "(noun:anim:m:v_naz:prop:fname) (noun:anim:m:v_naz:prop:lname) (noun) (num) (num) (noun:inanim:m:v_rod) (num) (noun:inanim:m:v_naz:prop:geo) (adv) (adj:f:v_naz) (noun:inanim:f:v_naz) (num) (noun:inanim:m:v_rod) (num) (noun:inanim:m:v_naz:prop:geo) (adj:m:v_naz:compb) (noun:anim:m:v_naz) (noun:anim:m:v_naz) (noun:anim:m:v_naz) (adj:m:v_naz:compb) (noun:anim:m:v_naz) (noun:anim:m:v_naz) (adj:p:v_rod) (noun:inanim:p:v_rod) (conj) (num) (adj:m:v_naz) (noun:anim:m:v_naz:xp1) (noun:inanim:n:v_naz:nv:prop:abbr) (conj) (num) (noun:anim:m:v_naz) (adj:f:v_rod) (noun:anim:f:v_rod:prop:fname) (noun:inanim:f:v_naz:nv:np:prop:abbr) (num) (intj) (noun:inanim:n:v_naz) ",
    "timestamp": "2017-10-26T09:29:14Z"
  },
  {
    "id": 45953,
    "title": "Вентильний електродвигун",
    "text": "(adj:m:v_naz) (noun:inanim:m:v_naz) (noun:anim:m:v_naz:xp1) (adj:f:v_rod) (noun:inanim:f:v_rod) (adj:m:v_naz:compb:&&adjp:pasv:imperf) (conj) (adj:f:v_dav:compb:&&adjp:pasv:perf) (noun:inanim:f:v_dav) (conj) (noun:inanim:n:v_oru) (noun:inanim:m:v_rod) (noun:inanim:n:v_naz) (noun:inanim:m:v_rod) (noun:inanim:f:v_rod) (noun:inanim:n:v_naz) (noun:anim:m:v_rod:xp1) (noun:inanim:p:v_rod) (conj:coord) (adj:m:v_rod) (adj:m:v_rod) (noun:anim:m:v_rod:xp1) ",
    "timestamp": "2017-02-04T11:47:47Z"
  },
  {
    "id": 45956,
    "title": "Оркестрові дзвони",
    "text": "(noun:inanim:m:v_dav) (noun:inanim:p:v_naz:xp1) (noun:m:v_mis:&pron:pers:3) (noun) (noun) (noun) (noun) (noun) (noun) (adj) (noun) (adj:m:v_naz:compb) (noun:inanim:m:v_naz:xp1) (adj:m:v_rod) (noun:inanim:m:v_rod) ",
    "timestamp": "2013-08-11T21:49:23Z"
  },
  {
    "id": 45959,
    "title": "Дзвони (гурт)",
    "text": "(noun:inanim:p:v_naz:xp1) (adj:m:v_naz:compb) (noun:inanim:m:v_naz:xp1) (noun:inanim:m:v_naz:xp1) (noun:inanim:m:v_naz) (adj:p:v_rod:compb) (adj:p:v_rod) (noun:inanim:p:v_rod) (conj:coord) (adj:m:v_rod:compb) (noun) (intj) (noun:inanim:f:v_dav) (adj:m:v_rod:compb) (adv) (adj:m:v_rod) (noun:inanim:m:v_rod) ",
    "timestamp": "2018-07-18T15:11:45Z"
  },
  {
    "id": 45962,
    "title": "Дзвін",
    "text": "(noun) (noun) (adj) (noun) (conj) (noun) (noun) (noun:inanim:m:v_naz) (noun) (adj) (noun) (adj) (noun) (adj:m:v_naz:compb) (adj:m:v_naz:compb) (conj:coord) (adv:&insert) (adj:m:v_naz) (adj:m:v_naz) (noun:inanim:m:v_naz:xp1) (adv:compb:&insert) (prep) (noun:inanim:p:v_naz) (conj:coord:subord) (noun:inanim:f:v_rod) (conj) (noun:inanim:m:v_mis) (adj:f:v_rod) (adj:f:v_rod:&adjp:pasv:perf) (adv) (noun:inanim:f:v_rod) (conj) (adj:f:v_dav:&pron:int:rel:def) (verb:perf:impers) (noun:anim:m:v_naz) (noun:inanim:n:v_naz) (noun:inanim:m:v_naz) (noun) (noun:inanim:n:v_naz:rare) ",
    "timestamp": "2018-09-05T15:06:10Z"
  },
  {
    "id": 45969,
    "title": "Армін ван Бюрен",
    "text": "(noun) (noun:anim:m:v_naz:prop:fname) (noun) (noun:anim:m:v_naz:prop:fname) (part:pers) (noun) (noun) (noun) (noun) (noun) (noun) (noun) (num) (noun:inanim:m:v_rod) (num) (noun:inanim:m:v_naz:prop:geo) (noun:inanim:p:v_naz:prop:geo:ns) (adj:m:v_naz) (noun:anim:m:v_naz) (noun:anim:m:v_naz) (adj:m:v_rod:compb) (noun:inanim:m:v_dav:slang) (noun) (noun) ",
    "timestamp": "2018-03-27T18:12:05Z"
  },
  {
    "id": 45974,
    "title": "Бабизм",
    "text": "(noun) (noun) (noun) (noun:m:v_mis:&pron:pers:3) (noun) (noun) (noun) (conj:coord) (noun:anim:f:v_naz:prop:fname) (noun:inanim:m:v_mis) (noun:inanim:m:v_mis) (noun) (noun) (noun:inanim:f:v_naz) (adj:f:v_naz:&adjp:pasv:perf) (conj) (num) (noun:inanim:n:v_mis) (adj:m:v_oru) (noun:anim:m:v_oru) (noun) (noun:anim:m:v_naz:nv:np:prop:fname) (noun:anim:m:v_oru:prop:lname) (conj:subord) (verb:perf:past:m) (noun:inanim:m:v_naz) (noun:anim:p:v_rod:xp1) ",
    "timestamp": "2018-04-24T05:37:23Z"
  },
  {
    "id": 45986,
    "title": "Збірна Португалії з футболу",
    "text": "(noun:inanim:f:v_naz) (noun:inanim:f:v_rod:prop:geo) (conj) (noun:inanim:m:v_rod) (noun:inanim:m:v_naz) (noun) (noun) (noun) (adj:f:v_naz) (noun:inanim:f:v_naz) (noun:inanim:f:v_naz) (conj:subord) (verb:imperf:pres:s:3) (noun:inanim:f:v_zna:prop:geo) (intj) (adj:p:v_rod) (noun:inanim:p:v_mis) (conj) (noun:inanim:m:v_rod) ",
    "timestamp": "2018-07-16T12:56:43Z"
  },
  {
    "id": 45988,
    "title": "Брюс Стерлінг",
    "text": "(noun:anim:m:v_naz:prop:fname) (noun:inanim:m:v_naz) (noun) (noun) (noun) (num) (noun:inanim:m:v_rod) (num) (adj:m:v_naz) (noun:anim:m:v_naz) (noun:anim:m:v_naz) ",
    "timestamp": "2018-09-24T12:19:11Z"
  },
  {
    "id": 45992,
    "title": "Збірна Саудівської Аравії з футболу",
    "text": "(noun:inanim:f:v_naz) (adj:f:v_rod) (noun:inanim:f:v_rod:prop:geo) (conj) (noun:inanim:m:v_rod) (noun:anim:m:v_naz) (verb:imperf:pres:s:3) (adj:f:v_zna) (noun:inanim:f:v_zna:prop:geo) (intj) (adj:p:v_rod) (adj:p:v_rod:compb) (noun:inanim:p:v_mis) ",
    "timestamp": "2018-06-29T18:17:04Z"
  },
  {
    "id": 45998,
    "title": "Збірна Іспанії з футболу",
    "text": "(noun:inanim:f:v_naz) (num) (conj) (noun:inanim:m:v_rod) (verb:imperf:pres:s:3) (noun:inanim:n:v_naz) (noun:inanim:f:v_naz:prop:geo) (intj) (adj:p:v_rod) (noun:inanim:p:v_mis) (conj:coord) (noun:inanim:p:v_mis) (conj) (noun:inanim:m:v_rod) ",
    "timestamp": "2018-07-20T08:05:25Z"
  },
  {
    "id": 46002,
    "title": "Дзвін (журнал, Львів)",
    "text": "(noun) (adj:m:v_naz) (adv) (adj:m:v_naz) (conj:coord) (adj:m:v_naz) (noun:inanim:m:v_naz) (adj:f:v_rod) (noun:inanim:f:v_rod) (noun:anim:p:v_rod) (noun) ",
    "timestamp": "2018-09-28T09:01:21Z"
  },
  {
    "id": 46011,
    "title": "Збірна Тунісу з футболу",
    "text": "(noun:inanim:f:v_naz) (noun:inanim:m:v_dav:prop:geo:xp1) (conj) (noun:inanim:m:v_rod) (noun:anim:m:v_naz) (adj:f:v_naz:compb) (noun:inanim:f:v_naz) (noun:anim:m:v_rod) (verb:imperf:pres:s:3) (noun:inanim:m:v_naz:prop:geo:xp1) (conj) (adj:p:v_rod) (noun:inanim:p:v_mis) (conj:coord) (intj) (noun:inanim:p:v_mis) (conj) (noun:inanim:m:v_rod) ",
    "timestamp": "2018-06-29T09:26:33Z"
  },
  {
    "id": 46013,
    "title": "Капіталізація (друкарство)",
    "text": "(noun:inanim:f:v_naz) (noun:inanim:m:v_naz) (noun) (conj) (noun) (adj) (adj:f:v_naz:compb) (noun:inanim:f:v_naz) (noun:inanim:n:v_naz) (conj:coord) (noun:inanim:n:v_naz) (adj:p:v_oru:compb) (noun:inanim:p:v_oru) ",
    "timestamp": "2018-07-14T13:04:26Z"
  },
  {
    "id": 46022,
    "title": "Мордовець Данило Лукич",
    "text": "(noun:anim:m:v_naz:prop:fname) (noun:anim:m:v_naz:prop:pname:xp1) (noun:anim:m:v_naz:prop:lname) (noun) (num) (num) (noun:inanim:m:v_rod) (num) (noun:inanim:f:v_naz) (noun:inanim:f:v_naz:prop:geo) (intj) (noun:inanim:m:v_rod:prop:geo:rare) (adv:&pron:dem) (adj:f:v_naz) (noun:inanim:f:v_naz) (noun:inanim:f:v_naz:prop:geo) (num) (num) (noun:inanim:m:v_rod) (num) (noun:inanim:m:v_naz:prop:geo) (noun:inanim:f:v_naz:prop:geo) (adj:m:v_naz:compb) (noun:anim:m:v_naz) (noun:anim:m:v_naz) (noun:anim:m:v_naz) (verb:imperf:past:m) (noun:inanim:f:v_oru) (conj:coord) (noun:inanim:f:v_oru) (noun:inanim:p:v_oru) ",
    "timestamp": "2018-03-05T08:20:23Z"
  },
  {
    "id": 46026,
    "title": "Збірна Польщі з футболу",
    "text": "(noun:inanim:f:v_naz) (noun) (conj) (noun:inanim:m:v_rod) (noun) (noun) (noun) (noun) (noun) (noun) (adj:f:v_naz) (adj:f:v_naz:compb) (noun:inanim:f:v_naz) (noun) (adj:f:v_oru:&pron:int:rel:def) (verb:imperf:pres:s:3) (noun:anim:m:v_naz:prop:lname) (adj:m:v_naz:compb) (noun:inanim:m:v_naz) ",
    "timestamp": "2018-07-18T16:05:25Z"
  },
  {
    "id": 46029,
    "title": "Межиріччя (значення)",
    "text": "(noun:inanim:n:v_naz:prop:geo) (noun:inanim:f:v_naz) (adj:f:v_naz:&adjp:pasv:perf) (conj) (num:p:v_oru) (adj:p:v_oru) (noun:inanim:p:v_oru) ",
    "timestamp": "2017-04-19T13:49:28Z"
  },
  {
    "id": 46032,
    "title": "Нестеров",
    "text": "(noun:anim:m:v_naz:prop:lname) (noun:inanim:p:v_rod) (noun:anim:m:v_naz:prop:lname) (adj:n:v_naz:compb:&&adjp:pasv:perf) (adj:n:v_naz:compb) (noun:inanim:n:v_naz) (verb:imperf:pres:s:3:xp1) (conj) (noun:inanim:n:v_rod) (noun:anim:m:v_naz:prop:fname) ",
    "timestamp": "2018-07-24T07:06:54Z"
  },
  {
    "id": 46037,
    "title": "Іду до тебе…",
    "text": "(noun:anim:f:v_zna:prop:fname) (noun:inanim:n:v_naz:nv) (noun:anim:s:v_rod:&pron:pers:2) (noun:inanim:p:v_rod) (verb) (noun:anim:s:v_rod:&pron:pers:2) (adj:m:v_naz:compb) (adj:m:v_naz) (adj:m:v_naz:compb) (noun:inanim:m:v_naz) (num) (noun) (adj:m:v_naz:&adjp:pasv:perf) (num) (noun:inanim:f:v_oru) (conj) (noun:inanim:m:v_rod) (noun:inanim:n:v_naz) (noun:inanim:f:v_rod) (noun:anim:f:v_rod) (noun:anim:m:v_mis:prop:fname:xp1) (noun:anim:m:v_rod:prop:lname) ",
    "timestamp": "2018-01-17T11:18:48Z"
  },
  {
    "id": 46039,
    "title": "Комітет виборців України",
    "text": "(noun:inanim:m:v_naz) (noun:anim:p:v_rod) (noun) (noun:inanim:m:v_naz:nv:np:prop:abbr) (adj:f:v_naz) (adj:f:v_naz) (noun:inanim:f:v_naz) (adj:m:v_oru:compb) (noun:inanim:n:v_oru) (adj) (verb:imperf:pres:s:1) (noun:inanim:n:v_naz) (conj) (noun:inanim:m:v_oru) (adj:p:v_rod) (noun:inanim:p:v_rod) (noun:inanim:n:v_naz) (noun:inanim:p:v_rod) (conj) (noun:anim:p:v_oru) (conj:coord) (noun:inanim:p:v_oru:xp1) (noun:inanim:f:v_rod) (conj:coord) (noun:inanim:m:v_naz) (adj:p:v_rod) (verb:imperf:impr:s:2) (noun:anim:p:v_rod) ",
    "timestamp": "2018-08-15T15:27:23Z"
  },
  {
    "id": 46041,
    "title": "Звита пара",
    "text": "(adj:f:v_naz:&adjp:pasv:imperf) (adj:m:v_naz:&adjp:pasv:imperf) (noun) (adj) (noun) (noun:inanim:m:v_naz) (adj:m:v_rod) (noun:inanim:m:v_rod) (conj) (adj:f:v_oru:&pron:dem:ind) (conj:coord) (num:p:v_oru:&pron:ind) (noun:inanim:p:v_oru) (adj:p:v_rod:&adjp:pasv:imperf:compb) (noun:anim:p:v_rod:xp1) (adj:p:v_rod:&adjp:pasv:perf) (conj) (noun:v_oru:&pron:refl) (conj) (adj:f:v_oru) (noun:inanim:f:v_oru) (noun:inanim:p:v_rod) (intj) (noun:inanim:f:v_zna) (noun:inanim:f:v_rod) (conj) (noun:inanim:n:v_naz) (adj:p:v_rod) (noun:inanim:p:v_rod) (verb:imperf:impr:s:2) (noun:inanim:f:v_rod) (noun:inanim:m:v_rod) (conj:coord) (adj:p:v_rod:&adjp:pasv:perf) (adj:f:v_oru) (noun:inanim:f:v_oru) ",
    "timestamp": "2018-07-16T09:14:42Z"
  },
  {
    "id": 46050,
    "title": "Лікома (острів)",
    "text": "(noun) (noun) (noun) (adj:m:v_naz:&pron:dem:ind) (conj) (num:p:v_rod) (adj:p:v_rod:compb:&&adjp:pasv:perf) (noun:inanim:p:v_rod) (conj) (noun:inanim:n:v_mis) (noun) (adj:m:v_naz:&numr) (adj:f:v_dav:compc) (conj) (noun:m:v_rod:&pron:pers:3) (noun) (verb:imperf:pres:s:3) (adv) (intj) (adj:m:v_dav:compb) (noun:inanim:m:v_mis:xp1) (adj:m:v_naz:&adjp:pasv:perf) (prep) (noun:m:v_rod:&pron:pers:3) (adj:m:v_rod:compb) (noun:inanim:n:v_naz) ",
    "timestamp": "2018-01-27T13:55:59Z"
  },
  {
    "id": 46054,
    "title": "Сталагміти",
    "text": "(noun:inanim:p:v_naz) (noun:inanim:f:v_naz) (verb:imperf:pres:s:3:xp1) (conj) (adj:m:v_rod) (noun) (noun) (noun:inanim:n:v_naz) (adj:n:v_naz) (noun:inanim:n:v_naz) (conj) (noun:inanim:m:v_mis) (noun:inanim:p:v_rod) (noun:inanim:p:v_rod) (noun:inanim:p:v_rod) (adj:n:v_naz:&pron:int:rel:def) (verb:rev:imperf:pres:s:3) (conj) (noun:inanim:f:v_rod) (noun:inanim:p:v_rod) (conj:coord) (adj:p:v_rod:&pron:def) (noun:inanim:p:v_rod) ",
    "timestamp": "2016-03-15T15:46:49Z"
  },
  {
    "id": 46055,
    "title": "Наука і суспільство (журнал)",
    "text": "(noun:inanim:f:v_naz) (conj:coord) (noun:inanim:n:v_naz) (adj:m:v_naz:comps) (adv) (adj:m:v_naz:compb) (noun:inanim:m:v_naz) (noun) ",
    "timestamp": "2017-06-29T19:22:52Z"
  },
  {
    "id": 46057,
    "title": "Сталактити",
    "text": "(noun:inanim:m:v_naz) (noun:inanim:f:v_naz) (verb:imperf:pres:s:3:xp1) (conj) (adj:m:v_rod) (noun) (noun) (noun:inanim:n:v_naz) (adv) (adj:n:v_naz) (noun:inanim:n:v_naz) (conj) (noun:inanim:m:v_mis) (noun:inanim:p:v_rod) (noun:inanim:p:v_rod) (noun:inanim:p:v_rod) (adj:n:v_naz:&pron:int:rel:def) (verb:imperf:pres:s:3) (prep) (noun:inanim:f:v_dav) (noun:inanim:p:v_rod) (conj:coord) (adj:p:v_rod:&pron:def) (noun:inanim:p:v_rod) ",
    "timestamp": "2017-06-23T11:16:47Z"
  },
  {
    "id": 46071,
    "title": "Церква Ісуса Христа Святих останніх днів",
    "text": "(noun:inanim:f:v_naz:prop:geo) (noun:anim:m:v_rod:prop:fname) (noun:anim:m:v_rod:prop:fname) (adj:p:v_rod:compb) (adj:p:v_rod:compb) (noun:inanim:p:v_rod) (noun) (noun) (noun) (conj) (noun) (noun) (conj) (adj) (noun) (noun) (adj:f:v_naz:compb) (noun:inanim:f:v_naz) (adj) (noun:inanim:n:v_naz) (adj:f:v_naz:comps) (noun:inanim:f:v_naz) (noun:inanim:m:v_rod) (adj:f:v_naz:&adjp:pasv:perf) (noun:anim:m:v_oru:prop:fname) (noun:anim:m:v_oru:prop:lname) (noun) (noun) (noun) (conj) (noun:inanim:p:v_naz:nv:ns:prop:geo) (conj) (num) ",
    "timestamp": "2018-10-12T23:26:48Z"
  },
  {
    "id": 46072,
    "title": "Мормони",
    "text": "(noun:anim:p:v_naz) (noun:anim:p:v_naz) (adj:f:v_rod:compb) (noun:inanim:f:v_rod) (noun:inanim:m:v_rod) (adj:m:v_naz:&pron:int:rel:def) (verb:imperf:past:n:&insert) (verb:perf:impers) (intj) (noun:inanim:m:v_dav:xp1) (num) (noun) (noun:anim:m:v_oru) (noun:inanim:m:v_naz:nv:abbr) (noun:anim:m:v_oru:prop:lname) ",
    "timestamp": "2018-10-12T23:02:55Z"
  },
  {
    "id": 46073,
    "title": "Шкільна Рада при УККА",
    "text": "(adj:f:v_naz) (noun:anim:f:v_naz:prop:fname) (verb:imperf:impr:s:2) (noun:inanim:m:v_naz:nv:prop:abbr) (noun) (adj) (adj) (noun) (noun) (verb:imperf:pres:s:1) (adj:m:v_oru:compb) (noun:inanim:m:v_oru:xp1) (noun:inanim:p:v_rod) (noun:inanim:n:v_rod) (conj) (noun:inanim:p:v_naz:nv:ns:prop:geo) ",
    "timestamp": "2018-10-12T19:04:02Z"
  },
  {
    "id": 46078,
    "title": "Липівка (Тисменицький район)",
    "text": "(noun:inanim:f:v_naz:prop:geo) (noun:inanim:n:v_naz) (adj:m:v_naz) (noun:inanim:m:v_naz) (noun:inanim:m:v_rod:prop:geo) (noun:inanim:m:v_rod:prop:geo) (noun:inanim:f:v_naz) (num) (noun:inanim:p:v_rod:xp1) ",
    "timestamp": "2018-02-15T11:07:53Z"
  },
  {
    "id": 46079,
    "title": "Джо Голдеман",
    "text": "(noun:anim:m:v_naz:nv:np:prop:fname) (noun) (noun) (noun) (noun) (noun) (num) (noun:inanim:m:v_rod) (num) (noun:inanim:f:v_naz:prop:geo) (noun:inanim:n:v_naz:nv:np) (adj:m:v_naz) (noun:anim:m:v_naz) (adj:m:v_naz:&pron:dem:ind) (conj) (adj:p:v_rod:compb) (noun:anim:p:v_rod) (adj:f:v_rod:compb) (adj:f:v_rod) (noun:inanim:f:v_rod) (noun:inanim:p:v_naz:nv:ns:prop:geo) (verb:imperf:past:m) (adv:&insert) (noun:anim:p:v_naz:xp1) ",
    "timestamp": "2018-09-22T18:33:39Z"
  },
  {
    "id": 46080,
    "title": "Українське шкільництво в діаспорі",
    "text": "(adj:n:v_naz:compb) (noun:inanim:n:v_naz) (conj) (noun:inanim:f:v_dav) (adj:n:v_naz) (noun:inanim:n:v_naz) (adv) (adj:n:v_naz:compb:&&adjp:pasv:perf) (noun:inanim:n:v_oru) (conj:coord) (noun:inanim:f:v_oru) (conj) (noun:anim:p:v_rod) (noun:anim:p:v_rod) (conj:coord) (noun:anim:p:v_rod) (adj:p:v_naz:&pron:int:rel:def) (verb:rev:imperf:past:p) (conj) (adj:p:v_rod:compb) (noun:inanim:p:v_rod) (noun:inanim:f:v_naz) (adj:f:v_oru) (noun:inanim:f:v_oru) ",
    "timestamp": "2017-09-07T09:36:12Z"
  },
  {
    "id": 46081,
    "title": "Кормань",
    "text": "(noun:inanim:f:v_naz:prop:geo) (noun:inanim:n:v_naz) (conj) (noun) (conj) (adj:m:v_dav) (noun:inanim:m:v_mis) (adj:f:v_rod) (noun:inanim:f:v_rod) ",
    "timestamp": "2017-06-04T01:00:38Z"
  },
  {
    "id": 46095,
    "title": "Павляк Кость",
    "text": "(noun:anim:m:v_naz:prop:fname:xp1) (noun:anim:m:v_naz:prop:fname) (noun) (noun) (num) (noun:inanim:m:v_rod) (num) (noun:anim:m:v_naz:prop:fname:xp1) (adj:f:v_naz) (noun:inanim:f:v_naz) (adj:m:v_naz:compb) (noun:anim:m:v_naz) (noun:anim:m:v_naz) (conj:coord) (noun:anim:m:v_naz) (noun:anim:m:v_naz) ",
    "timestamp": "2018-02-20T11:34:04Z"
  },
  {
    "id": 46096,
    "title": "Асиметричні алгоритми шифрування",
    "text": "(adj:p:v_naz:compb) (noun:inanim:f:v_rod) (adj:p:v_naz:compb) (noun:inanim:f:v_rod) (adj:m:v_rod) (noun:inanim:m:v_rod) (adj:p:v_rod:&adjp:pasv:perf) (adj:p:v_naz:&pron:int:rel:def) (adv:&insert) (verb:imperf:pres:p:3) (noun:inanim:p:v_oru) (conj) (adj:m:v_oru:compb:&&adjp:pasv:perf) (noun:inanim:m:v_oru) ",
    "timestamp": "2018-04-17T20:00:41Z"
  },
  {
    "id": 46112,
    "title": "Фонема",
    "text": "(noun:inanim:f:v_naz) (adj:f:v_naz:comps) (adj:f:v_naz) (adv) (adj:f:v_naz) (adj:f:v_naz) (noun:inanim:f:v_naz) (conj:subord) (adj:f:v_naz) (verb:imperf:inf) (adj:p:v_naz:&pron:ind) (noun:inanim:f:v_rod) (conj) (noun:inanim:n:v_mis) ",
    "timestamp": "2018-05-21T19:28:22Z"
  },
  {
    "id": 46117,
    "title": "Рівень домагань",
    "text": "(noun:inanim:m:v_naz) (noun:inanim:p:v_rod) (adj:f:v_naz:compb) (noun:inanim:f:v_naz) (noun:anim:m:v_rod) (verb:rev:imperf:pres:s:3) (noun:anim:m:v_oru) (conj:coord) (verb:rev:imperf:pres:s:3) (prep) (noun:m:v_rod:&pron:pers:3) (adj:m:v_naz:compb) (noun:inanim:m:v_naz) ",
    "timestamp": "2018-09-06T13:56:17Z"
  },
  {
    "id": 46118,
    "title": "Бурштин",
    "text": "(noun:inanim:m:v_naz:prop:geo) (conj:coord) (noun:inanim:m:v_naz) (adj:f:v_naz:compb) (adj:f:v_naz:compb) (noun:inanim:f:v_naz) (adj:f:v_naz:compb) (conj:coord) (noun:inanim:f:v_naz) (adj:f:v_naz:&adjp:actv:perf) (adj:f:v_naz) (noun:inanim:f:v_naz) (adj:p:v_rod) (noun:inanim:p:v_rod) (conj) (noun:inanim:m:v_mis) (adj:p:v_rod:compb) (adj:p:v_rod:compb) (conj:coord) (adj:p:v_rod) (verb:imperf:past:m) ",
    "timestamp": "2018-10-02T18:26:25Z"
  },
  {
    "id": 46119,
    "title": "Аїда",
    "text": "(noun:anim:m:v_rod:prop:fname) (noun) (noun) (noun:anim:m:v_rod:coll) (noun:anim:m:v_naz:nv:np:prop:fname) (noun:anim:m:v_naz:nv:np:prop:lname) (conj) (num) (noun:inanim:p:v_mis) (conj:coord) (num) (noun:inanim:p:v_mis) (intj) (noun:inanim:n:v_naz:nv) (conj:coord) (noun) (conj:coord) (noun) ",
    "timestamp": "2018-04-13T08:05:56Z"
  },
  {
    "id": 46139,
    "title": "Юда",
    "text": "(noun:anim:m:v_naz:prop:fname) (noun:anim:m:v_naz:prop:fname) (adj:f:v_naz) (noun:inanim:f:v_naz) (noun) (noun) (noun) (noun) (adj:n:v_naz) (noun:inanim:n:v_naz) (conj:coord) (noun:inanim:n:v_naz) ",
    "timestamp": "2016-03-12T16:58:56Z"
  },
  {
    "id": 46143,
    "title": "Юда (син Ізраїля)",
    "text": "(noun:anim:m:v_naz:prop:fname) (noun) (noun) (noun) (num) (noun:anim:m:v_naz) (noun:anim:m:v_rod:prop:fname) (noun:anim:m:v_rod:prop:fname) (conj) (noun) ",
    "timestamp": "2018-04-27T21:05:02Z"
  },
  {
    "id": 46150,
    "title": "Сикхізм",
    "text": "(noun:inanim:m:v_naz) (conj) (noun:inanim:m:v_mis:xp1) (noun) (noun:anim:m:v_naz) (noun:anim:m:v_naz) (noun:inanim:p:v_rod) (noun:inanim:f:v_naz) (adj:f:v_naz:&adjp:pasv:perf) (conj) (noun:inanim:m:v_mis:prop:geo) (conj) (adj:f:v_dav:compb) (noun:inanim:f:v_dav) (noun) (noun:inanim:m:v_naz:prop:geo) (noun:anim:m:v_naz:nv) (adj:m:v_oru:compb) (noun:anim:m:v_oru) (noun) (num) (num) ",
    "timestamp": "2018-05-27T11:52:18Z"
  },
  {
    "id": 46156,
    "title": "Роджер Желязни",
    "text": "(noun:anim:m:v_naz:prop:fname) (noun:anim:m:v_naz:prop:fname) (noun:anim:m:v_naz:nv:np:prop:lname) (noun) (noun) (noun) (noun) (conj) (adj:p:v_rod:&pron:ind) (noun:inanim:p:v_mis) (adv:&insert) (noun) (noun) (num) (noun:inanim:m:v_rod) (num) (noun:inanim:m:v_naz:prop:geo) (noun:inanim:m:v_naz) (noun:inanim:m:v_naz:nv:np:prop:geo) (noun:inanim:p:v_naz:nv:ns:prop:geo) (num) (noun:inanim:m:v_rod) (num) (noun:anim:m:v_naz:prop:fname) (intj) (noun:inanim:m:v_naz) (noun:inanim:f:v_kly:prop:geo) (noun:inanim:p:v_naz:nv:ns:prop:geo) (adj:m:v_naz) (noun:anim:m:v_naz) (noun:anim:m:v_naz) (noun:anim:m:v_naz) (noun:inanim:m:v_rod) (noun:inanim:f:v_rod:prop:geo) (noun:inanim:f:v_rod) (conj) (adj:f:v_dav) (noun:inanim:f:v_dav) (conj) (adj:f:v_dav:&pron:int:rel:def) (noun:anim:p:v_naz) (verb:perf:past:p) (noun:inanim:f:v_zna) (conj) (noun:anim:p:v_rod) (conj:coord) (adj:p:v_rod:compb) (noun:inanim:p:v_rod) (intj) (noun:anim:f:v_zna) (conj:coord) (noun:f:v_rod:&pron:pers:3) (adj:m:v_naz) (noun:inanim:m:v_naz) ",
    "timestamp": "2018-10-09T14:42:11Z"
  },
  {
    "id": 46158,
    "title": "Горовиць Володимир Самійлович",
    "text": "(noun:anim:m:v_naz:prop:fname:xp1) (noun) (noun:anim:m:v_naz:prop:lname) (num) (noun:inanim:m:v_rod) (num) (noun:inanim:m:v_naz:prop:geo) (num) (noun:inanim:m:v_rod:xp1) (num) (noun:inanim:m:v_naz:prop:geo) (noun:inanim:p:v_naz:nv:ns:prop:geo) (adj:m:v_naz:compb) (adj:m:v_naz) (conj:coord) (adj:m:v_naz) (noun:anim:m:v_naz) (adj:m:v_rod) (noun:inanim:n:v_naz) (noun:anim:m:v_naz) (adj:m:v_naz) (noun:inanim:m:v_rod) ",
    "timestamp": "2018-10-01T12:56:01Z"
  },
  {
    "id": 46159,
    "title": "Примаченко Марія Оксентіївна",
    "text": "(noun) (noun:anim:f:v_naz:prop:pname) (noun:anim:m:v_naz:prop:lname) (adv:&insert) (noun:anim:m:v_naz:prop:lname) (num) (noun:inanim:m:v_rod) (num) (num) (noun:inanim:m:v_rod) (num) (noun:inanim:n:v_naz) (noun:inanim:f:v_naz:prop:geo) (adv) (adj:m:v_naz) (noun:inanim:m:v_naz) (adj) (noun:inanim:f:v_naz) (num) (noun:inanim:m:v_rod) (num) (adv:&pron:dem) (adj:n:v_naz:&pron:def) (noun:inanim:f:v_naz) (adj:f:v_naz:compb) (noun:anim:f:v_naz) (noun:anim:f:v_naz) (adj:m:v_rod:compb) (noun) (noun:anim:m:v_naz) (adj:f:v_rod) (noun:inanim:f:v_rod) (noun) (noun:inanim:n:v_naz) (noun:inanim:f:v_naz:nv:abbr) (noun:inanim:m:v_naz:nv:abbr) (noun:anim:m:v_rod:prop:lname) ",
    "timestamp": "2018-08-19T16:59:37Z"
  },
  {
    "id": 46178,
    "title": "Міські агломерації України",
    "text": "(adj:p:v_naz) (noun:inanim:f:v_rod) (noun) (adj:p:v_naz) (noun:inanim:f:v_rod) (adj:p:v_naz:&adjp:pasv:perf) (prep) (adj:p:v_rod:compb) (noun:inanim:m:v_naz) (noun) (adv:&insert) (noun:inanim:m:v_naz:prop:geo) (noun:inanim:m:v_naz:prop:geo) (conj:coord) (conj) (adj:p:v_rod) (noun:inanim:p:v_mis) (adv:&insert) (noun:inanim:m:v_naz:prop:geo) (noun:anim:m:v_naz:prop:lname) (noun:inanim:m:v_naz:prop:geo) ",
    "timestamp": "2018-07-24T10:35:47Z"
  },
  {
    "id": 46186,
    "title": "Дніпровська агломерація",
    "text": "(adj:f:v_naz) (noun:inanim:f:v_naz) (noun:inanim:f:v_naz) (conj) (noun:inanim:m:v_oru:xp1) (conj) (noun:inanim:n:v_mis) (noun:inanim:m:v_naz:prop:geo) ",
    "timestamp": "2017-09-14T00:39:18Z"
  },
  {
    "id": 46192,
    "title": "Нікопольська агломерація",
    "text": "(adj:f:v_naz) (noun:inanim:f:v_naz) (noun:inanim:f:v_naz) (conj) (noun:inanim:m:v_oru:xp1) (conj) (noun:inanim:n:v_mis) (noun:inanim:m:v_naz:prop:geo) ",
    "timestamp": "2017-09-27T17:27:07Z"
  },
  {
    "id": 46196,
    "title": "Криворізька агломерація",
    "text": "(adj:f:v_naz) (noun:inanim:f:v_naz) (noun:inanim:f:v_naz) (conj) (noun:inanim:m:v_oru:xp1) (conj) (noun:inanim:n:v_mis) (noun:anim:m:v_naz:prop:lname) (noun:inanim:m:v_naz:prop:geo) ",
    "timestamp": "2017-09-13T22:49:44Z"
  },
  {
    "id": 46197,
    "title": "Павлоградська агломерація",
    "text": "(adj:f:v_naz) (noun:inanim:f:v_naz) (noun:inanim:f:v_naz) (conj) (noun:inanim:m:v_oru:xp1) (conj) (noun:inanim:n:v_mis) (noun:inanim:m:v_naz:prop:geo) ",
    "timestamp": "2017-09-14T22:38:30Z"
  },
  {
    "id": 46199,
    "title": "Запорізька агломерація",
    "text": "(adj:f:v_naz) (noun:inanim:f:v_naz) (noun:inanim:f:v_naz) (conj) (noun:inanim:m:v_oru:xp1) (conj) (noun:inanim:n:v_mis) (noun:inanim:n:v_naz:prop:geo) ",
    "timestamp": "2017-09-26T21:48:21Z"
  },
  {
    "id": 46200,
    "title": "Сокальський Володимир Іванович",
    "text": "(noun:anim:m:v_naz:prop:fname:xp1) (noun:anim:f:v_naz:nv:np:prop:lname) (noun:anim:m:v_naz:prop:lname) (noun:inanim:p:v_rod:ns) (num) (noun:inanim:m:v_rod) (num) (noun) (noun:inanim:f:v_naz:prop:geo) (verb) (num) (noun:inanim:m:v_naz:prop:geo) (adj:m:v_naz:compb) (noun:anim:m:v_naz) (noun:anim:m:v_naz) (conj:coord) (adj:m:v_naz:compb) (noun:anim:m:v_naz) (noun:anim:m:v_naz) (noun:anim:m:v_rod:prop:fname) (noun:anim:m:v_rod:prop:lname) (conj:coord) (noun:anim:m:v_naz) (noun:anim:f:v_naz:prop:fname) (noun:anim:m:v_rod:prop:lname) ",
    "timestamp": "2018-05-08T04:59:37Z"
  }
]