[
  {
    "id": 31312,
    "title": "Лігатура",
    "text": "(noun:inanim:f:v_naz) (noun:inanim:m:v_naz) (noun) (conj) (noun:inanim:m:v_naz) (noun) (verb:imperf:pres:s:1) (noun:inanim:n:v_naz) (conj:subord) (verb:imperf:pres:s:3) (noun:inanim:p:v_rod) (noun:inanim:f:v_zna) (conj) (adj:p:v_rod:compb) (noun:inanim:p:v_mis) ",
    "timestamp": "2018-06-23T14:44:24Z"
  },
  {
    "id": 31314,
    "title": "Богданівка (Корецький район)",
    "text": "(noun) (noun:inanim:n:v_naz) (conj) (noun:inanim:m:v_mis) (adj) (adj:f:v_rod) (noun:inanim:p:v_naz) (noun:anim:m:v_rod:prop:lname) (noun:inanim:m:v_rod) (adj) (noun:inanim:f:v_rod) (noun) (num) (noun:anim:p:v_rod:xp1) ",
    "timestamp": "2017-10-23T07:15:29Z"
  },
  {
    "id": 31317,
    "title": "Бактерицидна лампа",
    "text": "(adj:f:v_naz) (noun) (adj:n:v_naz) (noun:inanim:n:v_naz) (part) (noun:inanim:p:v_naz) (noun:inanim:p:v_rod) (conj:subord) (verb:rev:imperf:pres:p:3) (conj) (noun:inanim:n:v_naz) (noun:inanim:p:v_rod) (conj) (noun:anim:p:v_rod) (noun:unanim:p:v_rod) (noun:inanim:p:v_rod) (part) ",
    "timestamp": "2017-06-25T00:01:09Z"
  },
  {
    "id": 31320,
    "title": "Стрітівка",
    "text": "(noun) (noun:inanim:n:v_naz) (noun:anim:m:v_rod:prop:lname) (noun:inanim:m:v_rod) (adj) (noun:inanim:f:v_rod) ",
    "timestamp": "2018-07-14T11:30:33Z"
  },
  {
    "id": 31321,
    "title": "Сито",
    "text": "(noun) (noun:inanim:m:v_naz) (conj) (noun) (adj:m:v_rod:&pron:int:rel:def) (verb:imperf:pres:p:3) (adj:p:v_naz:compb) (noun:inanim:f:v_rod) (prep) (adj:p:v_rod:compb) (noun:inanim:p:v_rod) ",
    "timestamp": "2018-03-20T14:18:03Z"
  },
  {
    "id": 31322,
    "title": "Ювелірна справа",
    "text": "(adj:f:v_naz) (adv) (noun:anim:f:v_naz) (noun:inanim:n:v_naz) (noun:inanim:n:v_naz) (adj:n:v_naz) (noun) (noun:inanim:m:v_naz) (adj:f:v_rod) (noun:inanim:f:v_rod) (conj:subord) (verb:imperf:pres:s:3) (verb:imperf:inf) (adj:p:v_naz:compb) (noun:inanim:f:v_rod) (noun:inanim:n:v_rod) (noun:anim:f:v_rod) ",
    "timestamp": "2018-09-14T21:42:17Z"
  },
  {
    "id": 31323,
    "title": "Стрітівська вища педагогічна школа кобзарського мистецтва",
    "text": "(adj) (adj:f:v_naz:compc) (adj:f:v_naz) (noun:inanim:f:v_naz) (adj) (noun) (adj:m:v_naz:compc) (adj:m:v_naz) (noun:inanim:m:v_naz) (num) (noun:inanim:m:v_rod) (noun:inanim:f:v_rod) (conj) (noun:inanim:f:v_naz:nv:abbr) (noun) (noun:anim:m:v_naz:prop:lname) (noun:inanim:m:v_naz) ",
    "timestamp": "2018-07-17T16:33:09Z"
  },
  {
    "id": 31324,
    "title": "Буковина",
    "text": "(noun:inanim:f:v_naz:prop:geo) (noun:inanim:m:v_naz:&predic) (noun:inanim:p:v_rod) (adj:m:v_naz) (noun:inanim:m:v_naz) (adj:m:v_naz:&adjp:pasv:perf) (conj) (adj:f:v_oru) (noun:inanim:f:v_oru) (noun:inanim:m:v_rod:prop:geo) (conj:coord) (adj:m:v_oru:compb) (adj) (noun:inanim:m:v_oru) (conj) (noun:inanim:p:v_mis) (adj:f:v_rod) (noun:inanim:f:v_rod) (noun:inanim:m:v_rod:prop:geo) (conj:coord) (noun) ",
    "timestamp": "2018-10-20T11:12:13Z"
  },
  {
    "id": 31327,
    "title": "Коралі",
    "text": "(noun) (noun:inanim:n:v_naz) (prep) (adj:p:v_rod:bad) (adj:p:v_rod) (noun:inanim:p:v_rod) (conj) (noun:inanim:m:v_mis) (noun:inanim:p:v_rod) (conj:coord) (noun:inanim:p:v_rod) (adj:p:v_rod:&adjp:pasv:perf) (intj) (noun:inanim:f:v_zna) ",
    "timestamp": "2018-02-18T09:13:55Z"
  },
  {
    "id": 31328,
    "title": "Нововолинськ",
    "text": "(noun) (noun:inanim:n:v_naz) (adj:m:v_rod) (noun:inanim:n:v_naz) (conj) (noun) (noun:anim:f:v_naz:prop:lname) (noun:inanim:f:v_naz) ",
    "timestamp": "2018-10-10T20:33:50Z"
  },
  {
    "id": 31330,
    "title": "Ківерці",
    "text": "(noun) (noun) (noun) (noun:inanim:n:v_naz) (adj:m:v_rod) (noun:inanim:n:v_naz) (conj) (noun:anim:f:v_dav:prop:lname) (noun:inanim:f:v_rod) (noun:inanim:m:v_naz) (adj) (noun:inanim:m:v_rod) ",
    "timestamp": "2018-10-16T09:46:16Z"
  },
  {
    "id": 31331,
    "title": "Любомль",
    "text": "(noun) (noun) (noun) (noun:inanim:m:v_naz) (noun) (noun:inanim:n:v_naz) (adj:m:v_rod) (noun:inanim:n:v_naz) (conj) (adj:f:v_dav:compb) (noun:inanim:f:v_dav) (noun:anim:f:v_dav:prop:lname) (noun:inanim:f:v_rod) (noun) (noun:inanim:m:v_naz) (adj) (noun:inanim:m:v_rod) ",
    "timestamp": "2018-10-02T19:18:09Z"
  },
  {
    "id": 31333,
    "title": "Маневичі",
    "text": "(noun) (noun) (noun) (noun:m:v_mis:&pron:pers:3) (noun) (noun:inanim:m:v_naz) (noun) (noun:inanim:n:v_naz) (conj) (noun) (noun:inanim:m:v_naz:xp1) (adj) (noun:inanim:m:v_rod) (noun:anim:f:v_rod:prop:lname) (noun:inanim:f:v_rod) ",
    "timestamp": "2018-07-08T19:35:58Z"
  },
  {
    "id": 31335,
    "title": "Здолбунів",
    "text": "(noun) (noun:inanim:n:v_naz) (conj) (noun) (noun:inanim:m:v_naz:xp1) (adj) (noun:inanim:m:v_rod) (adj) (noun:inanim:f:v_rod) ",
    "timestamp": "2018-10-11T20:46:46Z"
  },
  {
    "id": 31336,
    "title": "Радивилів",
    "text": "(noun:inanim:m:v_naz:prop:geo) (noun:inanim:n:v_naz:nv) (num) (noun) (noun) (conj) (num) (num) (noun) (noun) (noun:inanim:n:v_naz) (conj) (noun) (noun:inanim:m:v_naz:xp1) (adj) (adj:f:v_rod) (adj:f:v_rod) (noun:inanim:f:v_rod) (conj:coord) (adj) (noun:inanim:m:v_rod) (adj) (noun:inanim:f:v_rod) ",
    "timestamp": "2018-08-19T12:05:58Z"
  },
  {
    "id": 31340,
    "title": "Болотяна кобилка",
    "text": "(noun:inanim:f:v_naz:prop:geo) (adj:f:v_naz) (noun) (noun) (noun:anim:f:v_naz) (conj) (noun:inanim:m:v_rod) (adj:p:v_rod) ",
    "timestamp": "2017-03-20T16:02:38Z"
  },
  {
    "id": 31341,
    "title": "Мізинська стоянка",
    "text": "(adj) (noun:inanim:f:v_naz) (adj:f:v_naz) (noun) (adj:m:v_rod:compb) (noun:inanim:m:v_rod) ",
    "timestamp": "2018-07-20T12:53:42Z"
  },
  {
    "id": 31344,
    "title": "Гімн Литви",
    "text": "(noun) (noun) (noun) (adj:f:v_naz) (noun:inanim:f:v_naz) (adj:m:v_naz) (noun:inanim:m:v_naz) (adj) (noun:inanim:f:v_rod) ",
    "timestamp": "2017-03-18T15:44:15Z"
  },
  {
    "id": 31347,
    "title": "Вінцас Кудірка",
    "text": "(noun) (noun) (noun) (noun) (noun) (noun) (noun) (noun) (num) (noun:inanim:m:v_rod) (num) (num) (noun:inanim:m:v_rod:xp1) (num) (adj:m:v_naz) (noun:anim:m:v_naz) (noun:anim:m:v_naz) (conj:coord) (noun:anim:m:v_naz) (noun:anim:m:v_naz) (conj:coord) (noun:anim:m:v_naz) (noun:anim:m:v_naz) (noun:anim:m:v_rod:xp1) (conj:coord) (noun:inanim:m:v_rod) (adj:m:v_rod) (adj:m:v_rod) (noun:inanim:m:v_rod) (noun) (noun) (noun:anim:m:v_naz) (conj) (noun:inanim:f:v_oru) ",
    "timestamp": "2016-10-29T09:52:19Z"
  },
  {
    "id": 31353,
    "title": "Бровари",
    "text": "(noun) (adv:&insert) (noun:inanim:n:v_naz:nv) (num) (noun) (conj:coord) (part) (adv:compb) (noun:inanim:n:v_naz:nv) (num) (noun) (noun:inanim:p:v_naz:prop:geo:ns) (noun:inanim:n:v_naz) (adj:m:v_rod) (noun:inanim:n:v_naz) (conj) (noun) (adj:m:v_naz) (noun:inanim:m:v_naz:xp1) (adj) (noun:inanim:m:v_rod) (adj) (noun:inanim:f:v_rod) (adv:comps) (noun:inanim:n:v_naz) (adj) (noun:inanim:f:v_rod) (adv) (noun) ",
    "timestamp": "2018-10-15T13:27:29Z"
  },
  {
    "id": 31354,
    "title": "Благодатне (Нововолинська міська рада)",
    "text": "(noun:inanim:n:v_naz:prop:geo) (noun:inanim:n:v_naz:nv) (num) (noun) (noun:inanim:n:v_naz:prop:geo) (noun:inanim:n:v_naz) (adj:m:v_rod) (noun:anim:m:v_dav:xp1) (conj) (noun) (noun:anim:f:v_naz:prop:lname) (noun:inanim:f:v_naz) (adj:n:v_naz:&adjp:pasv:perf) (adj) (adj:f:v_dav) (noun:inanim:m:v_mis) ",
    "timestamp": "2018-10-15T19:14:32Z"
  },
  {
    "id": 31355,
    "title": "Атбасар",
    "text": "(noun) (noun:inanim:m:v_naz) (noun) (noun:inanim:n:v_naz) (noun:inanim:m:v_naz:xp1) (adj) (noun:inanim:m:v_rod) (adj) (noun:inanim:f:v_rod) (noun) ",
    "timestamp": "2018-08-05T13:35:09Z"
  },
  {
    "id": 31356,
    "title": "Шиєлі (Чиїлійський район)",
    "text": "(noun) (noun:inanim:m:v_naz) (noun) (noun:inanim:n:v_naz) (noun:inanim:m:v_naz:xp1) (noun) (noun:inanim:m:v_rod) (adj) (noun:inanim:f:v_rod) (noun) ",
    "timestamp": "2018-08-05T15:41:57Z"
  },
  {
    "id": 31357,
    "title": "Вишневе (місто)",
    "text": "(noun) (noun:inanim:n:v_naz) (conj) (noun) (adj) (noun:inanim:m:v_mis) (adj) (noun:inanim:f:v_rod) (adj) (adj:n:v_naz:compb) (noun:inanim:n:v_naz) (noun) ",
    "timestamp": "2018-07-24T15:00:41Z"
  },
  {
    "id": 31360,
    "title": "Марія Терезія Іспанська",
    "text": "(noun) (noun) (noun) (num) (noun:inanim:m:v_rod) (noun) (num) (noun:inanim:m:v_rod) (num) (noun:anim:f:v_naz) (noun:anim:m:v_rod) (num) (num) (num) (conj:coord) (num) (noun) (noun:anim:f:v_naz:xp1) (adj:m:v_rod) (noun:anim:m:v_rod) (num) (num) (num) ",
    "timestamp": "2018-02-20T11:32:52Z"
  },
  {
    "id": 31361,
    "title": "Монастир",
    "text": "(noun:inanim:m:v_naz:prop:geo:xp1) (noun) (noun) (adj) (noun) (noun) (adj:f:v_naz:compb) (noun:inanim:f:v_naz) (noun:anim:p:v_rod) (conj:coord) (noun:anim:p:v_rod:xp1) (conj:subord) (verb:imperf:pres:s:3) (adj:p:v_oru) (noun:p:v_dav:&pron:pers:3) (noun:inanim:p:v_oru) (conj:coord) (noun:inanim:p:v_oru) (conj:coord) (verb:imperf:past:f) (adv:compb) (adj:f:v_zna) (noun:inanim:f:v_zna) ",
    "timestamp": "2018-04-09T13:58:30Z"
  },
  {
    "id": 31388,
    "title": "Чемпіонат світу з футболу 2002",
    "text": "(noun) (noun:inanim:m:v_rod) (conj) (noun:inanim:m:v_rod) (num) (num) (conj:coord) (noun:inanim:m:v_naz) (noun:inanim:m:v_rod) ",
    "timestamp": "2018-04-11T11:33:29Z"
  },
  {
    "id": 31391,
    "title": "Закон сталості складу",
    "text": "(noun:inanim:m:v_naz) (noun:inanim:f:v_rod) (noun:inanim:m:v_rod) (noun:inanim:p:v_rod) (noun:inanim:m:v_naz) (noun) (noun:inanim:m:v_rod:bad) (noun) (noun) (conj) (noun) (noun) (verb:imperf:past:m) (adj:m:v_naz:compb:&&adjp:pasv:perf) (adj:m:v_oru) (adj:m:v_oru:&&adjp:pasv:imperf) (noun) (noun) (conj) (num) (noun:inanim:m:v_mis) ",
    "timestamp": "2016-09-24T09:01:15Z"
  },
  {
    "id": 31394,
    "title": "Варпас",
    "text": "(noun) (noun) (noun) (noun) (adj:m:v_naz) (adj:m:v_naz) (noun:inanim:m:v_naz) (adj:m:v_rod:compb) (conj:coord) (adv) (num) (noun) (adj:m:v_rod) ",
    "timestamp": "2018-07-15T08:43:51Z"
  },
  {
    "id": 31401,
    "title": "Почаївська лавра",
    "text": "(adj) (noun) (noun) (adj:m:v_naz) (adj:m:v_naz) (noun) (conj) (noun) (adj) (noun:inanim:m:v_naz) (adj) (noun:inanim:f:v_naz) (noun:anim:f:v_rod:prop:lname) (noun:anim:f:v_rod) (noun:inanim:f:v_rod) (adj) (noun:inanim:m:v_rod) (prep) (noun:inanim:m:v_oru) (noun:inanim:p:v_naz) ",
    "timestamp": "2018-10-16T21:25:38Z"
  },
  {
    "id": 31402,
    "title": "Святогірська лавра",
    "text": "(adj) (adj) (noun) (adj:m:v_naz) (noun) (adj) (noun:inanim:m:v_rod) (conj) (noun) (noun:inanim:m:v_rod:prop:geo) (noun:inanim:f:v_naz) ",
    "timestamp": "2018-10-14T20:14:53Z"
  },
  {
    "id": 31405,
    "title": "Череп",
    "text": "(noun) (noun:inanim:m:v_naz) (noun) (noun:inanim:f:v_naz) (noun:inanim:p:v_rod) (noun:anim:m:v_rod:xp1) (adj:p:v_rod) (noun:anim:p:v_rod:xp1) ",
    "timestamp": "2017-10-05T18:20:23Z"
  },
  {
    "id": 31407,
    "title": "Орден Червоної Зірки",
    "text": "(noun:inanim:m:v_naz:xp1) (noun:anim:f:v_rod:prop:lname) (noun) (adj:m:v_naz:&pron:dem:ind) (conj) (adj:p:v_rod:compb:&numr) (adj:p:v_rod) (adj:p:v_rod) (noun:inanim:p:v_rod:xp1) ",
    "timestamp": "2017-09-23T07:11:11Z"
  },
  {
    "id": 31408,
    "title": "Загальці",
    "text": "(noun) (noun:inanim:n:v_naz) (conj) (noun) (conj) (adj) (noun:inanim:m:v_mis) (adj) (noun:inanim:f:v_rod) ",
    "timestamp": "2018-02-02T10:05:55Z"
  },
  {
    "id": 31411,
    "title": "Хмельницький Тимофій Богданович",
    "text": "(noun) (noun) (noun) (num) (noun:inanim:m:v_rod) (num) (noun) (num) (noun:inanim:m:v_rod) (num) (noun) (adj:m:v_naz:compb) (adj:m:v_naz) (conj:coord) (adj:m:v_naz) (noun:anim:m:v_naz) (adj:m:v_naz) (noun:anim:m:v_naz) (adj:m:v_naz:&pron:dem:ind) (prep) (noun:anim:p:v_rod) (conj:coord) (noun:anim:p:v_rod) (noun) ",
    "timestamp": "2018-02-24T08:18:57Z"
  },
  {
    "id": 31412,
    "title": "Покальчук Юрій Володимирович",
    "text": "(noun) (noun) (noun) (num) (noun:inanim:m:v_rod) (num) (noun:inanim:m:v_naz:nv:abbr) (noun) (num) (noun:inanim:m:v_rod) (num) (noun:inanim:m:v_naz:prop:geo) (adj:m:v_naz:compb) (noun:anim:m:v_naz) (noun:anim:m:v_naz) (noun:anim:m:v_naz) (noun:anim:m:v_naz) (adj:p:v_rod) (noun:inanim:p:v_rod) (noun:anim:m:v_naz:xp1) (adj:m:v_rod) (noun:inanim:m:v_rod) (noun:inanim:f:v_rod) (noun:anim:p:v_rod) (noun) ",
    "timestamp": "2018-09-10T08:25:52Z"
  },
  {
    "id": 31413,
    "title": "Табель про ранги",
    "text": "(noun:inanim:m:v_naz) (part) (noun:inanim:p:v_naz) (noun:inanim:p:v_rod) (noun:inanim:m:v_naz) (intj) (noun:inanim:p:v_mis) (noun:inanim:f:v_naz) (adj:f:v_naz) (noun:inanim:f:v_naz) (noun:inanim:p:v_rod) (conj:coord) (noun:anim:p:v_rod:xp1) (adj:f:v_naz:&adjp:pasv:perf) (noun) (num) (noun:inanim:m:v_naz) (conj) (num) (noun:inanim:m:v_rod) (num) (adj:m:v_rod:compb) (num) (noun) (conj) (noun:inanim:n:v_naz) (noun:inanim:f:v_rod) (conj) (adj:p:v_oru:compb) (noun:anim:p:v_oru:xp1) (adj:f:v_rod) (adj:f:v_rod) (conj:coord) (adj:f:v_rod) (noun:inanim:p:v_rod) (noun:inanim:n:v_naz) (adj:f:v_rod:&pron:pos) (noun:inanim:f:v_rod) (conj:coord) (noun:inanim:p:v_rod) (noun:inanim:n:v_naz) (noun:inanim:n:v_rod) (adj:m:v_oru) (noun:anim:p:v_dav) ",
    "timestamp": "2018-09-16T07:04:07Z"
  },
  {
    "id": 31420,
    "title": "Аукштота",
    "text": "(noun) (noun) (noun) (adj) (noun) (noun) (noun) (noun) (noun) (noun) (noun) (noun) (noun) (adj:m:v_naz:comps) (conj) (noun:inanim:f:v_rod:xp1) (noun:inanim:p:v_rod) (noun:inanim:f:v_rod:prop:geo) (verb:imperf:pres:s:3) (adj:f:v_zna) (noun:inanim:f:v_zna) (intj) (adj:m:v_dav:compb) (noun:inanim:m:v_mis) (noun:inanim:f:v_rod) (conj:coord) (adv:&insert) (noun:inanim:n:v_naz) (noun) (conj:coord) (noun:anim:m:v_mis:prop:lname) ",
    "timestamp": "2016-08-28T06:39:22Z"
  },
  {
    "id": 31421,
    "title": "Жмудь",
    "text": "(noun:anim:m:v_naz:prop:lname) (noun) (noun) (noun) (adj) (noun) (noun) (noun) (noun) (noun) (noun) (noun) (noun:m:v_mis:&pron:pers:3) (noun) (noun:inanim:m:v_naz) (noun) (noun:inanim:m:v_naz) (intj) (adj:m:v_dav:compb) (noun:inanim:m:v_mis:xp1) (noun:inanim:f:v_rod:prop:geo) (adv:&pron:int:rel) (verb:imperf:pres:p:3) (adj:f:v_oru) (noun:inanim:f:v_oru) (noun:anim:m:v_rod) (adv:compb) (verb:rev:imperf:pres:s:3) (conj) (noun:inanim:f:v_rod) (noun:inanim:f:v_rod) ",
    "timestamp": "2018-07-14T18:44:11Z"
  },
  {
    "id": 31422,
    "title": "Сувальщина",
    "text": "(noun) (noun) (noun) (noun) (noun) (noun) (noun) (adv:compb) (adj:m:v_naz:compb) (noun:inanim:m:v_naz) (intj) (adj:m:v_dav:compb) (noun:inanim:m:v_mis:xp1) (adv) (noun) ",
    "timestamp": "2017-05-20T13:33:51Z"
  },
  {
    "id": 31423,
    "title": "Теорія інформації",
    "text": "(noun:inanim:f:v_naz) (noun) (noun) (noun:inanim:m:v_naz) (noun:anim:p:v_naz) (adj:m:v_naz:&pron:int:rel:def) (verb:imperf:pres:s:3) (noun:inanim:p:v_naz) (noun:inanim:n:v_naz) (noun:inanim:n:v_naz) (conj:coord) (noun:inanim:f:v_rod) (noun) ",
    "timestamp": "2018-01-31T21:01:39Z"
  },
  {
    "id": 31424,
    "title": "Дзукія",
    "text": "(noun) (noun) (noun) (noun) (noun) (noun) (noun) (noun) (noun) (adj:m:v_naz) (noun:inanim:m:v_naz) (noun:inanim:f:v_rod) (intj) (noun:inanim:m:v_mis) (conj:coord) (adj:m:v_dav:compb) (noun:inanim:m:v_mis) (noun:inanim:f:v_rod:prop:geo) (conj) (adj:m:v_naz) (noun:inanim:f:v_rod) (noun:inanim:f:v_rod) (noun) (adv) (noun:inanim:m:v_rod) (conj) (noun) ",
    "timestamp": "2018-01-23T19:26:52Z"
  },
  {
    "id": 31425,
    "title": "Мала Литва",
    "text": "(noun:anim:f:v_naz:prop:lname) (noun) (noun) (noun) (noun) (noun) (noun) (noun) (noun) (noun) (noun) (noun:m:v_mis:&pron:pers:3) (noun) (noun:inanim:p:v_rod) (adj) (noun) (conj:coord) (adj) (noun) (noun) (noun) (noun) (noun:m:v_mis:&pron:pers:3) (adj) (noun) (noun) (noun) (adj) (adj:m:v_naz) (adj:m:v_naz) (noun:inanim:m:v_naz) (noun:inanim:f:v_rod:prop:geo) (adv:compc:&predic) (adj) (noun:inanim:f:v_naz:prop:geo) (conj) (noun:inanim:f:v_dav:prop:geo) (adv:&pron:int:rel) (noun:anim:f:v_rod:xp1) (adj:p:v_naz) (noun:anim:m:v_mis) (conj:coord) (adv:compb:&predic) (noun:anim:m:v_mis) ",
    "timestamp": "2018-06-23T22:17:26Z"
  },
  {
    "id": 31427,
    "title": "Єрусалим",
    "text": "(noun:inanim:m:v_naz:prop:geo) (noun) (noun) (noun) (noun:anim:m:v_naz) (noun) (noun) (adj:n:v_naz:compb) (adj:n:v_naz) (noun:inanim:n:v_naz) (adj:n:v_naz:&adjp:pasv:perf) (intj) (noun:inanim:m:v_mis) (conj) (noun) (conj:coord) (adj) (noun:inanim:p:v_oru) (intj) (noun:inanim:f:v_dav) (num) (num) (adj:n:v_naz:&pron:dem:ind) (conj) (adj:p:v_rod:comps) (noun:inanim:m:v_naz) (noun:inanim:m:v_rod) (noun:inanim:m:v_naz:xp1) (num:p:v_rod) (noun) (noun:inanim:m:v_rod) (noun:inanim:n:v_rod) (conj:coord) (noun:inanim:m:v_rod) (noun:inanim:f:v_naz) (adj:m:v_rod:compb) (adj) (noun:inanim:n:v_rod) ",
    "timestamp": "2018-10-09T20:25:13Z"
  },
  {
    "id": 31428,
    "title": "Прямокрилі",
    "text": "(adj:p:v_naz) (noun) (noun:inanim:m:v_naz) (noun:inanim:p:v_mis) ",
    "timestamp": "2018-10-08T14:35:28Z"
  },
  {
    "id": 31455,
    "title": "Дора (село)",
    "text": "(noun) (adj:n:v_naz) (adj:n:v_naz:compb) (noun:inanim:n:v_naz) (adj:n:v_naz:&adjp:pasv:perf) (adv) (noun:inanim:n:v_rod) (noun) (adv) (verb:imperf:pres:s:3) (noun:inanim:n:v_naz:nv) (noun:m:v_rod:&pron:pers:3) (noun:inanim:m:v_rod) (noun) (noun) (noun:inanim:m:v_rod:prop:geo) (noun:inanim:m:v_rod:prop:geo) (noun:inanim:f:v_naz) ",
    "timestamp": "2018-10-18T20:09:14Z"
  },
  {
    "id": 31461,
    "title": "Термодинамічна фаза",
    "text": "(adj:f:v_naz) (noun) (adv) (adj:m:v_naz) (noun:inanim:m:v_naz:xp1) (noun:inanim:f:v_rod) (adj:m:v_naz) (conj) (adj:p:v_oru:&pron:pos) (adj:p:v_oru) (noun:inanim:p:v_oru) (conj) (adj:p:v_rod:&pron:def) (noun:inanim:p:v_rod:xp1) (adj:f:v_rod:&pron:dem) (conj:coord) (noun:inanim:f:v_rod) ",
    "timestamp": "2016-05-19T19:12:31Z"
  },
  {
    "id": 31462,
    "title": "Кононович Леонід Григорович",
    "text": "(noun) (noun) (noun) (num) (noun:inanim:m:v_rod) (num) (noun:inanim:f:v_naz:prop:geo) (adj) (noun:inanim:m:v_naz) (adj) (noun:inanim:f:v_naz) (adj:m:v_naz:compb) (noun:anim:m:v_naz) (noun:anim:m:v_naz) (noun:anim:m:v_naz) (adj:m:v_rod) (noun:inanim:m:v_rod) ",
    "timestamp": "2018-09-04T09:32:19Z"
  },
  {
    "id": 31467,
    "title": "Чорна металургія України",
    "text": "(noun:anim:f:v_naz:prop:lname) (noun:inanim:f:v_naz) (noun) (noun:inanim:f:v_naz) (adj:m:v_rod:compb) (noun:inanim:n:v_rod) (noun) ",
    "timestamp": "2018-07-29T12:07:06Z"
  },
  {
    "id": 31471,
    "title": "Тридцятилітня війна",
    "text": "(adj:f:v_naz) (noun:inanim:f:v_naz) (conj:coord) (adj:f:v_naz) (noun:inanim:f:v_naz) (noun:m:v_mis:&pron:pers:3) (noun) (noun) (noun:inanim:f:v_naz) (adj:f:v_naz) (noun:inanim:f:v_naz) (conj) (num) (num) (noun) (conj) (noun:inanim:m:v_oru) (adj:p:v_rod) (conj:coord) (noun:inanim:f:v_oru) (adj:p:v_rod) (noun:inanim:p:v_rod) ",
    "timestamp": "2018-09-28T10:29:11Z"
  },
  {
    "id": 31476,
    "title": "Аорси",
    "text": "(noun) (noun) (noun) (noun:inanim:m:v_naz) (noun) (adv:compb:&insert) (adj:f:v_naz:compb) (noun:inanim:f:v_naz) (adj:p:v_rod:compb) (adj:p:v_rod) (noun:inanim:p:v_rod) (adv) (noun:inanim:n:v_oru) (noun:inanim:n:v_oru) (adj:p:v_oru:compb) (noun:inanim:p:v_oru) (conj:coord) (noun:inanim:p:v_oru) (intj) (noun:inanim:f:v_zna) (conj) (adj:p:v_rod:compb) (adj) (adj:p:v_rod) (noun:inanim:p:v_rod) (noun) (part) (adj:p:v_naz:&pron:int:rel:def) (verb:rev:imperf:past:p) (intj) (num:p:v_naz:&pron:ind) (adv) (num:p:v_naz) (adj:p:v_rod) (noun:inanim:p:v_rod) ",
    "timestamp": "2018-05-27T06:23:59Z"
  },
  {
    "id": 31477,
    "title": "Ардагаст",
    "text": "(noun) (noun) (noun) (num) (conj:coord) (noun) (num) (noun) (noun) (num) (noun) (noun:anim:m:v_naz) (conj:coord) (noun:anim:m:v_naz) (adj:m:v_rod:&pron:dem:ind) (conj) (adj:p:v_rod) (noun:inanim:p:v_rod) (noun:anim:p:v_rod:ns) ",
    "timestamp": "2018-04-05T17:56:22Z"
  },
  {
    "id": 31478,
    "title": "Арпади",
    "text": "(noun) (noun) (noun:inanim:f:v_naz) (adj:p:v_rod) (adj:m:v_naz:rare) (num) (num) (adv:&pron:dem) (adj:m:v_naz) (num) (num) ",
    "timestamp": "2018-05-07T07:46:12Z"
  },
  {
    "id": 31479,
    "title": "Архімандрит",
    "text": "(noun:anim:m:v_naz) (conj:coord) (noun:anim:m:v_naz:alt) (noun) (noun) (conj) (adj) (adj) (adj) (noun) (noun) (noun:inanim:f:v_naz) (noun) (conj) (noun:inanim:n:v_mis) (noun) (noun:inanim:m:v_naz) (adj:m:v_naz) (adj:p:v_rod:compb) (adj:p:v_rod) (noun:inanim:p:v_rod) (noun:anim:p:v_rod) (adj:p:v_rod:compb) (noun:inanim:p:v_rod) (noun:anim:p:v_rod) (adj:p:v_rod:compb) (noun:inanim:p:v_rod) (conj:coord) (adj:p:v_rod) (noun:anim:p:v_rod:xp1) ",
    "timestamp": "2018-08-22T20:29:51Z"
  },
  {
    "id": 31480,
    "title": "Афон",
    "text": "(noun:anim:m:v_naz:prop:fname:xp1) (noun) (noun) (noun:inanim:m:v_naz) (noun) (noun:anim:m:v_naz:prop:fname) (noun) (adj) (noun:inanim:f:v_naz) (noun) (adj) (noun) (noun) (noun) (conj) (noun:inanim:m:v_mis) (adj) (noun:anim:m:v_rod:prop:lname) (adj:f:v_naz:compb) (noun:inanim:f:v_naz) (adj) (adj) (noun:inanim:f:v_naz) (adj) (noun:anim:m:v_rod:prop:lname) (noun:anim:m:v_naz:prop:fname:xp1) (noun) (adj) (adj) (noun) (adj) (adj) (adj:f:v_naz:compb) (adj:f:v_naz) (noun:inanim:f:v_naz) (conj) (noun) (intj) (adj:m:v_dav:compb) (noun:inanim:m:v_mis) (noun) (noun) (noun) (noun) (conj) (adj) (noun:inanim:m:v_mis) (adj:f:v_naz:comps) (noun:inanim:f:v_naz) (noun:inanim:m:v_rod) (adj) (noun:inanim:f:v_naz) (noun:anim:m:v_naz:prop:fname:xp1) (noun:inanim:f:v_oru) (num) (num) (prep) (noun:inanim:m:v_oru) (noun:inanim:n:v_rod) ",
    "timestamp": "2018-10-15T07:25:11Z"
  },
  {
    "id": 31482,
    "title": "Ахмед III",
    "text": "(noun) (num) (noun) (num) (num) (num) (adj:m:v_naz) (noun:anim:m:v_naz:xp1) (num) (num) ",
    "timestamp": "2018-03-18T11:06:16Z"
  },
  {
    "id": 31483,
    "title": "Василій I Македонянин",
    "text": "(noun:anim:m:v_naz:prop:fname) (num) (noun) (num) (noun:inanim:m:v_rod) (num) (conj) (adj) (noun) (num) (num) (num) (noun:inanim:m:v_rod) (num) (conj) (num) (noun) (adj:m:v_naz) (noun:anim:m:v_naz) (noun:anim:m:v_naz) (noun:anim:f:v_rod:prop:lname) (noun:inanim:f:v_rod) ",
    "timestamp": "2018-09-22T02:59:03Z"
  },
  {
    "id": 31485,
    "title": "Василій II Болгаробійця",
    "text": "(noun:anim:m:v_naz:prop:fname) (num) (noun) (num) (conj) (adj:p:v_oru:&pron:def) (noun) (num) (num) (noun:inanim:m:v_rod) (num) (adj:m:v_naz) (noun:anim:m:v_naz) (num) (num) (conj) (noun:anim:f:v_rod:prop:lname) (noun:inanim:f:v_rod) ",
    "timestamp": "2018-09-22T15:02:31Z"
  },
  {
    "id": 31486,
    "title": "Вільгельм II (німецький імператор)",
    "text": "(noun) (num) (noun:m:v_mis:&pron:pers:3) (noun) (num) (num) (noun:inanim:m:v_rod) (num) (num) (noun:inanim:m:v_rod) (num) (adj:m:v_naz:compb) (adj:m:v_naz) (noun:anim:m:v_naz) (conj:coord) (adj:m:v_naz) (noun:anim:m:v_naz) (num) (num) ",
    "timestamp": "2018-10-18T23:31:48Z"
  },
  {
    "id": 31487,
    "title": "Операція «Вісла»",
    "text": "(num) (noun) (noun) (noun) (noun) (conj) (noun:inanim:f:v_dav) (noun:anim:p:v_rod) (noun) (adv) (noun:inanim:f:v_naz) (noun) (adj:f:v_naz:compb) (noun:inanim:f:v_naz) (adj:f:v_naz:&adjp:pasv:perf) (conj) (num) (noun:inanim:m:v_mis) (noun) (num) (noun:inanim:m:v_rod) (conj) (noun:inanim:n:v_oru) (adj:m:v_rod) (conj:coord) (adj:m:v_rod) (noun:inanim:n:v_rod) (noun) (noun:anim:f:v_rod:prop:lname) (noun:inanim:f:v_rod) (conj:coord) (noun) ",
    "timestamp": "2018-09-08T15:09:12Z"
  },
  {
    "id": 31489,
    "title": "Возний",
    "text": "(noun:anim:m:v_naz:prop:lname) (adj:m:v_naz) (noun:anim:m:v_naz) (conj) (noun) (noun:inanim:f:v_dav:prop:geo) (noun) (noun:inanim:n:v_naz:nv) (num) (noun:inanim:n:v_naz) ",
    "timestamp": "2018-09-09T16:15:34Z"
  },
  {
    "id": 31491,
    "title": "Гаральд III Суворий",
    "text": "(noun:anim:m:v_naz:prop:fname) (num) (noun) (conj:coord) (noun:anim:m:v_naz:prop:fname) (adj) (adj) (noun) (noun) (noun) (noun) (num) (num) (noun:inanim:m:v_rod) (num) (adj:m:v_naz) (noun:anim:m:v_naz) (num) (num) ",
    "timestamp": "2018-07-28T00:26:15Z"
  },
  {
    "id": 31492,
    "title": "Германаріх",
    "text": "(noun) (adv:compb) (num) (num) (adj:m:v_naz) (noun:anim:m:v_naz) (conj) (noun:inanim:m:v_rod) (noun) (adj:m:v_naz:&pron:int:rel:def) (conj) (num) (noun:inanim:n:v_mis) (verb:perf:past:m) (adj:f:v_dav:&pron:pos) (noun:inanim:f:v_dav) (adj:p:v_naz) (conj:coord) (adj:p:v_naz) (noun:inanim:p:v_naz) (intj) (adj) (noun:inanim:n:v_mis:prop:geo) (conj:coord) (adv:&insert) (adj:p:v_naz:compb) (noun) (noun:inanim:p:v_naz) (noun) ",
    "timestamp": "2018-03-20T21:35:50Z"
  },
  {
    "id": 31493,
    "title": "Остготи",
    "text": "(noun:anim:p:v_naz) (noun) (noun:inanim:m:v_naz) (noun) (conj:coord) (noun) (noun) (adj:m:v_naz) (noun:inanim:m:v_naz) (adj:f:v_naz:compb) (noun:inanim:f:v_naz) (noun:anim:p:v_rod) (conj:subord) (verb:rev:perf:past:p) (conj) (noun:inanim:m:v_rod) (num) (noun:inanim:n:v_naz) (intj) (noun:anim:p:v_rod) (adj:p:v_rod:compb) (noun:anim:p:v_rod) (conj:coord) (noun:anim:p:v_rod) (adj:p:v_rod:compb) ",
    "timestamp": "2018-08-04T12:42:11Z"
  },
  {
    "id": 31494,
    "title": "Гети",
    "text": "(noun) (noun) (noun) (noun) (noun:inanim:m:v_naz) (noun) (noun:inanim:p:v_naz) (adj:m:v_rod) (noun:inanim:n:v_naz) (adj:p:v_naz:&adjp:pasv:perf:compb) (conj) (noun) (adj:p:v_naz:&pron:int:rel:def) (conj) (num) (num) (noun:inanim:n:v_naz:nv) (intj) (verb:imperf:past:p) (intj) (noun:inanim:f:v_rod) (adj) (noun) (noun:inanim:n:v_mis) (noun:inanim:m:v_rod:prop:geo) (noun) (verb:imperf:past:p) (noun:inanim:m:v_naz) (noun:inanim:n:v_naz:nv) (adj:m:v_rod:compb) (noun:inanim:m:v_dav) (noun:inanim:f:v_rod) (noun:inanim:m:v_naz:prop:geo) ",
    "timestamp": "2018-04-03T09:39:50Z"
  },
  {
    "id": 31495,
    "title": "Гроші",
    "text": "(noun) (adj:m:v_naz:compb) (noun:inanim:m:v_naz) (conj:subord) (verb:imperf:pres:s:1) (adj:f:v_oru:compb) (adj:f:v_oru) (noun:inanim:f:v_oru) (noun:inanim:f:v_rod) (adj:p:v_rod:&pron:def) (noun:inanim:p:v_rod) (conj:coord) (noun:inanim:p:v_rod) ",
    "timestamp": "2018-08-24T11:42:10Z"
  },
  {
    "id": 31496,
    "title": "Давньогрецькі міста Північного Причорномор'я",
    "text": "(adj:p:v_naz) (noun:inanim:n:v_rod) (adj) (noun:inanim:n:v_naz:prop:geo) (noun:inanim:n:v_rod) (noun:inanim:f:v_rod) (adj:p:v_naz:&adjp:pasv:perf) (noun:anim:p:v_oru) (conj) (noun:inanim:m:v_naz) (num) (num) (noun:inanim:p:v_rod) (noun:inanim:n:v_naz:nv) (intj) (intj) (noun:inanim:n:v_mis) (noun:inanim:n:v_rod:prop:geo) (noun:inanim:n:v_rod) (conj) (noun:inanim:p:v_mis) (adj:f:v_rod:compb) (noun:inanim:f:v_rod) (noun) ",
    "timestamp": "2017-11-14T01:05:26Z"
  },
  {
    "id": 31497,
    "title": "Дивізія",
    "text": "(noun:inanim:f:v_naz:prop:geo) (conj) (noun:inanim:m:v_naz) (noun) (noun:inanim:m:v_naz) (noun:inanim:m:v_naz:xp1) (adj:n:v_naz:compb) (noun:inanim:n:v_naz) (conj) (adj:p:v_rod:compb) (noun:inanim:p:v_mis) (adj:p:v_rod) (noun:inanim:p:v_rod) ",
    "timestamp": "2018-08-27T20:52:28Z"
  },
  {
    "id": 31502,
    "title": "Емський указ",
    "text": "(adj:m:v_naz) (noun) (noun:inanim:n:v_naz) (adj:m:v_rod:compb) (noun:anim:m:v_rod) (noun) (conj) (num) (num) (noun:inanim:m:v_rod) (num) (adj:n:v_naz:&adjp:pasv:perf) (conj) (noun) (conj:coord) (adj:n:v_naz:&adjp:pasv:perf) (intj) (noun:inanim:n:v_naz) (noun:inanim:f:v_rod) (noun:inanim:f:v_rod) (conj) (adj:f:v_rod:compb) (noun:inanim:f:v_rod) (conj:coord) (noun:inanim:n:v_naz) (noun:f:v_rod:&pron:pers:3) (adj:m:v_oru) (noun:inanim:m:v_oru) (verb:perf:past:m) (noun:inanim:n:v_naz:nv) (adj:f:v_rod) (noun:inanim:f:v_rod) (adj:m:v_rod:compb) (noun:inanim:m:v_rod) (conj) (noun:inanim:f:v_dav:prop:geo) ",
    "timestamp": "2018-07-31T17:43:28Z"
  },
  {
    "id": 31503,
    "title": "Товариство Ісуса",
    "text": "(noun:inanim:n:v_naz) (noun:anim:m:v_rod:prop:fname) (conj:coord) (adj) (noun:inanim:m:v_naz:xp1) (noun:inanim:m:v_naz) (noun) (noun) (verb:perf:impers) (conj:coord) (num) (adj:m:v_naz) (adj:m:v_naz) (noun:inanim:m:v_naz:xp1) (adj) (adj:f:v_rod) (noun:inanim:f:v_rod:prop:geo) ",
    "timestamp": "2018-07-20T06:17:42Z"
  },
  {
    "id": 31506,
    "title": "Босфор",
    "text": "(noun:inanim:f:v_naz:prop:geo) (noun:inanim:m:v_naz:prop:geo) (noun:anim:m:v_naz:xp1) (noun) (noun) (verb:perf:past:m) (noun) (noun) (adv:&pron:dem) (adj) (noun:inanim:f:v_naz) (noun) (adj) (noun:inanim:f:v_naz) (adv) (num) (conj) (noun:inanim:f:v_dav:prop:geo) (conj:subord) (verb:imperf:pres:s:3) (noun:inanim:n:v_naz:prop:geo) (conj:coord) (adj) (noun:inanim:n:v_rod) (advp:imperf) (adj:f:v_zna) (noun:inanim:f:v_zna) (noun:inanim:f:v_rod:prop:geo) (noun:anim:m:v_dav:prop:fname) (conj) (noun:f:v_rod:&pron:pers:3) (adj:f:v_rod) (noun) (noun:inanim:f:v_rod:prop:geo) ",
    "timestamp": "2018-06-18T04:30:14Z"
  },
  {
    "id": 31512,
    "title": "Географія Литви",
    "text": "(adj) (noun) (noun:inanim:f:v_naz) (conj) (adj) (noun:inanim:f:v_dav:prop:geo) (adj:f:v_naz:&adjp:pasv:perf) (intj) (adj:m:v_dav:compb) (noun:inanim:n:v_mis) (adj) (noun:inanim:n:v_rod) ",
    "timestamp": "2018-09-07T12:59:06Z"
  },
  {
    "id": 31514,
    "title": "Альбер Камю",
    "text": "(noun:anim:m:v_naz:prop:fname) (noun:anim:m:v_naz:nv:np:prop:lname) (noun) (noun) (noun) (num) (noun:inanim:m:v_rod:xp1) (num) (noun) (adv:&pron:dem) (noun) (num) (noun:inanim:m:v_rod) (num) (noun) (adj:m:v_naz) (noun:anim:m:v_naz) (noun:anim:m:v_naz) (noun:anim:m:v_naz) (adj:m:v_naz:&pron:dem:ind) (conj) (noun:anim:p:v_rod) (adj:m:v_rod) (noun:inanim:m:v_rod) (noun:inanim:m:v_rod) ",
    "timestamp": "2018-06-15T14:11:12Z"
  },
  {
    "id": 31515,
    "title": "Чума (роман)",
    "text": "(noun) (noun) (noun) (adj:m:v_naz) (noun:inanim:m:v_naz) (noun:inanim:f:v_naz) (noun:anim:m:v_rod:prop:fname) (noun:anim:m:v_naz:nv:np:prop:lname) (conj:subord) (verb:imperf:past:n:&insert) (verb:perf:impers) (conj) (num) (noun:inanim:m:v_mis) ",
    "timestamp": "2017-05-20T16:42:13Z"
  },
  {
    "id": 31516,
    "title": "Ту-104",
    "text": "(noun) (num) (adj:m:v_naz:compb:&numr) (adj:m:v_naz) (adj:m:v_naz) (adj:m:v_naz) (noun:inanim:m:v_naz) ",
    "timestamp": "2018-09-09T20:46:03Z"
  },
  {
    "id": 31518,
    "title": "Харківське державне авіаційне виробниче підприємство",
    "text": "(adj) (adj:n:v_naz) (adj:n:v_naz) (adj:n:v_naz) (noun:inanim:n:v_naz) (noun) (adj) (adj:m:v_naz) (noun:inanim:m:v_naz) (noun) (adj:n:v_naz:&pron:dem:ind) (conj) (noun:inanim:p:v_rod) (adj:f:v_rod) (noun:inanim:f:v_rod) (noun) (noun:inanim:n:v_naz) (num:p:v_rod:&pron:ind) (noun:inanim:p:v_rod) (adj:p:v_naz:&pron:int:rel:def) (verb:imperf:pres:p:3) (adj:m:v_naz:compb) (noun:inanim:m:v_naz) (noun:inanim:p:v_rod) (prep) (adj:m:v_rod) (noun:inanim:n:v_rod) (noun:inanim:n:v_naz) (conj:coord) (adj:m:v_rod:compb) (noun:inanim:n:v_naz) (conj) (noun:inanim:m:v_mis) (noun:inanim:f:v_rod) (adj:p:v_rod:&adjp:pasv:perf) (noun:inanim:p:v_rod) (verb) (noun:inanim:p:v_naz) (part) (noun:inanim:n:v_naz) (noun:inanim:n:v_rod) (adj:p:v_naz:&adjp:pasv:perf) (noun:inanim:f:v_oru:prop) (noun) (conj:coord) (adj) (noun:inanim:m:v_rod) (adj) (adj:m:v_rod) (noun:inanim:m:v_rod) (noun:inanim:f:v_naz:nv:np:abbr) (noun) (conj:coord) (adv:&insert) (noun:inanim:m:v_naz) (conj) (noun:inanim:f:v_rod) (noun:inanim:f:v_rod) (noun:inanim:f:v_rod) ",
    "timestamp": "2018-08-24T14:19:30Z"
  },
  {
    "id": 31519,
    "title": "Гільдія",
    "text": "(noun:inanim:f:v_naz) (conj) (noun:m:v_mis:&pron:pers:3) (noun) (noun:inanim:f:v_naz) (conj) (adj:f:v_dav:compb) (noun:inanim:f:v_dav:prop:geo) (conj) (noun:inanim:m:v_naz) (adj:m:v_rod:compb) (noun:inanim:n:v_naz) (adj:p:v_naz:compb) (noun:inanim:n:v_naz) (noun:inanim:f:v_rod) (adj:p:v_naz:compb) (adj:p:v_naz) (conj) (num) (num) (noun:inanim:p:v_mis) (noun:inanim:f:v_rod) (noun:anim:p:v_rod) (conj) (noun:inanim:f:v_rod:prop:geo) (adv:&insert) (noun:anim:p:v_rod) (noun:inanim:p:v_naz) (conj:subord) (verb:imperf:past:p) (noun:inanim:p:v_naz) (adj:p:v_rod:&pron:pos) (noun:anim:p:v_rod:xp1) (adj:p:v_naz:&pron:int:rel:def) (verb:rev:imperf:past:p) (adj:p:v_rod) (conj:coord) (adj:p:v_rod) (noun:inanim:p:v_rod) ",
    "timestamp": "2018-09-13T10:46:17Z"
  },
  {
    "id": 31520,
    "title": "Янгол в ісламі",
    "text": "(conj) (noun:inanim:m:v_mis) (noun:anim:m:v_naz) (noun:anim:m:v_naz) (noun) (noun) (adj:f:v_naz:compb) (conj:coord) (adj:f:v_naz:compb) (noun:anim:f:v_naz) (adj:f:v_naz) (noun:anim:f:v_oru) (adv:&insert) (adj:f:v_naz) (verb:imperf:inf) (intj) (noun:inanim:f:v_rod) (conj) (adj:m:v_dav) (noun:inanim:m:v_mis) ",
    "timestamp": "2017-10-22T12:23:38Z"
  },
  {
    "id": 31521,
    "title": "Помпа (процесія)",
    "text": "(noun:inanim:f:v_naz) (noun) (noun) (adj:f:v_naz:compb) (noun:inanim:f:v_naz) (noun:inanim:f:v_naz) (adj:m:v_rod:compb) (noun:inanim:m:v_rod) (adj:f:v_naz:&adjp:pasv:perf) (conj) (noun:inanim:n:v_oru) (conj) (noun:inanim:n:v_mis) (noun:inanim:n:v_rod) ",
    "timestamp": "2018-03-26T17:43:45Z"
  },
  {
    "id": 31522,
    "title": "Заповідник",
    "text": "(noun:inanim:m:v_naz) (conj:coord) (noun:inanim:m:v_naz) (adj:m:v_rod:compb) (noun) (noun:inanim:f:v_naz) (conj:coord) (noun:inanim:f:v_naz) (intj) (adj:f:v_dav:&pron:int:rel:def) (verb:rev:imperf:pres:s:3) (conj) (adj:m:v_dav:compb) (noun:inanim:m:v_mis:xp1) (adj:m:v_naz:&pron:gen) (noun:f:v_rod:&pron:pers:3) (adj:m:v_naz:compb) (noun:inanim:m:v_naz) ",
    "timestamp": "2018-05-21T18:04:59Z"
  },
  {
    "id": 31523,
    "title": "Помпа (техніка)",
    "text": "(noun:inanim:f:v_naz) (adj:m:v_naz) (conj:coord) (adj:m:v_naz) (noun) (adv:&pron:ind) (noun:inanim:m:v_naz) (noun:inanim:m:v_rod:xp1) (noun) ",
    "timestamp": "2017-02-04T08:45:14Z"
  },
  {
    "id": 31524,
    "title": "Mac OS",
    "text": "(noun) (noun) (conj) (noun) (adj) (noun) (noun:inanim:m:v_naz) (noun:inanim:f:v_naz:nv:abbr) (noun:inanim:f:v_naz) (noun:inanim:f:v_naz) (noun:inanim:m:v_naz) (verb:imperf:pres:s:1) (noun:inanim:f:v_oru) (adj:f:v_oru:compb) (adj:f:v_oru) (noun:inanim:f:v_oru) (noun:inanim:f:v_oru) (adj:f:v_oru:&adjp:pasv:perf) (noun:inanim:f:v_oru) (noun) (noun) ",
    "timestamp": "2018-03-24T12:00:25Z"
  },
  {
    "id": 31526,
    "title": "FreeBSD",
    "text": "(noun) (noun) (adj:f:v_naz:compb) (noun:inanim:f:v_naz) (noun:inanim:f:v_naz) (noun:inanim:n:v_naz) (adj) (verb:rev:imperf:pres:s:3) (conj) (noun) (noun) (prep) (noun) (adj) (noun) (noun) (noun:inanim:f:v_zna) (noun:inanim:p:v_rod) (noun:inanim:p:v_rod) (noun) (conj:coord) (num) (noun) ",
    "timestamp": "2018-09-05T18:31:22Z"
  },
  {
    "id": 31527,
    "title": "Пожежна помпа",
    "text": "(noun:inanim:f:v_naz) (adj:f:v_naz) (noun:inanim:m:v_naz) (conj) (noun:inanim:n:v_naz) (noun:inanim:p:v_rod) ",
    "timestamp": "2015-12-17T15:30:44Z"
  },
  {
    "id": 31528,
    "title": "Мінерал",
    "text": "(noun:inanim:m:v_naz) (prep) (noun:m:v_mis:&pron:pers:3) (noun) (conj) (adj) (noun) (noun:inanim:f:v_naz) (adj:f:v_naz) (noun:anim:f:v_naz:xp1) (noun:inanim:f:v_naz) (adj:f:v_naz:compb) (adj:f:v_naz:compb) (noun:inanim:f:v_naz) (adj:f:v_naz) (noun:inanim:f:v_naz) (adj:f:v_rod) (noun:inanim:f:v_rod) (conj:subord) (verb:rev:perf:past:f) (prep) (noun:inanim:m:v_rod) (adj:p:v_rod) (noun:inanim:p:v_rod) (conj) (adj:f:v_dav) (noun:inanim:m:v_mis) (conj:coord:subord) (adj:p:v_rod:&pron:def) (adj:p:v_rod:compb) (noun:inanim:p:v_mis) ",
    "timestamp": "2018-05-21T11:26:32Z"
  },
  {
    "id": 31530,
    "title": "Мінералогія",
    "text": "(noun) (noun:inanim:f:v_naz) (part) (noun:inanim:p:v_naz) (conj:subord) (verb:imperf:pres:s:3) (noun:p:v_rod:&pron:pers:3) (adj:p:v_naz) (noun:inanim:f:v_rod) (adj:m:v_naz) (noun:inanim:m:v_naz) (noun:inanim:f:v_rod) (noun:inanim:n:v_naz) (conj:coord) (noun:inanim:n:v_naz) (conj) (noun:inanim:f:v_dav) (conj:coord) (adv:&insert) (noun:inanim:f:v_naz) (noun:inanim:n:v_naz) (conj) (noun:inanim:f:v_rod) ",
    "timestamp": "2018-07-27T05:54:23Z"
  },
  {
    "id": 31534,
    "title": "Сортування бульбашкою",
    "text": "(noun:inanim:n:v_naz) (noun:inanim:m:v_oru) (conj:coord) (noun:inanim:n:v_naz) (noun:inanim:f:v_oru) (verb:imperf:pres:s:1) (adj:m:v_oru:compb) (noun:inanim:m:v_oru) (noun:inanim:n:v_naz) (noun:inanim:m:v_naz) (verb:imperf:pres:s:3) (adj:m:v_oru:&pron:dem) (noun) (conj) (adj:m:v_dav:&adjp:pasv:perf) (noun:inanim:m:v_mis) (adj:p:v_rod:&adjp:pasv:perf) (noun:inanim:m:v_rod) (conj:coord:subord) (noun:inanim:m:v_mis) (verb:rev:imperf:pres:p:3) (num:p:v_naz) (adj:p:v_naz) (noun:inanim:p:v_naz:xp1) ",
    "timestamp": "2018-05-09T21:42:32Z"
  },
  {
    "id": 31536,
    "title": "Зельман Ваксман",
    "text": "(noun:anim:m:v_naz:prop:lname) (noun:anim:m:v_naz:prop:fname) (noun:anim:m:v_naz:prop:lname) (num) (noun:inanim:m:v_rod) (num) (noun:inanim:f:v_naz:prop:geo) (noun:inanim:f:v_naz:prop:geo) (num) (noun:inanim:m:v_rod) (num) (adj:m:v_naz) (noun:anim:m:v_naz) (noun:anim:m:v_naz) (adj:f:v_rod) (noun:inanim:f:v_rod) (conj) (noun:inanim:f:v_rod) (conj:coord) (noun:inanim:f:v_rod) (num) (noun) ",
    "timestamp": "2018-07-28T18:03:22Z"
  },
  {
    "id": 31538,
    "title": "Абай (місто)",
    "text": "(noun:anim:m:v_naz:prop:fname:xp1) (noun:inanim:m:v_naz) (noun:anim:m:v_naz:prop:fname:xp1) (noun:inanim:n:v_naz) (noun:inanim:m:v_naz:xp1) (adj) (noun:inanim:m:v_rod) (adj:f:v_rod) (noun:inanim:f:v_rod) (noun) ",
    "timestamp": "2018-08-05T13:17:57Z"
  },
  {
    "id": 31541,
    "title": "Ріддер",
    "text": "(noun) (noun:inanim:m:v_naz) (noun) (noun:inanim:n:v_naz) (adj:m:v_rod) (noun:inanim:n:v_naz) (conj) (noun:inanim:m:v_mis:prop:geo) (adj:f:v_naz) (noun:inanim:f:v_naz) ",
    "timestamp": "2018-09-01T12:35:57Z"
  },
  {
    "id": 31546,
    "title": "IMAP",
    "text": "(noun) (noun) (noun) (noun) (noun) (noun) (noun:inanim:m:v_naz) (noun:inanim:m:v_rod) (noun:inanim:n:v_naz:nv) (noun:inanim:m:v_naz) (noun:inanim:p:v_rod) (adj:m:v_naz) (noun:inanim:m:v_naz) (adj:m:v_rod) (noun:inanim:m:v_rod) (conj) (noun:inanim:m:v_rod) (noun:inanim:n:v_naz:nv) (adj:f:v_rod) (noun:inanim:f:v_rod) ",
    "timestamp": "2017-10-16T22:50:08Z"
  },
  {
    "id": 31550,
    "title": "POP3",
    "text": "(adj) (adj) (noun) (adj:m:v_naz) (adj:m:v_naz) (noun:inanim:m:v_naz) (noun) (noun:inanim:m:v_naz) (conj:subord) (verb:rev:imperf:pres:s:3) (noun:anim:m:v_oru) (conj) (noun:inanim:m:v_rod) (noun:inanim:n:v_naz:nv) (noun:inanim:p:v_rod) (adj:f:v_rod) (noun:inanim:f:v_rod) (intj) (noun:inanim:m:v_mis) ",
    "timestamp": "2018-08-21T15:11:56Z"
  },
  {
    "id": 31551,
    "title": "Євгеній IV",
    "text": "(noun:anim:m:v_naz:prop:fname) (num) (num) (num) (adj:m:v_rod:compb) (num) (adj:m:v_naz) (noun:anim:m:v_naz:xp1) (conj) (num) (verb:imperf:past:m) (noun:inanim:f:v_zna) (adv:&predic) (adj:m:v_rod) (noun:inanim:m:v_rod) (adj:m:v_naz:&adjp:pasv:perf) (conj) (num) (adj:m:v_naz:&pron:int:rel:def) (verb:imperf:past:m) (verb:perf:inf) (noun:inanim:m:v_naz) (adv:compc) (adj:f:v_rod) (noun:inanim:f:v_rod) (conj:coord) (verb:perf:past:m) (conj) (num) (noun:inanim:n:v_rod) (noun:anim:m:v_zna:xp1) (noun:anim:m:v_rod:prop:fname) (num) (noun:anim:f:v_zna) ",
    "timestamp": "2018-05-29T14:39:35Z"
  },
  {
    "id": 31552,
    "title": "Євпраксія Всеволодівна",
    "text": "(noun:anim:f:v_naz:prop:fname) (noun:anim:f:v_naz:prop:pname) (adj) (noun) (num) (num) (noun:inanim:m:v_rod) (num) (noun:anim:f:v_naz) (prep) (noun:inanim:f:v_rod) (noun:anim:p:v_rod:prop:lname) (noun:inanim:f:v_naz) (noun:anim:f:v_naz) (num) (num) (noun:anim:f:v_naz:xp1) (adj:m:v_rod) (noun:anim:m:v_rod) (noun:anim:m:v_rod:prop:fname) (num) ",
    "timestamp": "2018-08-20T09:11:17Z"
  },
  {
    "id": 31554,
    "title": "Єлецький монастир",
    "text": "(noun:anim:m:v_naz:prop:lname) (noun) (adj:m:v_naz) (noun) (conj) (noun) (conj) (noun:inanim:n:v_mis) (noun:inanim:m:v_naz:prop:geo) ",
    "timestamp": "2018-07-16T00:38:50Z"
  },
  {
    "id": 31556,
    "title": "Єремія ІІ Транос",
    "text": "(noun:anim:m:v_naz:prop:fname) (num) (noun) (adv:compb) (num) (num) (noun:inanim:m:v_naz:prop:geo) (adj:m:v_naz) (noun:anim:m:v_naz) (num) (num) (num) (num) (num) (num) (noun:inanim:p:v_naz) ",
    "timestamp": "2018-04-19T15:24:25Z"
  },
  {
    "id": 31557,
    "title": "Желябов Андрій Іванович",
    "text": "(noun:anim:m:v_naz:prop:fname) (noun:anim:f:v_naz:nv:np:prop:lname) (noun:anim:m:v_naz:prop:lname) (noun:inanim:p:v_rod:ns) (num) (num) (noun:inanim:m:v_rod) (num) (verb) (num) (num) (noun:inanim:m:v_rod) (num) (noun:anim:m:v_naz) (noun:anim:m:v_naz) (adj:m:v_naz:&pron:dem:ind) (conj) (noun:anim:p:v_rod) (noun:inanim:f:v_rod) (adj:f:v_naz:compb) (noun:anim:f:v_naz:prop:fname:xp1) ",
    "timestamp": "2017-11-14T07:47:15Z"
  },
  {
    "id": 31558,
    "title": "Жереб",
    "text": "(noun:inanim:m:v_naz) (conj:coord) (noun) (noun:inanim:m:v_naz) (adj:m:v_naz:compb:&&adjp:pasv:imperf) (conj) (noun:inanim:f:v_oru) (noun:inanim:n:v_naz) (adj:f:v_rod:compb) (noun:inanim:f:v_rod) (verb:imperf:impr:s:2) (conj:coord) (noun) (intj) (conj:subord) (adj:m:v_naz:&adjp:pasv:perf) (intj) (noun:inanim:f:v_rod) ",
    "timestamp": "2017-05-17T20:00:35Z"
  },
  {
    "id": 31559,
    "title": "Закерзоння",
    "text": "(noun:inanim:n:v_naz:prop:geo) (adj:f:v_naz) (noun:inanim:f:v_naz) (conj) (noun:inanim:n:v_naz) (noun:inanim:n:v_rod) (adv:bad) (adj:p:v_rod:compb) (adj:p:v_rod:compb) (adj:p:v_rod:compb) (noun:inanim:p:v_rod) (adj:p:v_rod:&adjp:pasv:perf) (intj) (noun:inanim:m:v_naz:xp1) (conj) (noun:inanim:n:v_rod) (adj:m:v_rod:compb) (noun:inanim:m:v_rod) (conj:subord) (conj) (noun:inanim:p:v_oru:xp1) (noun:inanim:f:v_rod) (adj:f:v_rod) (noun:inanim:f:v_rod) (verb:perf:past:p) (noun:inanim:n:v_naz:nv) (noun:inanim:m:v_rod) (noun) ",
    "timestamp": "2018-03-09T18:41:05Z"
  },
  {
    "id": 31560,
    "title": "Ібн Батута",
    "text": "(noun) (noun) (part) (noun) (noun) (intj) (noun) (noun:anim:m:v_naz) (noun) (noun) (noun) (noun) (noun) (noun) (part) (noun:inanim:m:v_rod) (num) (adj:m:v_rod:compb) (num) (prep) (noun:inanim:m:v_naz:prop:geo) (num) (prep) (noun:inanim:m:v_naz:prop:geo) (adj:m:v_naz) (noun:anim:m:v_naz) (adj:m:v_naz:&pron:int:rel:def) (conj) (num) (noun:inanim:p:v_rod) (adj:p:v_rod) (noun:inanim:p:v_rod) (adv) (conj) (adj:p:v_oru:compb) (adj:p:v_oru) (noun:inanim:p:v_oru) (verb:perf:past:m) (adv:compc) (num) (noun:inanim:p:v_rod:&&numr) (noun:inanim:p:v_rod) (conj:subord) (adv:compc) (conj:subord) (adv) (verb:imperf:pres:s:3) (noun:inanim:f:v_naz) (noun:inanim:m:v_rod) ",
    "timestamp": "2018-10-18T14:22:32Z"
  },
  {
    "id": 31561,
    "title": "Ібн Фадлан",
    "text": "(noun:anim:m:v_naz:prop:fname) (part) (noun) (part) (noun:anim:m:v_naz:prop:fname) (part) (noun:anim:m:v_naz:prop:fname) (part) (noun) (noun:anim:m:v_naz) (noun) (noun) (noun) (noun) (noun) (noun) (noun) (noun) (noun) (noun:inanim:p:v_naz) (noun:inanim:n:v_naz) (conj:coord) (noun:inanim:f:v_rod) (adj:p:v_naz:compb) (adj:m:v_naz) (noun:anim:m:v_naz) (conj:coord) (noun:anim:m:v_naz) (noun:inanim:f:v_rod) (noun:inanim:f:v_dav) (num) (noun:inanim:n:v_naz) ",
    "timestamp": "2016-06-15T09:45:24Z"
  },
  {
    "id": 31562,
    "title": "Іван Підкова",
    "text": "(noun:anim:m:v_naz:prop:fname) (noun:anim:m:v_naz:prop:lname) (noun:anim:m:v_naz:prop:fname) (noun) (noun:anim:m:v_naz:prop:fname) (noun:inanim:f:v_naz) (noun) (noun) (num) (noun) (num) (noun:inanim:f:v_naz:prop:geo) (conj:coord) (adj:n:v_naz) (noun:inanim:n:v_naz) (num) (num) (noun:inanim:m:v_rod) (num) (noun:inanim:m:v_naz:prop:geo) (adj:m:v_naz) (adj:m:v_naz) (noun:anim:m:v_naz) (adj:m:v_naz) (noun:anim:m:v_naz) (num) (num) ",
    "timestamp": "2018-03-17T16:58:35Z"
  },
  {
    "id": 31563,
    "title": "Ікона",
    "text": "(noun:inanim:f:v_naz) (noun) (noun) (noun:inanim:m:v_naz:xp1) (noun:inanim:m:v_naz:xp1) (noun:inanim:n:v_naz) (adj:n:v_naz:compb:bad) (adj:n:v_naz) (conj:coord) (adj:n:v_naz:compb) (noun:inanim:n:v_naz) (noun:anim:m:v_rod:prop:fname) (noun:anim:m:v_rod:prop:fname) (noun:anim:f:v_rod:prop) (adj:p:v_rod:compb) (conj:coord) (noun:inanim:p:v_rod) (adj:m:v_rod:compb) (noun:inanim:n:v_rod) ",
    "timestamp": "2018-08-14T18:46:38Z"
  },
  {
    "id": 31564,
    "title": "Іконостас",
    "text": "(noun:inanim:m:v_naz) (noun) (noun) (noun:inanim:m:v_naz:xp1) (conj:coord) (noun:inanim:n:v_naz) (noun:inanim:f:v_naz) (conj) (noun:inanim:p:v_rod) (conj) (noun:inanim:m:v_mis) (adj:m:v_rod:compb) (adj:m:v_rod) (noun:inanim:m:v_rod) (noun:anim:m:v_rod) (verb:imperf:pres:s:3) (noun:inanim:m:v_naz) (conj) (adj:f:v_rod:compb) (noun) (noun:inanim:f:v_rod) ",
    "timestamp": "2018-09-18T11:36:29Z"
  },
  {
    "id": 31565,
    "title": "Іннокентій IV",
    "text": "(noun) (num) (noun:inanim:m:v_naz) (noun) (num) (num) (num) (noun:inanim:m:v_rod) (num) (noun:anim:m:v_naz:xp1) (adj:m:v_naz) (num) (num) (adj:n:v_naz:compb) (noun:inanim:n:v_naz) (noun) (adv:&pron:int:rel) (noun) (noun) (noun) (noun) ",
    "timestamp": "2018-03-20T11:46:19Z"
  },
  {
    "id": 31566,
    "title": "Іслям III Ґерай",
    "text": "(noun) (num) (adv:&pron:ind) (noun:anim:m:v_naz:prop:fname) (noun) (adj) (num) (noun) (noun) (num) (num) (adj:m:v_naz) (adj:m:v_naz) (adj:m:v_naz) (conj:coord) (adj:m:v_naz) (noun:anim:m:v_naz) ",
    "timestamp": "2018-03-27T09:30:21Z"
  },
  {
    "id": 31568,
    "title": "Кармеліти",
    "text": "(noun:anim:p:v_naz) (noun:anim:p:v_naz:xp1) (adj:m:v_rod) (adj:m:v_rod) (noun:anim:m:v_dav:xp1) (adj:f:v_naz:compb) (noun:inanim:f:v_naz) (noun:inanim:m:v_naz) (noun) (noun) (noun) (noun) (noun) (noun) (noun) (noun:inanim:m:v_naz:xp1) (noun:anim:p:v_rod) (adj:f:v_rod) (noun:inanim:f:v_rod:prop) (noun:anim:f:v_rod:prop:fname) (conj) (noun:inanim:f:v_rod) (noun) (adj:m:v_rod:&adjp:pasv:perf) (conj) (num) (conj:coord) (noun:inanim:f:v_dav) (num) (noun) (conj) (noun:inanim:f:v_dav:prop:geo) ",
    "timestamp": "2018-05-04T10:02:53Z"
  },
  {
    "id": 31570,
    "title": "Каштелян",
    "text": "(noun:anim:m:v_naz) (noun) (noun) (conj:coord) (noun) (conj) (noun:inanim:m:v_naz) (noun) (conj) (noun:inanim:n:v_mis) (noun:anim:m:v_dav:prop:lname) (num) (num) (noun:inanim:f:v_rod) (adj:f:v_dav) (adj:f:v_naz) (noun:anim:f:v_naz:xp1) (noun:anim:m:v_dav) (verb:imperf:past:m) (noun:anim:m:v_naz) (conj:coord) (noun:anim:m:v_naz) (conj) (noun:inanim:n:v_naz) (noun) (noun:inanim:m:v_oru:xp1) (conj:coord) (adj:f:v_oru) (noun:inanim:f:v_oru) ",
    "timestamp": "2016-12-29T14:46:16Z"
  },
  {
    "id": 31571,
    "title": "Кирило і Мефодій",
    "text": "(noun:anim:m:v_naz:prop:fname) (conj:coord) (noun:anim:m:v_naz:prop:fname) (conj:coord) (noun:anim:m:v_naz:prop:fname) (adj:p:v_naz) (noun:anim:m:v_mis) (conj:coord) (noun:anim:p:v_naz) (noun:inanim:n:v_rod) (noun:anim:m:v_mis) (adj:f:v_rod) (noun:inanim:f:v_rod) (adj:p:v_naz:compb:&numr) (noun:anim:m:v_mis) (adj:p:v_rod) (noun:inanim:p:v_rod) (intj) (adj:f:v_zna) (noun:inanim:f:v_zna) (noun:anim:p:v_naz) ",
    "timestamp": "2018-10-09T13:34:21Z"
  },
  {
    "id": 31572,
    "title": "Кирило-Мефодіївське товариство",
    "text": "(noun:anim:m:v_naz:prop:fname) (adj) (noun:inanim:n:v_naz) (noun:inanim:f:v_kly:prop:geo) (adj:n:v_naz) (noun:inanim:n:v_naz) (noun:anim:m:v_naz:prop:fname) (adj) (noun:inanim:n:v_naz) (noun:inanim:f:v_naz) (noun:inanim:f:v_naz) (adj:f:v_naz:compb) (adj:f:v_naz) (noun:inanim:f:v_naz) (conj:subord) (adj:f:v_naz:&adjp:actv:perf) (conj) (noun:inanim:m:v_mis:prop:geo) (adv) (num) (noun) (conj:coord) (verb:rev:imperf:past:f) (intj) (noun:inanim:f:v_rod) (adj:m:v_rod:compb) (adj:m:v_rod) (conj:coord) (adj:m:v_rod) (noun:inanim:m:v_rod) ",
    "timestamp": "2018-10-13T22:31:08Z"
  },
  {
    "id": 31573,
    "title": "Кірасир",
    "text": "(noun:anim:p:v_naz) (noun:inanim:m:v_naz) (adj:f:v_rod:compb) (noun:inanim:f:v_rod) (noun:anim:p:v_naz) (adj) (verb:imperf:past:p) (adj:p:v_naz:compb:&&adjp:pasv:perf) (noun:inanim:f:v_oru) (adj:n:v_naz) (noun:inanim:n:v_naz) (conj) (num:p:v_rod) (noun:inanim:p:v_rod) (adj:p:v_rod:&adjp:pasv:perf) (noun:inanim:f:v_dav) (noun:inanim:p:v_rod:ns) (conj:coord) (noun:inanim:p:v_naz) (conj:coord) (adj:p:v_rod:&adjp:pasv:perf) (noun:inanim:p:v_oru) (intj) (noun:inanim:p:v_mis) (conj:coord) (noun:inanim:p:v_mis) (conj:coord) (verb:imperf:past:p) (intj) (noun:inanim:n:v_mis) (noun:inanim:m:v_naz) (noun:inanim:p:v_naz) (conj:coord) (noun:inanim:m:v_naz) ",
    "timestamp": "2018-05-14T18:45:43Z"
  },
  {
    "id": 31574,
    "title": "Кіш (козацький)",
    "text": "(noun:anim:m:v_naz:prop:lname) (conj) (adj:f:v_dav) (noun:inanim:f:v_rod:prop:geo) (conj) (num) (num) (conj:coord) (intj) (noun) (conj) (num) (num) (adj:m:v_naz) (noun:inanim:m:v_naz) (noun:inanim:m:v_naz) ",
    "timestamp": "2018-08-27T15:16:48Z"
  },
  {
    "id": 31575,
    "title": "Жорж Клемансо",
    "text": "(noun:anim:m:v_naz:prop:fname) (noun:anim:m:v_naz:nv:np:prop:lname) (noun) (noun) (noun) (noun) (num) (noun:inanim:m:v_rod) (num) (num) (noun:inanim:m:v_rod:xp1) (num) (adj:m:v_naz) (adj:m:v_naz) (conj:coord) (adj:m:v_naz) (noun:anim:m:v_naz) (noun:anim:m:v_naz:xp1) (noun) (noun:inanim:f:v_rod) (conj) (num) ",
    "timestamp": "2018-10-07T11:35:46Z"
  },
  {
    "id": 31576,
    "title": "Народний комісаріат внутрішніх справ СРСР",
    "text": "(adj:m:v_naz:compb) (noun:inanim:m:v_naz) (adj:p:v_rod) (noun:inanim:p:v_rod) (noun:inanim:m:v_naz:nv:np:prop:abbr) (noun:inanim:p:v_rod) (adj) (noun) (adj) (noun) (noun:inanim:n:v_naz:nv:np:prop:abbr) (adj:n:v_naz:&pron:dem:ind) (conj) (adj) (adj:p:v_rod) (noun:inanim:p:v_rod) (noun:inanim:p:v_rod) (noun:inanim:m:v_rod) (noun) (adj:m:v_rod) (noun:inanim:n:v_naz) ",
    "timestamp": "2018-08-03T19:40:35Z"
  },
  {
    "id": 31578,
    "title": "Уельс",
    "text": "(noun:inanim:m:v_naz:prop:geo) (adv:&insert) (noun) (conj:coord) (noun) (adj) (noun) (noun) (noun) (noun) (noun) (noun) (noun) (adj:f:v_naz:&pron:dem:ind) (conj) (num:p:v_rod) (noun:inanim:p:v_rod) (adj:m:v_rod:&adjp:pasv:perf) (noun:inanim:n:v_rod) ",
    "timestamp": "2018-10-07T18:07:07Z"
  },
  {
    "id": 31581,
    "title": "Список діячів науки і культури Лемківщини",
    "text": "(noun:inanim:m:v_naz) (noun:anim:p:v_rod) (noun:inanim:f:v_rod) (conj:coord) (noun:inanim:f:v_rod) (noun:inanim:f:v_rod:prop:geo) (noun:inanim:m:v_naz) (noun:anim:p:v_rod:xp1) (noun:anim:p:v_rod) (conj) (noun:inanim:f:v_rod:prop:geo) ",
    "timestamp": "2018-06-24T10:34:16Z"
  },
  {
    "id": 31618,
    "title": "Перстень",
    "text": "(noun:inanim:m:v_naz) (adj) (noun) (adj) (noun) (conj) (noun) (noun:inanim:m:v_naz) (adv:&insert) (noun:inanim:f:v_naz) (conj) (adj) (noun) (adj:n:v_naz:&adjp:pasv:perf) (adj:n:v_naz:&adjp:pasv:perf) (noun:inanim:n:v_naz) (conj) (adj:m:v_rod:compb) (noun:inanim:m:v_rod) (adj:f:v_naz:compb) (noun:inanim:n:v_rod) (conj:coord) (noun:inanim:f:v_naz:nv:abbr) (adj) (adv:compb) (adj:n:v_naz:&adjp:pasv:perf) (noun:inanim:m:v_oru:xp1) (conj:subord) (noun:m:v_rod:&pron:pers:3) (verb:imperf:pres:p:3) (intj) (noun:inanim:m:v_mis) (part) (noun:inanim:f:v_zna) ",
    "timestamp": "2018-07-03T08:13:47Z"
  },
  {
    "id": 31621,
    "title": "Браслет",
    "text": "(noun:inanim:m:v_naz) (noun) (noun:inanim:f:v_naz) (conj:subord) (verb:rev:imperf:past:f) (intj) (noun:inanim:f:v_zna) (part) (noun:inanim:n:v_naz) (intj) (noun:inanim:f:v_zna) (intj) (noun:inanim:n:v_naz) (conj:coord:subord) (prep) (noun:inanim:m:v_oru) ",
    "timestamp": "2018-03-18T20:25:38Z"
  },
  {
    "id": 31623,
    "title": "Термез",
    "text": "(noun:inanim:m:v_naz:prop:geo) (noun) (noun) (noun) (noun:inanim:p:v_rod) (noun:inanim:m:v_naz:prop:geo) (adj) (noun) (noun:anim:m:v_naz) (noun) (noun:inanim:n:v_naz) (adj:m:v_rod) (noun:inanim:n:v_naz) (conj) (noun:inanim:m:v_mis:prop:geo) (noun:inanim:m:v_naz:xp1) (adj) (noun:inanim:f:v_rod) ",
    "timestamp": "2017-01-05T22:12:05Z"
  },
  {
    "id": 31624,
    "title": "Андижанська область",
    "text": "(adj:f:v_naz) (noun:inanim:f:v_naz) (noun) (adj) (noun) (adj) (noun) (adv) (adj:f:v_naz) (noun:inanim:f:v_naz) (intj) (adj:m:v_dav) (noun:inanim:m:v_mis) (noun:inanim:m:v_rod:prop:geo) ",
    "timestamp": "2018-04-10T09:09:48Z"
  },
  {
    "id": 31625,
    "title": "Андижан",
    "text": "(noun:inanim:m:v_naz:prop:geo) (noun) (adj) (adj) (noun:inanim:n:v_naz) (adj:m:v_rod) (noun:inanim:n:v_naz) (conj) (noun:inanim:m:v_mis:prop:geo) (noun:inanim:m:v_naz:xp1) (adj:f:v_rod) (noun:inanim:f:v_rod) ",
    "timestamp": "2018-01-14T11:24:59Z"
  },
  {
    "id": 31631,
    "title": "Асака (Узбекистан)",
    "text": "(noun) (conj) (num) (num) (noun) (noun) (noun) (noun) (noun) (noun:inanim:n:v_naz) (conj) (noun:inanim:m:v_mis:prop:geo) (noun:inanim:m:v_naz:xp1) (adj) (noun:inanim:m:v_rod) (adj:f:v_rod) (noun:inanim:f:v_rod) ",
    "timestamp": "2018-01-10T19:20:59Z"
  },
  {
    "id": 31632,
    "title": "Ханабад (місто в Узбекистані)",
    "text": "(noun) (noun) (noun) (noun) (noun:inanim:n:v_naz) (adj:m:v_rod) (noun:inanim:n:v_naz) (conj) (noun:inanim:m:v_mis:prop:geo) (conj) (adj:f:v_dav) (noun:inanim:f:v_rod) ",
    "timestamp": "2013-03-24T14:16:41Z"
  },
  {
    "id": 31633,
    "title": "Шахрихан",
    "text": "(noun) (noun) (noun) (noun) (noun:inanim:n:v_naz) (conj) (noun:inanim:m:v_mis:prop:geo) (noun:inanim:m:v_naz:xp1) (adj) (noun:inanim:m:v_rod) (adj:f:v_rod) (noun:inanim:f:v_rod) ",
    "timestamp": "2013-03-24T02:41:20Z"
  },
  {
    "id": 31634,
    "title": "Кургантепа (місто)",
    "text": "(noun) (noun) (noun) (noun) (noun:inanim:n:v_naz) (conj) (num) (noun) (conj) (noun:inanim:m:v_mis:prop:geo) (noun:inanim:m:v_naz:xp1) (adj) (noun:inanim:m:v_rod) (adj:f:v_rod) (noun:inanim:f:v_rod) ",
    "timestamp": "2013-03-24T14:16:44Z"
  },
  {
    "id": 31635,
    "title": "Джалакудук",
    "text": "(noun) (noun:inanim:n:v_naz:nv) (num) (noun) (noun) (noun:inanim:m:v_naz) (noun:inanim:n:v_naz:nv) (num) (noun) (noun:inanim:n:v_naz) (conj) (noun:inanim:m:v_mis:prop:geo) (noun:inanim:m:v_naz:xp1) (adj) (noun:inanim:m:v_rod) (adj:f:v_rod) (noun:inanim:f:v_rod) ",
    "timestamp": "2018-01-10T19:27:16Z"
  },
  {
    "id": 31636,
    "title": "Пайтуг",
    "text": "(noun) (noun) (noun) (noun) (noun:inanim:n:v_naz) (conj) (noun:inanim:m:v_mis:prop:geo) (noun:inanim:m:v_naz:xp1) (adj) (noun:inanim:m:v_rod) (adj:f:v_rod) (noun:inanim:f:v_rod) ",
    "timestamp": "2016-03-22T18:20:12Z"
  },
  {
    "id": 31637,
    "title": "Мархамат (місто)",
    "text": "(noun) (noun:inanim:n:v_naz:nv) (num) (noun) (adj:n:v_naz) (noun:inanim:n:v_naz) (noun) (noun) (noun) (noun:inanim:n:v_naz) (conj) (noun:inanim:m:v_mis:prop:geo) (noun:inanim:m:v_naz:xp1) (adj) (noun:inanim:m:v_rod) (adj:f:v_rod) (noun:inanim:f:v_rod) ",
    "timestamp": "2016-03-22T18:20:31Z"
  },
  {
    "id": 31639,
    "title": "Ходжаабад (місто)",
    "text": "(noun) (noun) (noun) (noun) (noun:inanim:n:v_naz) (conj) (num) (noun) (conj) (noun:inanim:m:v_mis:prop:geo) (noun:inanim:m:v_naz:xp1) (adj) (noun:inanim:m:v_rod) (adj:f:v_rod) (noun:inanim:f:v_rod) ",
    "timestamp": "2016-03-22T18:20:50Z"
  },
  {
    "id": 31640,
    "title": "Карасув (місто)",
    "text": "(noun) (noun) (noun) (noun) (noun) (noun:inanim:n:v_naz) (conj) (noun:inanim:m:v_mis:prop:geo) (conj) (adj) (noun:inanim:m:v_mis) (adj:f:v_rod) (noun:inanim:f:v_rod) ",
    "timestamp": "2016-03-22T18:21:09Z"
  },
  {
    "id": 31643,
    "title": "Пахтаабад (місто)",
    "text": "(noun) (noun) (noun) (noun) (noun:inanim:n:v_naz:nv) (num) (noun) (noun:inanim:n:v_naz) (noun) (noun:inanim:n:v_naz) (conj) (noun:inanim:m:v_mis:prop:geo) (noun:inanim:m:v_naz:xp1) (adj) (noun:inanim:m:v_rod) (adj:f:v_rod) (noun:inanim:f:v_rod) ",
    "timestamp": "2018-04-17T21:41:54Z"
  },
  {
    "id": 31645,
    "title": "Куйґан'яр",
    "text": "(noun) (noun) (noun) (noun) (adj:n:v_naz) (noun:inanim:n:v_naz) (conj) (noun:inanim:m:v_mis:prop:geo) (noun:inanim:m:v_naz:xp1) (adj:m:v_rod) (noun:inanim:m:v_rod) (adj:f:v_rod) (noun:inanim:f:v_rod) ",
    "timestamp": "2014-04-12T18:50:22Z"
  },
  {
    "id": 31648,
    "title": "Колонія",
    "text": "(noun:inanim:f:v_naz:prop:geo) (noun:inanim:m:v_naz) (noun) (noun:inanim:n:v_naz) (noun:inanim:n:v_naz) (noun:anim:p:v_rod) (noun:inanim:f:v_naz) (noun:inanim:p:v_oru) (adj:f:v_rod:&pron:pos) (noun:inanim:f:v_rod) (noun:inanim:f:v_naz) (conj:coord:subord) (noun:inanim:f:v_naz) (conj:subord) (adj:f:v_naz:&adjp:pasv:perf) (noun:inanim:f:v_rod) (conj:coord) (verb:rev:imperf:pres:s:3) (conj) (noun:inanim:f:v_oru) (adj:f:v_rod:&pron:def) (noun:inanim:f:v_rod) (noun:inanim:f:v_rod) ",
    "timestamp": "2017-06-16T13:19:48Z"
  },
  {
    "id": 31652,
    "title": "Імперіалізм",
    "text": "(noun:inanim:m:v_naz) (conj) (noun:inanim:m:v_naz) (verb) (verb:imperf:inf) (adj:f:v_naz) (noun:anim:m:v_rod) (noun:anim:m:v_rod) (conj:coord) (noun:inanim:f:v_naz) (noun:inanim:n:v_naz) (conj:coord) (noun:inanim:n:v_naz) (noun:inanim:f:v_rod) (adv:compb:&insert) (noun:inanim:m:v_oru) (adj:m:v_rod:compb) (noun:inanim:n:v_naz) (noun:inanim:f:v_rod) (conj:coord) (conj) (noun:inanim:m:v_naz:xp1) (noun:inanim:n:v_naz) (adj:m:v_rod) (conj:coord) (adj:m:v_rod) (noun:inanim:m:v_rod) ",
    "timestamp": "2018-05-24T14:43:09Z"
  },
  {
    "id": 31656,
    "title": "Грошовий обіг",
    "text": "(adj:m:v_naz) (noun:inanim:m:v_naz) (noun) (noun:inanim:m:v_naz) (noun:inanim:p:v_rod:ns) (conj) (adj:f:v_dav) (conj:coord) (adj:f:v_dav) (noun:inanim:p:v_mis) (adj:m:v_naz:&pron:int:rel:def) (verb:imperf:pres:s:3) (noun:inanim:f:v_zna) (noun:inanim:p:v_rod) (conj:coord) (adj:p:v_naz) (noun:inanim:m:v_mis) (conj) (noun:inanim:n:v_mis) ",
    "timestamp": "2018-07-05T09:58:31Z"
  },
  {
    "id": 31657,
    "title": "Українофобія",
    "text": "(noun:inanim:f:v_naz) (noun:inanim:n:v_naz) (noun:inanim:m:v_naz) (noun:inanim:m:v_naz) (conj:coord) (adj:n:v_naz:compb) (noun:inanim:n:v_naz) (noun:inanim:n:v_naz) (noun) (noun:f:v_rod:&pron:pers:3) (noun:inanim:m:v_rod) (conj:coord) (noun:inanim:f:v_rod) (noun:inanim:f:v_rod) (noun:inanim:f:v_naz) (noun:inanim:f:v_rod) (adj:f:v_naz:compb) (conj:coord) (adj:f:v_naz:compb) (noun:inanim:f:v_naz) (noun:inanim:n:v_naz:nv) (noun:anim:p:v_rod) (part) (noun:inanim:m:v_rod:rare) (adj:f:v_rod:&pron:pos) (noun:inanim:f:v_rod) (noun:inanim:f:v_rod) (conj:coord) (noun:inanim:f:v_rod) (noun:inanim:p:v_rod) (conj:coord) (noun:inanim:m:v_rod) (conj:coord) (noun:inanim:n:v_naz:nv) (noun) (part) (noun:inanim:f:v_rod) (noun:inanim:f:v_naz) (noun:inanim:n:v_naz:nv) (adj:m:v_rod:&pron:gen) (adj:m:v_rod:compb) (noun:anim:m:v_kly) (noun:inanim:n:v_naz) (noun:inanim:n:v_naz:nv) (noun:inanim:n:v_rod) (conj:coord) (adj:p:v_rod:&pron:gen) (noun:inanim:p:v_rod) (noun:inanim:f:v_rod) (adv) (adj:f:v_rod:compb) (noun:inanim:f:v_rod) ",
    "timestamp": "2018-10-17T19:20:43Z"
  },
  {
    "id": 31662,
    "title": "Всезагальна система преференцій",
    "text": "(adj:f:v_naz:bad) (noun) (noun) (noun:inanim:f:v_naz) (adj:p:v_rod) (noun:inanim:p:v_rod) (adj:p:v_naz:&pron:int:rel:def) (verb:rev:imperf:pres:p:3) (adj:p:v_oru:compb:&&adjp:pasv:perf) (adj:p:v_oru) (noun:inanim:p:v_oru) (noun:inanim:p:v_dav) (conj:subord) (verb:rev:imperf:pres:p:3) ",
    "timestamp": "2017-12-29T15:11:16Z"
  },
  {
    "id": 31665,
    "title": "Римська імперія",
    "text": "(adj:f:v_naz) (noun:inanim:f:v_naz) (noun:inanim:m:v_naz) (noun) (adj) (adj:n:v_naz) (adv) (adj:n:v_naz) (noun:inanim:n:v_naz) (adj:n:v_naz:&pron:int:rel:def) (verb:rev:perf:past:n) (intj) (noun:inanim:f:v_dav) (adj:f:v_rod) (noun:inanim:f:v_rod) (adv:compb) (num) (noun) (noun:inanim:n:v_naz:nv) (intj) ",
    "timestamp": "2018-07-26T11:15:04Z"
  },
  {
    "id": 31667,
    "title": "Інтегроване середовище розробки",
    "text": "(adj:n:v_naz:compb:&&adjp:pasv:imperf) (noun:inanim:n:v_naz) (noun:inanim:f:v_rod) (noun) (noun) (adj) (noun) (noun) (conj:coord) (noun) (noun) (adj:n:v_naz:compb) (adj:n:v_naz) (noun:inanim:n:v_naz) (conj) (noun:inanim:f:v_rod) (adj:m:v_rod) (noun:inanim:n:v_naz) ",
    "timestamp": "2018-05-30T07:52:18Z"
  },
  {
    "id": 31669,
    "title": "Експлуатація (визиск)",
    "text": "(noun:inanim:f:v_naz) (noun:inanim:m:v_naz) (noun:inanim:n:v_naz) (noun:anim:m:v_rod:&pron:ind) (conj:coord) (adv) (adj:m:v_oru:compb) (conj:coord) (adj:m:v_oru:compb) (noun) (conj:subord) (noun:inanim:m:v_naz) ",
    "timestamp": "2018-10-10T09:37:46Z"
  },
  {
    "id": 31671,
    "title": "Євразійське економічне співтовариство",
    "text": "(adj:n:v_naz) (adj:n:v_naz) (noun:inanim:n:v_naz:bad) (noun:inanim:n:v_naz:nv:np:prop:abbr) (adj:f:v_naz) (adj:f:v_naz) (noun:inanim:f:v_naz) (adj:f:v_naz:&adjp:pasv:perf) (noun:inanim:p:v_oru) (adj:p:v_oru:&adjp:pasv:perf) (conj) (noun:inanim:n:v_oru) (adj:p:v_rod:compb) (adj:p:v_rod) (adj:p:v_rod) (noun:inanim:p:v_rod) (noun) (noun:anim:p:v_rod) (conj:subord) (noun:inanim:n:v_naz:nv) (noun:f:v_rod:&pron:pers:3) (verb:imperf:pres:p:3:xp1) (noun:inanim:f:v_naz:prop:geo) (noun:inanim:m:v_naz:prop:geo) (noun:inanim:m:v_naz:prop:geo) (noun:inanim:f:v_naz:prop:geo) (conj:coord) (noun:inanim:m:v_naz:prop:geo) (noun:inanim:n:v_oru) (adj:f:v_rod) (adj:f:v_rod) (noun:anim:p:v_naz) (noun:inanim:p:v_rod) (noun:inanim:p:v_rod) (conj:coord) (adj:p:v_rod:&pron:def) (noun:inanim:p:v_rod) (noun:inanim:n:v_naz) (adj:m:v_rod:compb) (noun:inanim:f:v_zna) ",
    "timestamp": "2018-08-21T02:47:49Z"
  },
  {
    "id": 31678,
    "title": "Дизасемблер",
    "text": "(noun:inanim:m:v_naz) (noun) (noun) (adj:f:v_naz) (noun:inanim:f:v_naz) (conj:subord) (verb:imperf:pres:s:3) (noun:inanim:f:v_zna) (adj:p:v_rod) (noun:inanim:p:v_rod) (conj) (noun:inanim:f:v_zna) (noun:inanim:m:v_naz) ",
    "timestamp": "2017-07-18T13:39:35Z"
  },
  {
    "id": 31680,
    "title": "Голубці",
    "text": "(noun:anim:m:v_mis:prop:lname) (adj:f:v_naz:compb:&&adjp:pasv:perf) (noun:inanim:f:v_naz) (noun:anim:m:v_rod) (noun:inanim:f:v_naz) (adv:&insert) (adj:f:v_naz) (noun:inanim:f:v_rod) (adj:f:v_rod:compb) (noun:inanim:f:v_rod:prop:geo) (conj:coord) (noun:inanim:n:v_rod:np:prop:geo) (noun:inanim:m:v_rod) ",
    "timestamp": "2018-08-06T14:21:10Z"
  },
  {
    "id": 31681,
    "title": "Колима (річка)",
    "text": "(noun:inanim:f:v_naz:prop:geo) (noun:inanim:p:v_rod) (noun) (noun:anim:m:v_naz) (noun) (noun:inanim:f:v_naz) (intj) (adj:m:v_dav:compb) (noun:inanim:m:v_mis) (noun:inanim:f:v_rod:prop:geo) (noun:inanim:f:v_naz:prop:geo) (adj:f:v_naz) (noun:inanim:f:v_naz) ",
    "timestamp": "2018-01-12T00:02:13Z"
  },
  {
    "id": 31682,
    "title": "Коломан I Книжник",
    "text": "(noun) (num) (noun:anim:m:v_naz:prop:lname) (noun:anim:m:v_naz) (noun) (noun) (num) (adj:m:v_rod:compb) (num) (noun:anim:m:v_naz) (noun:inanim:f:v_rod:prop:geo) (conj) (num) (conj:coord) (noun:inanim:f:v_rod:prop:geo) (conj) (num) (noun) ",
    "timestamp": "2018-03-05T21:06:59Z"
  },
  {
    "id": 31683,
    "title": "Костянтин VII Багрянородний",
    "text": "(noun:anim:m:v_naz:prop:fname) (num) (noun) (conj:coord) (adj:m:v_naz) (conj:coord:subord) (noun) (noun) (noun) (noun) (adv:compb) (adj:m:v_naz:&adjp:pasv:perf) (conj) (noun:inanim:f:v_rod) (conj) (noun:inanim:m:v_mis) (conj) (adj:m:v_dav) (noun:inanim:m:v_mis) (num) (num) (conj:coord) (num) (noun:inanim:m:v_rod) (num) (num) (noun:inanim:m:v_rod:xp1) (num) (adj:m:v_naz) (noun:anim:m:v_naz) (num) (num) (adv:compb) (num) (num) (conj) (noun:anim:f:v_rod:prop:lname) (noun:inanim:f:v_rod) ",
    "timestamp": "2018-09-22T02:54:36Z"
  },
  {
    "id": 31684,
    "title": "Костянтин IX Мономах",
    "text": "(noun:anim:m:v_naz:prop:fname) (num) (noun:anim:m:v_naz:prop:lname) (noun) (noun) (noun) (adv) (num) (num) (noun:inanim:m:v_rod) (num) (adj:m:v_naz) (noun:anim:m:v_naz) (num) (num) ",
    "timestamp": "2018-09-22T02:38:32Z"
  },
  {
    "id": 31685,
    "title": "Корнілов Лавр Георгійович",
    "text": "(noun:inanim:m:v_naz) (noun:anim:m:v_naz:prop:pname) (noun:anim:m:v_naz:prop:lname) (num) (num) (noun:inanim:m:v_rod) (num) (num) (noun:inanim:m:v_rod) (num) (noun:inanim:m:v_rod) (num) (adj:m:v_naz:compb) (noun:anim:m:v_naz) (conj) (noun:inanim:f:v_rod) (noun:anim:m:v_naz) (adj:m:v_naz:&pron:dem:ind) (conj) (noun:anim:p:v_rod) (adj:m:v_rod:compb) (noun:inanim:m:v_rod) (conj) (noun:inanim:f:v_rod:prop:geo) ",
    "timestamp": "2018-05-27T08:04:42Z"
  },
  {
    "id": 31687,
    "title": "Еріх Кох",
    "text": "(noun:anim:m:v_naz:prop:fname) (noun:anim:m:v_naz:prop:lname) (noun:m:v_mis:&pron:pers:3) (noun) (noun) (num) (noun:inanim:m:v_rod) (num) (noun) (adj:f:v_naz) (noun:inanim:f:v_naz) (noun:inanim:f:v_naz) (noun:inanim:f:v_naz) (num) (noun:inanim:m:v_rod:xp1) (num) (adj:f:v_naz) (noun:inanim:f:v_naz) (conj) (noun) (noun:anim:f:v_naz:prop:lname) (adj:f:v_naz:compb) (noun:inanim:f:v_naz:prop:geo) (adj:m:v_naz) (adj:m:v_naz) (noun:anim:m:v_naz) (adj:m:v_naz:compc) (adj:m:v_naz) (noun:anim:m:v_naz) (noun:inanim:f:v_naz:nv:np:prop:abbr) (adj:m:v_naz) (noun:anim:m:v_naz) ",
    "timestamp": "2018-09-29T18:37:34Z"
  },
  {
    "id": 31688,
    "title": "Крейцер (монета)",
    "text": "(noun:inanim:m:v_naz) (conj:coord) (noun) (noun:m:v_mis:&pron:pers:3) (noun) (adj:f:v_naz) (adj:f:v_naz) (noun:inanim:f:v_naz) (noun:inanim:n:v_naz) (adj) (verb:rev:perf:past:n) (conj) (noun:inanim:f:v_rod:prop:geo) (num) (num) (noun:inanim:p:v_rod) ",
    "timestamp": "2018-01-10T13:47:41Z"
  }
]