[
  {
    "id": 23523,
    "title": "Теофіл Рутка",
    "text": "(noun:anim:m:v_naz:prop:fname) (noun:inanim:f:v_naz) (noun) (noun) (noun) (num) (noun:inanim:m:v_rod) (num) (num) (noun:inanim:m:v_rod) (num) (noun:inanim:m:v_naz:prop:geo) (adj:m:v_naz:compb) (noun:anim:m:v_naz) (adj:m:v_naz) (noun:anim:m:v_naz) (noun:anim:m:v_naz) (noun:anim:m:v_naz) (noun:anim:m:v_naz) ",
    "timestamp": "2016-05-20T15:13:02Z"
  },
  {
    "id": 23524,
    "title": "Іван Руткович",
    "text": "(noun:anim:m:v_naz:prop:fname) (noun) (adj:m:v_naz:compb) (adj:m:v_naz) (noun:anim:m:v_naz) (noun:inanim:m:v_rod) (num) (noun:inanim:m:v_dav:xp1) (num) (noun:inanim:n:v_naz) (verb:imperf:past:m) (adv) (conj) (noun:inanim:f:v_dav:prop:geo) ",
    "timestamp": "2018-05-26T15:38:48Z"
  },
  {
    "id": 23525,
    "title": "Рутковський Тадей Вікторович",
    "text": "(noun:anim:m:v_naz:prop:fname) (noun) (noun:anim:m:v_naz:prop:pname) (noun:anim:m:v_naz:prop:lname) (num) (noun:inanim:m:v_rod) (num) (noun:inanim:m:v_rod) (conj) (noun:inanim:n:v_oru) (noun:inanim:m:v_oru:xp1) (num) (noun:inanim:f:v_naz:prop:geo) (noun:inanim:f:v_naz:prop:geo) (num) (noun:inanim:m:v_rod) (num) (noun:inanim:m:v_naz:prop:geo) (adj:m:v_naz) (adj:m:v_naz:compb) (noun:anim:m:v_naz) (noun:anim:m:v_naz) (noun:anim:m:v_naz) (adj:m:v_naz:compb) (noun:anim:m:v_naz) ",
    "timestamp": "2017-12-26T13:03:14Z"
  },
  {
    "id": 23527,
    "title": "Рух (видавництво)",
    "text": "(noun:inanim:m:v_naz) (adj:n:v_naz:compb) (adj:n:v_naz) (noun:inanim:n:v_naz) (adj:n:v_naz:&adjp:pasv:perf) (num) (conj) (noun:inanim:n:v_mis) (adj:p:v_naz) (conj:coord) (adj:n:v_naz:&adjp:pasv:perf) (conj) (noun:inanim:m:v_mis) (num) (noun:inanim:n:v_naz:nv) (noun:inanim:m:v_rod:prop:geo) ",
    "timestamp": "2013-04-06T08:28:51Z"
  },
  {
    "id": 23528,
    "title": "Рух людності",
    "text": "(noun:inanim:m:v_naz) (noun:inanim:f:v_rod) (noun:inanim:f:v_rod) (conj) (noun:inanim:m:v_mis:xp1) (noun:inanim:f:v_rod) (noun:f:v_rod:&pron:pers:3) (noun:inanim:f:v_rod) (conj:coord) (noun:inanim:f:v_rod) (adj:p:v_naz:&adjp:pasv:perf) (adj:m:v_oru:compb) (noun:inanim:m:v_oru) (noun:inanim:p:v_naz) (noun:inanim:f:v_naz) (conj:coord) (noun:inanim:f:v_naz) (conj:coord) (noun:inanim:f:v_oru) (noun:inanim:f:v_rod) (noun:f:v_rod:&pron:pers:3) (noun:inanim:p:v_oru) (conj) (noun:inanim:p:v_mis) (adj:f:v_rod:&pron:dem:ind) (noun:inanim:f:v_rod) (adj:f:v_naz) (conj:coord) (conj) (adj:f:v_rod:&pron:dem:ind) (noun:inanim:n:v_naz:nv) (noun:inanim:f:v_rod) (adj:f:v_naz) ",
    "timestamp": "2017-07-23T09:27:07Z"
  },
  {
    "id": 23529,
    "title": "Рух опору",
    "text": "(noun:inanim:m:v_naz) (noun:inanim:m:v_rod) (noun) (noun) (adj:p:v_naz:compb:&&adjp:pasv:perf) (noun:inanim:n:v_naz) (noun) (noun) (noun:inanim:f:v_rod) (adj:p:v_naz:&adjp:pasv:perf) (intj) (noun:inanim:m:v_naz) (adj:f:v_dav:compb) (conj:coord:subord) (adj:f:v_dav) (noun:inanim:f:v_dav) (conj:coord) (noun:inanim:m:v_naz) (adj:m:v_rod) (noun:inanim:m:v_rod) (conj:coord) (noun:inanim:f:v_rod) ",
    "timestamp": "2018-07-27T17:37:23Z"
  },
  {
    "id": 23530,
    "title": "Руцький Ілля",
    "text": "(noun) (noun:anim:m:v_naz:prop:fname) (num) (num) (noun:anim:m:v_naz) (adj:m:v_naz:compb) (conj) (noun:inanim:n:v_naz) (conj:coord) (noun:inanim:f:v_rod) (adv:&predic) (noun:inanim:p:v_naz) (noun:inanim:m:v_oru) (conj) (noun) (conj) (num) (verb:perf:past:m) (noun) (adj:f:v_zna) (noun:inanim:f:v_zna) (conj) (num) (noun:inanim:f:v_zna) (noun:inanim:f:v_zna) (conj) (adj:m:v_dav) (adj:m:v_dav) (adv) (noun:inanim:m:v_mis) ",
    "timestamp": "2017-05-21T02:01:43Z"
  },
  {
    "id": 23531,
    "title": "Ручківський Сергій Никифорович",
    "text": "(noun:anim:m:v_naz:prop:fname) (noun:anim:m:v_naz:prop:pname) (adj:m:v_naz) (num) (num) (noun:inanim:m:v_rod) (num) (noun:inanim:f:v_naz:prop:geo) (noun:anim:f:v_naz:prop:lname) (noun) (num) (noun:inanim:m:v_rod) (num) (noun:inanim:m:v_naz:prop:geo) (adj:m:v_naz:compb) (adj:m:v_naz) (adj:m:v_naz:&&adjp:pasv:imperf) (noun:anim:m:v_naz) (noun:anim:m:v_naz) (noun:anim:m:v_naz) (adj:p:v_rod) (noun:inanim:p:v_rod) (noun:anim:m:v_naz) (noun:anim:m:v_naz:xp1) (noun:anim:m:v_naz) (noun:inanim:f:v_rod) (adj:p:v_rod) (noun:inanim:p:v_rod) (noun) (conj) (num) (noun) ",
    "timestamp": "2018-06-18T23:39:53Z"
  },
  {
    "id": 23532,
    "title": "Ручко Гнат Омелянович",
    "text": "(noun:anim:m:v_naz:prop:fname) (noun:anim:m:v_naz:prop:lname) (noun:inanim:f:v_kly) (num) (noun:inanim:m:v_rod) (num) (noun:inanim:f:v_naz:nv:abbr) (adj:p:v_naz:compb) (noun:inanim:f:v_dav:prop:geo) (adv) (noun:anim:f:v_rod:prop:lname) (noun:inanim:f:v_rod) (num) (noun:inanim:m:v_rod) (num) (noun:inanim:m:v_naz:prop:geo) (adj:m:v_naz:compb) (noun:anim:m:v_naz) (noun:anim:m:v_naz:xp1) (noun:anim:m:v_naz) (adj:f:v_rod) (noun:inanim:f:v_rod) (noun:inanim:p:v_rod) (conj) (num) ",
    "timestamp": "2017-10-06T18:53:01Z"
  },
  {
    "id": 23534,
    "title": "Рюриковичі",
    "text": "(noun:anim:m:v_mis:prop:lname) (adj:m:v_naz) (adv:compc:&predic) (adv:&insert) (adj:m:v_naz) (conj) (noun:anim:f:v_dav:prop:lname) (noun:inanim:f:v_dav) (conj:coord) (adj:m:v_naz) (conj) (noun:inanim:f:v_rod:prop:geo) (noun:inanim:m:v_naz) (noun:anim:p:v_rod:xp1) (noun:anim:m:v_rod:prop:fname) (noun:inanim:n:v_rod) (adj:m:v_rod) (noun:anim:m:v_rod) (adj) (noun:inanim:f:v_rod:prop:geo) ",
    "timestamp": "2018-04-28T10:07:11Z"
  },
  {
    "id": 23535,
    "title": "Рябінін Микола Леонідович",
    "text": "(noun:anim:m:v_naz:prop:fname) (noun:anim:m:v_naz:prop:pname) (noun:anim:m:v_naz:prop:lname) (num) (noun:inanim:m:v_rod) (num) (noun:inanim:f:v_naz:nv:abbr) (noun:inanim:n:v_naz:prop:geo) (adv) (adj:f:v_rod) (noun:inanim:f:v_rod) (noun:inanim:f:v_rod:prop:geo) (num) (noun:inanim:m:v_rod) (num) (noun:inanim:m:v_naz:prop:geo) (adj:m:v_naz:compb) (noun:anim:m:v_naz) ",
    "timestamp": "2016-05-31T19:28:51Z"
  },
  {
    "id": 23539,
    "title": "Рябов Іван Миколайович",
    "text": "(noun:anim:m:v_naz:prop:fname) (noun:anim:m:v_naz:prop:pname) (noun:anim:m:v_naz:prop:lname) (num) (noun:inanim:m:v_rod) (num) (noun:inanim:n:v_naz) (noun:inanim:f:v_rod:prop:geo) (adv) (adj:f:v_rod) (noun:inanim:f:v_rod) (noun:inanim:f:v_naz:prop:geo) (adj:m:v_naz) (adj:m:v_naz:compb:&&adjp:pasv:imperf) (conj) (noun:inanim:f:v_dav) (noun:inanim:n:v_rod) ",
    "timestamp": "2012-05-06T17:35:17Z"
  },
  {
    "id": 23540,
    "title": "Рябов Олексій Пантелеймонович",
    "text": "(noun:anim:m:v_naz:prop:fname) (noun:anim:m:v_naz:prop:pname) (noun:anim:m:v_naz:prop:lname) (num) (num) (noun:inanim:m:v_rod) (num) (noun:inanim:m:v_naz:prop:geo) (num) (noun:inanim:m:v_rod) (num) (noun:inanim:m:v_naz:prop:geo) (adj:m:v_naz:compb) (noun:anim:m:v_naz) (noun:anim:m:v_naz) (conj:coord) (noun:anim:m:v_naz) (adj:m:v_naz:&adjp:pasv:perf:compb) (noun:anim:m:v_naz) (noun:inanim:p:v_rod) (noun:inanim:f:v_naz:nv:np:prop:abbr) (num) ",
    "timestamp": "2018-04-24T21:21:10Z"
  },
  {
    "id": 23542,
    "title": "Рябокінь Хома Семенович",
    "text": "(noun:anim:m:v_naz:prop:fname) (noun:anim:m:v_naz:prop:lname) (noun) (noun) (noun) (num) (num) (adj:m:v_naz:compb) (noun:anim:m:v_naz) (noun:inanim:m:v_oru) (prep) (noun:inanim:f:v_rod:prop:geo) ",
    "timestamp": "2016-08-16T18:59:43Z"
  },
  {
    "id": 23543,
    "title": "Рябокляч Іван Панасович",
    "text": "(noun:anim:m:v_naz:prop:fname) (noun:anim:m:v_naz:prop:pname) (noun:anim:m:v_naz:prop:lname) (num) (noun:inanim:m:v_rod:xp1) (num) (noun:inanim:n:v_naz) (noun:inanim:p:v_naz:prop:geo:ns) (adv) (noun:anim:m:v_rod:prop:lname) (noun:inanim:m:v_rod) (adj) (noun:inanim:f:v_rod) (num) (adj:m:v_naz:compb) (adj:m:v_naz) (noun:anim:m:v_naz) (conj:coord) (noun:anim:m:v_naz) ",
    "timestamp": "2018-05-08T05:25:03Z"
  },
  {
    "id": 23544,
    "title": "Рябчик (рослина)",
    "text": "(noun:anim:m:v_naz:xp1) (noun) (noun:inanim:m:v_naz) (adj:p:v_rod) (noun:inanim:p:v_rod) (noun:inanim:f:v_rod) (adj:p:v_rod) (conj:subord) (verb:imperf:pres:s:3) (adv:compb) (num) (noun:inanim:p:v_rod) ",
    "timestamp": "2018-10-17T18:31:03Z"
  },
  {
    "id": 23545,
    "title": "Рязанцев Микола Володимирович",
    "text": "(noun:anim:m:v_naz:prop:fname) (noun) (noun:anim:m:v_naz:prop:lname) (num) (num) (adj:m:v_naz:&&adjp:pasv:imperf) (conj) (noun:inanim:f:v_dav) (noun:inanim:f:v_rod) (noun:anim:p:v_rod:xp1) (conj) (noun:inanim:n:v_naz) (noun:anim:m:v_naz) ",
    "timestamp": "2017-01-16T17:34:32Z"
  },
  {
    "id": 23546,
    "title": "Ряппо Ян Петрович",
    "text": "(noun:anim:m:v_naz:prop:fname) (noun:anim:f:v_naz:nv:np:prop:lname) (noun) (num) (noun:inanim:m:v_rod) (num) (num) (noun:inanim:m:v_rod) (num) (adj:m:v_naz) (noun:anim:m:v_naz) (conj:coord) (noun:anim:m:v_naz) (noun:anim:m:v_naz) (noun:inanim:f:v_rod) (adj:f:v_rod:compb) (noun:inanim:f:v_rod) (noun:inanim:f:v_naz:nv:np:prop:abbr) (conj) (noun:inanim:n:v_oru) (noun:anim:m:v_naz) ",
    "timestamp": "2017-04-30T17:00:19Z"
  },
  {
    "id": 23547,
    "title": "Ряска",
    "text": "(noun:inanim:f:v_naz) (noun) (noun:inanim:m:v_naz) (adj:p:v_rod:compb) (adj:p:v_rod) (adj:p:v_rod:&adjp:actv:imperf:bad) (conj:coord) (adj:p:v_rod:&adjp:pasv:perf) (conj) (noun:inanim:f:v_zna) (noun:inanim:p:v_rod) (conj) (noun:inanim:f:v_rod) (noun:inanim:p:v_rod:ns) ",
    "timestamp": "2018-05-05T06:58:11Z"
  },
  {
    "id": 23549,
    "title": "Ряст",
    "text": "(noun:inanim:m:v_naz) (noun) (noun:inanim:m:v_naz) (adv) (adj:p:v_rod) (adj:p:v_rod) (noun:inanim:p:v_rod) (conj) (noun:inanim:f:v_naz) (noun) (noun) (conj) (adj:p:v_oru) (noun:inanim:p:v_oru) (noun:inanim:p:v_oru) (conj:coord) (noun:inanim:p:v_oru) (conj) (adj:m:v_oru:&adjp:pasv:perf:compb) (noun:inanim:m:v_oru) ",
    "timestamp": "2016-12-21T17:29:31Z"
  },
  {
    "id": 23550,
    "title": "Підкарпатське воєводство",
    "text": "(adj:n:v_naz) (noun:inanim:n:v_naz) (noun) (noun) (noun) (noun:inanim:n:v_naz) (conj) (adj) (adj:f:v_dav:compb) (noun) (noun:inanim:f:v_naz) (num) (num) (noun) (num) (num) (num) (noun:inanim:m:v_naz:xp1) (noun:anim:p:v_rod) (num) (adv:compb:&insert) (noun:inanim:n:v_naz) (noun:inanim:m:v_naz:prop:geo) (noun) ",
    "timestamp": "2018-07-22T14:08:13Z"
  },
  {
    "id": 23551,
    "title": "Автогравюра",
    "text": "(noun:inanim:f:v_naz) (conj) (noun:inanim:n:v_naz:alt) (conj:coord) (noun:inanim:f:v_naz) (noun:inanim:f:v_naz) (conj) (adj:f:v_dav:&pron:int:rel:def) (adj:f:v_zna) (noun:inanim:f:v_zna) (intj) (noun:inanim:n:v_mis) (noun:inanim:m:v_mis) (conj:coord) (noun:inanim:m:v_mis) (noun:inanim:f:v_naz) (noun:inanim:m:v_naz) (noun:inanim:f:v_naz) (verb:imperf:pres:s:3) (adj:m:v_naz:&pron:def) (noun:anim:m:v_naz) (noun:anim:m:v_naz) (noun:inanim:f:v_rod) ",
    "timestamp": "2017-12-15T09:22:22Z"
  },
  {
    "id": 23552,
    "title": "Автолітографія",
    "text": "(noun:inanim:f:v_naz) (noun) (noun) (adj:m:v_naz:&pron:def) (conj:coord) (noun) (noun:inanim:p:v_rod) (verb) (verb:imperf:pres:s:1) (noun:inanim:m:v_naz) (noun:inanim:f:v_rod) (noun:inanim:n:v_naz) (adj:m:v_rod:compb) (noun:inanim:m:v_rod) (intj) (noun:inanim:m:v_mis:xp1) (conj:coord) (adj:m:v_dav) (noun:inanim:m:v_rod) (verb:imperf:impr:s:2) (adj:m:v_dav:&pron:int:rel:def) (noun:inanim:n:v_naz) (intj) (noun:inanim:p:v_rod) (verb:imperf:pres:s:3:xp1) (noun:anim:m:v_naz) (noun:anim:m:v_naz) (intj) (noun:inanim:f:v_zna) (conj) (adj:f:v_rod) (noun:inanim:f:v_rod) (adv:&pron:int:rel) (noun:anim:m:v_naz:xp1) (verb:imperf:pres:s:3) (intj) (noun:inanim:p:v_rod) (noun:anim:m:v_naz) (noun:anim:m:v_naz) ",
    "timestamp": "2009-11-03T12:23:19Z"
  },
  {
    "id": 23553,
    "title": "Автотипія",
    "text": "(noun:inanim:f:v_naz) (conj) (noun) (noun) (adj:m:v_naz:&pron:def) (conj:coord) (verb) (noun:inanim:m:v_naz) (adj:m:v_naz) (noun:inanim:m:v_naz) (adj:m:v_rod) (noun:inanim:n:v_naz) (adj:p:v_rod) (noun:inanim:p:v_rod) (noun:inanim:p:v_rod) (adj:p:v_rod) (noun:inanim:p:v_rod:xp1) (adj:m:v_rod) (noun:inanim:m:v_rod) (noun:inanim:p:v_oru) (adj:m:v_rod:compb) (noun:inanim:m:v_rod) (adj:m:v_naz:&adjp:pasv:perf) (intj) (noun:inanim:f:v_rod) (noun:inanim:f:v_rod) (noun:inanim:p:v_rod) (noun:inanim:f:v_oru) (noun:inanim:p:v_rod) (adj:p:v_rod:compb) (noun:inanim:p:v_rod) (noun:inanim:m:v_naz) (conj:coord) (adj:f:v_rod) (noun:inanim:f:v_rod) (noun:inanim:f:v_rod) ",
    "timestamp": "2013-04-01T18:51:44Z"
  },
  {
    "id": 23554,
    "title": "Аквафорта",
    "text": "(noun:inanim:f:v_naz) (noun) (noun) (noun:inanim:m:v_naz) (noun:inanim:n:v_naz) (intj) (noun:inanim:f:v_rod) (adj:m:v_oru:compb) (noun:inanim:m:v_oru) (adj:f:v_zna:&pron:def) (noun:inanim:f:v_zna) (adj:f:v_zna:&adjp:pasv:perf) (adj:m:v_oru:&pron:dem) (noun) (verb:imperf:pres:p:3) (noun:inanim:m:v_oru) ",
    "timestamp": "2017-12-09T13:17:33Z"
  },
  {
    "id": 23555,
    "title": "Альграфія",
    "text": "(noun) (conj) (noun:inanim:m:v_naz) (conj:coord) (noun) (noun:inanim:m:v_naz) (adj:m:v_rod:compb) (noun:inanim:m:v_rod) (verb:imperf:impr:s:2) (adj:m:v_dav:&pron:int:rel:def) (adj:f:v_naz) (noun:inanim:f:v_naz) (verb:rev:imperf:pres:s:3) (intj) (adj:f:v_dav:compb) (num) (num) (num) (num) (noun:inanim:m:v_naz:nv:abbr) (adj:f:v_dav) (noun:inanim:f:v_dav) (verb:rev:imperf:pres:s:3) (conj) (noun:inanim:n:v_naz) (intj) (adj:p:v_rod) (noun:inanim:p:v_mis) (noun:inanim:p:v_rod) (adj:p:v_rod:compb) (noun:inanim:p:v_rod) (noun:inanim:p:v_rod) (conj:coord) (adj) ",
    "timestamp": "2018-05-14T10:04:08Z"
  },
  {
    "id": 23556,
    "title": "Глибокий офсет",
    "text": "(adj:m:v_naz:compb) (adj:m:v_naz) (noun:inanim:m:v_naz) (noun:inanim:f:v_naz) (noun:inanim:m:v_rod) (verb:imperf:impr:s:2) (adj:f:v_dav:&pron:int:rel:def) (noun:inanim:f:v_naz) (conj) (noun:inanim:f:v_rod) (adj:m:v_rod:compb) (noun:inanim:m:v_rod) (intj) (noun:inanim:m:v_naz) (verb:rev:imperf:pres:s:3) (prep) (adj:n:v_naz:compb) (noun:inanim:n:v_naz) (adj:m:v_naz) (noun:inanim:m:v_naz) ",
    "timestamp": "2014-12-19T11:45:01Z"
  },
  {
    "id": 23557,
    "title": "Високий друк",
    "text": "(noun:inanim:m:v_naz:prop:geo) (noun:inanim:m:v_naz) (adj:m:v_naz) (noun:inanim:m:v_naz) (adj:m:v_naz:&pron:dem:ind) (conj) (adj:p:v_rod:compb) (noun:inanim:p:v_rod) (adj:m:v_rod) (noun:inanim:n:v_naz) (noun:inanim:m:v_rod) (conj:coord) (noun:inanim:p:v_rod:xp1) (verb:imperf:impr:s:2) (adj:m:v_dav:&pron:int:rel:def) (adj:p:v_naz:&adjp:actv:imperf:bad) (conj:coord) (adj:p:v_naz) (noun:inanim:p:v_naz:xp1) (intj) (noun:inanim:f:v_dav) (adj:p:v_naz:&adjp:pasv:perf) (conj) (adj:p:v_rod:compb) (noun:inanim:p:v_mis) (part) (conj) (adj:f:v_dav:&pron:dem:ind) (noun:inanim:f:v_dav) (adj:p:v_naz:&adjp:actv:imperf:bad) (adv:compc) (num) (conj:coord) (adj:p:v_naz) (adv:compc) (num) ",
    "timestamp": "2016-08-28T18:25:18Z"
  },
  {
    "id": 23558,
    "title": "Лубни",
    "text": "(noun:inanim:p:v_naz:prop:geo:ns) (noun) (noun) (adj:f:v_naz:compc) (noun:inanim:f:v_naz) (noun:inanim:f:v_rod:prop:geo) (noun:inanim:n:v_naz) (adj:m:v_rod) (noun:inanim:n:v_naz) (conj) (noun:anim:f:v_dav:prop:lname) (noun:inanim:f:v_rod) (noun) (adj:m:v_naz) (noun:inanim:m:v_naz:xp1) (noun:anim:m:v_rod:prop:lname) (noun:inanim:m:v_rod) ",
    "timestamp": "2018-10-11T17:04:39Z"
  },
  {
    "id": 23559,
    "title": "Лубенський полк",
    "text": "(noun:anim:m:v_naz:prop:lname) (noun:inanim:m:v_naz) (adv) (adj:f:v_naz) (noun:inanim:f:v_naz) (noun:inanim:f:v_rod:prop:geo) (adj:m:v_naz:&pron:dem:ind) (prep) (num) (noun:anim:s:v_naz:&pron:pers:2) (adj:p:v_rod) (noun:inanim:p:v_rod) (adj:f:v_rod) (noun:inanim:f:v_rod) ",
    "timestamp": "2018-09-28T17:44:39Z"
  },
  {
    "id": 23560,
    "title": "Миргородський полк",
    "text": "(noun:anim:m:v_naz:prop:lname) (noun:inanim:m:v_naz) (conj) (num) (num) (noun:inanim:p:v_mis) (adv) (adj:m:v_naz) (adj:m:v_naz) (noun:inanim:m:v_naz) (noun:inanim:n:v_rod) (adj:m:v_rod) ",
    "timestamp": "2018-10-08T19:29:18Z"
  },
  {
    "id": 23561,
    "title": "Чигиринський полк",
    "text": "(adj:m:v_naz) (noun:inanim:m:v_naz) (adv) (adj:f:v_naz) (conj:coord) (adj:f:v_naz) (noun:inanim:f:v_naz) (noun:inanim:n:v_rod) (adj:m:v_rod) (conj) (num) (num) (noun) ",
    "timestamp": "2017-12-30T08:07:34Z"
  },
  {
    "id": 23562,
    "title": "Полтавський полк Війська Запорозького",
    "text": "(noun:anim:m:v_naz:prop:lname) (noun:inanim:m:v_naz) (conj) (num) (num) (noun:inanim:p:v_mis) (adj:m:v_naz:&pron:dem:ind) (prep) (num) (adj:p:v_rod) (adv) (adj:p:v_rod) (noun:inanim:p:v_rod) (noun:inanim:f:v_rod:prop:geo) ",
    "timestamp": "2018-09-21T14:09:20Z"
  },
  {
    "id": 23563,
    "title": "Кропивнянський полк",
    "text": "(adj:m:v_naz) (noun:inanim:m:v_naz) (adj:m:v_naz:&pron:dem:ind) (prep) (adv) (adj:p:v_rod) (adj:p:v_rod) (noun:inanim:p:v_rod) (noun) (conj) (noun:inanim:f:v_dav) (num) (noun:inanim:n:v_naz) ",
    "timestamp": "2017-11-02T16:22:47Z"
  },
  {
    "id": 23565,
    "title": "Переяславський полк Війська Запорозького",
    "text": "(adj:m:v_naz) (noun:inanim:m:v_naz) (adv) (adj:f:v_naz) (conj:coord) (adj:f:v_naz) (noun:inanim:f:v_naz) (adj:f:v_rod) (noun) (conj) (num) (num) (noun:inanim:p:v_mis) ",
    "timestamp": "2018-10-17T06:45:45Z"
  },
  {
    "id": 23566,
    "title": "Керн Анна Петрівна",
    "text": "(noun:anim:f:v_naz:prop:fname) (noun:anim:f:v_naz:prop:pname) (noun:inanim:m:v_naz) (num) (adj:m:v_rod:compb) (num) (noun:anim:m:v_naz:prop:lname) (num) (num) (noun:inanim:m:v_rod) (num) (noun:inanim:m:v_naz:prop:geo) (adj:f:v_naz:&adjp:pasv:perf) (noun:anim:f:v_naz:prop:lname) (noun:inanim:n:v_dav) (noun:anim:m:v_dav:xp1) (adj:f:v_naz) (noun:anim:f:v_naz:prop:lname) (noun:inanim:f:v_naz) (noun:anim:f:v_naz) (conj) (noun:inanim:f:v_rod) (adv) (noun:inanim:m:v_rod) (noun:inanim:m:v_mis:xp1) (noun:anim:m:v_dav) (noun:f:v_naz:&pron:pers:3) (verb:imperf:past:f) (conj) (noun:inanim:n:v_mis) (noun:anim:m:v_rod:prop:lname) ",
    "timestamp": "2018-08-31T05:34:11Z"
  },
  {
    "id": 23568,
    "title": "Миргород",
    "text": "(noun:inanim:m:v_naz:prop:geo) (noun:inanim:n:v_naz) (adj:m:v_rod) (noun:inanim:n:v_naz) (conj) (noun:anim:f:v_dav:prop:lname) (noun:inanim:f:v_rod) (adj:m:v_naz) (noun:inanim:m:v_naz:xp1) (noun:anim:m:v_rod:prop:lname) (noun:inanim:m:v_rod) ",
    "timestamp": "2018-10-14T12:00:53Z"
  },
  {
    "id": 23569,
    "title": "Великі Сорочинці",
    "text": "(adj:p:v_naz:compb) (noun:inanim:f:v_dav:prop:geo) (noun:inanim:n:v_naz) (conj) (noun) (conj) (noun:anim:m:v_dav:prop:lname) (noun:inanim:m:v_mis) (noun:anim:f:v_rod:prop:lname) (noun:inanim:f:v_rod) ",
    "timestamp": "2018-07-31T14:50:19Z"
  },
  {
    "id": 23571,
    "title": "Мгарський монастир",
    "text": "(adj:m:v_naz) (noun:anim:m:v_naz:prop:lname) (adj:m:v_naz) (noun) (adj:m:v_naz:&adjp:pasv:perf) (adv) (noun:inanim:n:v_rod) (noun:inanim:p:v_naz:prop:geo:ns) (intj) (adj:m:v_dav:compb) (noun:inanim:m:v_mis) (noun:inanim:f:v_rod:prop:geo) ",
    "timestamp": "2018-07-18T12:19:27Z"
  },
  {
    "id": 23572,
    "title": "Звернення до милосердя",
    "text": "(noun:inanim:n:v_naz) (noun:inanim:n:v_naz:nv) (noun:inanim:n:v_naz) (noun:inanim:m:v_naz) (noun) (noun) (noun) (adj:f:v_naz:compb) (noun:inanim:f:v_naz) (conj) (adj:f:v_dav:&pron:int:rel) (verb:rev:imperf:pres:p:3) (verb:perf:inf:xp1) (noun:inanim:n:v_naz) (verb:imperf:pres:s:1) (conj) (noun:inanim:f:v_oru) (verb:perf:inf) (noun:inanim:f:v_rod) (prep) (adj:m:v_oru:&adjp:pasv:imperf) (noun:inanim:m:v_oru) ",
    "timestamp": "2016-08-12T14:50:06Z"
  },
  {
    "id": 23576,
    "title": "Римська курія",
    "text": "(adj:f:v_naz) (noun:anim:m:v_rod:xp1) (noun:inanim:m:v_naz) (adj) (noun) (adj:f:v_naz) (noun:inanim:f:v_naz) (noun:anim:m:v_rod) (verb:imperf:pres:s:3) (noun:anim:m:v_dav:xp1) (adj:m:v_dav) (verb:imperf:inf) (adj:f:v_oru) (noun:inanim:f:v_oru) (adj:m:v_naz:compc) (noun:inanim:m:v_naz:xp1) (adj:f:v_rod) (noun:inanim:f:v_rod) (noun:inanim:m:v_rod:prop:geo) ",
    "timestamp": "2018-01-09T15:09:29Z"
  },
  {
    "id": 23578,
    "title": "Конгрегація",
    "text": "(noun:inanim:f:v_naz) (noun:inanim:m:v_naz) (adj:f:v_rod) (noun:anim:m:v_mis:prop:lname) (adj:n:v_naz:compb) (noun:inanim:n:v_naz) (noun:inanim:m:v_rod:prop:geo) ",
    "timestamp": "2015-05-16T12:58:22Z"
  },
  {
    "id": 23580,
    "title": "Ватиканська бібліотека",
    "text": "(adj:f:v_naz) (noun:inanim:f:v_naz) (noun:inanim:m:v_naz) (noun) (noun) (noun) (noun:inanim:f:v_naz) (adj:m:v_rod:compb) (noun:inanim:m:v_rod) (adj:f:v_naz:&adjp:pasv:perf) (conj) (noun:inanim:m:v_mis:prop:geo:xp1) (adj:f:v_naz:&pron:dem:ind) (conj) (adj:p:v_rod:comps) (conj) (noun:inanim:m:v_mis) (noun:inanim:p:v_rod) (conj:coord) (noun:inanim:p:v_rod) (noun:inanim:p:v_rod) ",
    "timestamp": "2017-12-10T13:55:08Z"
  },
  {
    "id": 23583,
    "title": "Спасо-Преображенська церква (Великі Сорочинці)",
    "text": "(adj:m:v_naz) (adj:f:v_naz) (noun:inanim:f:v_naz) (adj:m:v_naz:&pron:dem:ind) (prep) (adj:p:v_rod:comps) (noun:inanim:p:v_rod) (adj:f:v_rod) (noun:inanim:f:v_rod) (adj:f:v_rod) (noun) (noun:inanim:m:v_dav:xp1) (adj:m:v_rod:compb) (noun:inanim:n:v_naz:nv:np) (noun:inanim:m:v_dav:xp1) (num) (noun:inanim:n:v_naz) ",
    "timestamp": "2018-09-12T18:56:28Z"
  },
  {
    "id": 23586,
    "title": "Балаклійський полк",
    "text": "(adj:m:v_naz) (adj:m:v_naz) (adj:m:v_naz) (adj:m:v_naz) (noun:inanim:m:v_naz) (adv) (adj:f:v_naz) (conj:coord) (adj:f:v_naz) (noun:inanim:f:v_naz) (adj:f:v_rod) (noun) ",
    "timestamp": "2018-07-26T12:22:37Z"
  },
  {
    "id": 23587,
    "title": "Білоцерківський полк",
    "text": "(adj:m:v_naz) (noun:inanim:m:v_naz) (adv) (adj:f:v_naz) (conj:coord) (adj:f:v_naz) (noun:inanim:f:v_naz) (adj:f:v_rod) (noun) (conj) (num) (num) (noun:inanim:p:v_mis) ",
    "timestamp": "2017-11-10T14:20:44Z"
  },
  {
    "id": 23588,
    "title": "Богуславський полк",
    "text": "(noun:anim:m:v_naz:prop:lname) (noun:inanim:m:v_naz) (adv) (adj:f:v_naz) (conj:coord) (adj:f:v_naz) (noun:inanim:f:v_naz) (adj:f:v_rod) (noun) (adv) (num) (intj) (noun:inanim:m:v_dav:xp1) (num) (intj) (noun:inanim:p:v_rod) ",
    "timestamp": "2017-10-28T09:46:04Z"
  },
  {
    "id": 23589,
    "title": "Брацлавський полк",
    "text": "(adj:m:v_naz) (noun:inanim:m:v_naz) (adv) (adj:f:v_naz) (conj:coord) (adj:f:v_naz) (noun:inanim:f:v_naz) (adj:f:v_rod) (noun) (adj:f:v_naz:&adjp:pasv:perf) (num) (noun) ",
    "timestamp": "2017-11-02T15:49:18Z"
  },
  {
    "id": 23590,
    "title": "Ізюмський полк",
    "text": "(adj:m:v_naz) (noun:inanim:m:v_naz) (adv) (adj:f:v_naz) (conj:coord) (adj:f:v_naz) (noun:inanim:f:v_naz) (adj:f:v_rod) (noun) ",
    "timestamp": "2018-09-23T07:33:38Z"
  },
  {
    "id": 23593,
    "title": "Ічнянський полк",
    "text": "(adj:m:v_naz) (noun:inanim:m:v_naz) (adj:f:v_naz) (adv) (adj:f:v_naz) (conj:coord) (adj:f:v_naz) (noun:inanim:f:v_naz) (noun:inanim:p:v_rod) (noun) ",
    "timestamp": "2017-11-02T16:37:35Z"
  },
  {
    "id": 23594,
    "title": "Кальницький полк",
    "text": "(adj:m:v_naz) (noun:anim:m:v_naz:prop:lname) (noun:inanim:m:v_naz) (adv) (adj:f:v_naz) (conj:coord) (adj:f:v_naz) (noun:inanim:f:v_naz) (num) (conj) (adj:f:v_dav) (noun) ",
    "timestamp": "2018-09-08T13:59:34Z"
  },
  {
    "id": 23596,
    "title": "Канівський полк",
    "text": "(adj:m:v_naz) (noun:inanim:m:v_naz) (adv) (adj:f:v_naz) (conj:coord) (adj:f:v_naz) (noun:inanim:f:v_naz) (num) (noun:inanim:n:v_naz) ",
    "timestamp": "2017-10-11T17:12:03Z"
  },
  {
    "id": 23597,
    "title": "Київський полк",
    "text": "(adj:m:v_naz) (noun:inanim:m:v_naz) (adv) (adj:f:v_naz) (conj:coord) (adj:f:v_naz) (noun:inanim:f:v_naz) (noun) (conj) (num) (num) (noun:inanim:p:v_mis) ",
    "timestamp": "2017-11-02T16:21:29Z"
  },
  {
    "id": 23598,
    "title": "Корсунський полк",
    "text": "(adj:m:v_naz) (noun:inanim:m:v_naz) (adv) (adj:f:v_naz) (conj:coord) (adj:f:v_naz) (noun:inanim:f:v_naz) (noun:inanim:n:v_rod) (adj:m:v_rod) (conj) (num) (num) (noun:inanim:p:v_mis) ",
    "timestamp": "2017-11-21T08:57:54Z"
  },
  {
    "id": 23599,
    "title": "Лисянський полк",
    "text": "(noun:anim:m:v_naz:prop:lname) (noun:inanim:m:v_naz) (adv) (adj:f:v_naz) (conj:coord) (adj:f:v_naz) (noun:inanim:f:v_naz) (noun) (conj) (num) (noun:inanim:n:v_mis) ",
    "timestamp": "2017-11-02T16:38:14Z"
  },
  {
    "id": 23600,
    "title": "Могилівський полк",
    "text": "(adj:m:v_naz) (noun:inanim:m:v_naz) (noun:m:v_naz:&pron:pers:3) (conj:coord) (adj:m:v_naz) (adj:m:v_naz) (adv) (adj:f:v_naz) (adj:f:v_naz) (noun:inanim:f:v_naz) (adj:f:v_rod) (noun) (conj) (noun:inanim:f:v_dav) (noun:inanim:f:v_dav) (num) (noun:inanim:n:v_naz) (adj:m:v_naz:&adjp:pasv:perf) (num) (noun) ",
    "timestamp": "2017-11-21T08:57:22Z"
  },
  {
    "id": 23601,
    "title": "Ніжинський полк",
    "text": "(adj:m:v_naz) (noun:inanim:m:v_naz) (adv) (adj:f:v_naz) (conj:coord) (adj:f:v_naz) (noun:inanim:f:v_naz) (noun) ",
    "timestamp": "2017-11-02T16:26:07Z"
  },
  {
    "id": 23602,
    "title": "Новгородський полк",
    "text": "(adj:m:v_naz) (noun:inanim:m:v_naz) (adv) (adj:f:v_naz) (conj:coord) (adj:f:v_naz) (noun:inanim:f:v_naz) (adj:f:v_naz:&adjp:pasv:perf) (num) (noun) (conj) (noun) (noun:inanim:n:v_rod:prop:geo) (noun:inanim:m:v_rod) ",
    "timestamp": "2017-11-02T16:26:45Z"
  },
  {
    "id": 23606,
    "title": "Острогозький полк",
    "text": "(adj:m:v_naz) (adj) (adj:m:v_naz) (adj:m:v_naz) (adj:m:v_naz) (noun:inanim:m:v_naz) (adv) (adj:f:v_naz) (conj:coord) (adj:f:v_naz) (noun:inanim:f:v_naz) (adj:f:v_rod) (noun) (conj) (num) (num) ",
    "timestamp": "2018-09-16T10:06:36Z"
  },
  {
    "id": 23608,
    "title": "Паволоцький полк Війська Запорозького",
    "text": "(adj:m:v_naz) (noun:inanim:m:v_naz) (adv) (adj:f:v_naz) (conj:coord) (adj:f:v_naz) (noun:inanim:f:v_naz) (noun) ",
    "timestamp": "2017-12-01T13:47:51Z"
  },
  {
    "id": 23609,
    "title": "Прилуцький полк",
    "text": "(noun:anim:m:v_naz:prop:lname) (noun:inanim:m:v_naz) (adv) (adj:f:v_naz) (conj:coord) (adj:f:v_naz) (noun:inanim:f:v_naz) (noun:inanim:f:v_rod:prop:geo) ",
    "timestamp": "2017-10-18T14:19:36Z"
  },
  {
    "id": 23610,
    "title": "Стародубський полк",
    "text": "(adj:m:v_naz) (noun:inanim:m:v_naz) (adv) (adj:f:v_naz) (conj:coord) (adj:f:v_naz) (noun:inanim:f:v_naz) (noun:inanim:f:v_rod:prop:geo) ",
    "timestamp": "2018-09-04T18:18:28Z"
  },
  {
    "id": 23611,
    "title": "Сумський полк",
    "text": "(adj:m:v_naz) (noun:inanim:m:v_naz) (adv) (adj:f:v_naz) (conj:coord) (adj:f:v_naz) (noun:inanim:f:v_naz) (adj:f:v_rod) (noun) (adj:m:v_naz) (noun:inanim:m:v_naz:xp1) (noun:inanim:n:v_naz) (noun:inanim:f:v_rod:prop:geo) ",
    "timestamp": "2018-09-16T10:06:05Z"
  },
  {
    "id": 23612,
    "title": "Уманський полк",
    "text": "(noun:anim:m:v_naz:prop:lname) (noun:inanim:m:v_naz) (adv) (adj:f:v_naz) (conj:coord) (adj:f:v_naz) (noun:inanim:f:v_naz) (noun:inanim:n:v_rod) (adj:m:v_rod) ",
    "timestamp": "2018-09-30T10:04:14Z"
  },
  {
    "id": 23613,
    "title": "Фастівський полк",
    "text": "(adj:m:v_naz) (noun:inanim:m:v_naz) (adv) (adj:f:v_naz) (conj:coord) (adj:f:v_naz) (noun:inanim:f:v_naz) (adj:m:v_rod:compb) (noun:inanim:n:v_rod) ",
    "timestamp": "2018-05-02T09:42:52Z"
  },
  {
    "id": 23615,
    "title": "Черкаський полк",
    "text": "(noun:anim:m:v_naz:prop:lname) (noun:inanim:m:v_naz) (adv) (adj:f:v_naz) (conj:coord) (adj:f:v_naz) (noun:inanim:f:v_naz) (num) (noun:inanim:n:v_naz) ",
    "timestamp": "2017-11-17T07:34:29Z"
  },
  {
    "id": 23616,
    "title": "Чернігівський полк",
    "text": "(adj:m:v_naz) (noun:inanim:m:v_naz) (adv) (adj:f:v_naz) (conj:coord) (adj:f:v_naz) (noun:inanim:f:v_naz) (noun:inanim:f:v_rod:prop:geo) ",
    "timestamp": "2018-09-12T13:39:23Z"
  },
  {
    "id": 23620,
    "title": "Німецька мова",
    "text": "(noun:inanim:f:v_naz) (noun:inanim:f:v_naz) (noun:m:v_mis:&pron:pers:3) (noun) (conj:coord) (adj) (noun) (adj:f:v_naz) (noun) (adj) (noun) (conj:coord) (noun) (adj:f:v_naz) (noun) (adj:f:v_naz) (noun) (adj) (noun) (adj:f:v_naz) (noun) (adj) (noun) (adj:f:v_naz) (noun) (adj) (noun) (verb:imperf:pres:s:3:xp1) (noun:inanim:n:v_naz:nv) (adj:f:v_rod) (noun:inanim:f:v_rod) (conj:subord) (adj:f:v_rod) (noun:inanim:f:v_rod:xp1) (conj:subord) (adj:f:v_naz) (noun:inanim:f:v_naz) (conj) (adj:f:v_dav) (noun:inanim:f:v_dav:prop:geo) (noun:inanim:f:v_dav:prop:geo) (noun:inanim:f:v_rod:prop:geo) (noun:inanim:f:v_rod:prop:geo) (noun:anim:m:v_mis:prop:lname:xp1) (noun:inanim:m:v_mis:prop:geo:xp2) (conj:coord) (noun:inanim:f:v_rod:prop:geo) ",
    "timestamp": "2018-08-28T15:08:48Z"
  },
  {
    "id": 23621,
    "title": "Кравчук Леонід Макарович",
    "text": "(noun) (noun:anim:m:v_naz:prop:pname) (noun:anim:m:v_naz:prop:lname) (noun:inanim:p:v_rod:ns) (num) (noun:inanim:m:v_rod) (num) (noun:inanim:n:v_naz) (adj:m:v_naz:compb) (noun:inanim:m:v_naz:prop:geo) (adj:n:v_naz) (noun:inanim:n:v_naz) (noun:anim:f:v_naz:prop:lname) (noun) (adv) (adj:f:v_naz) (noun:inanim:f:v_naz) (adj:m:v_naz:compb:&numr) (noun:anim:m:v_naz) (noun) (adv) (noun:inanim:n:v_naz) (noun:f:v_oru:&pron:pers:3) (noun:inanim:f:v_rod) (num) (num) (noun:anim:m:v_naz:xp1) (adj:f:v_rod) (noun:anim:f:v_rod:prop:fname) (noun) (conj) (num) (num) (adj:m:v_naz:compb) (noun:anim:m:v_naz) (noun) (conj) (num) (num) (conj:coord) (num) (num) (noun:anim:m:v_naz) (noun) (num) ",
    "timestamp": "2018-09-24T14:05:49Z"
  },
  {
    "id": 23624,
    "title": "Азовське козацьке військо",
    "text": "(noun:inanim:n:v_naz:prop:geo) (adj:n:v_naz) (noun:inanim:n:v_naz) (adj:n:v_naz) (noun:inanim:n:v_naz) (adj:n:v_naz:&adjp:pasv:perf) (adj:m:v_oru:compb) (noun:inanim:m:v_oru) (num) (noun) (conj) (noun) (adj:p:v_rod:compb) (noun:anim:p:v_rod) (adj:f:v_rod) (noun:inanim:f:v_rod) (conj:subord) (verb:rev:perf:past:p) (conj) (adj:p:v_rod) (noun:inanim:p:v_rod) (conj) (noun:inanim:f:v_oru) (conj:coord) (intj) (noun:inanim:n:v_mis) (noun:anim:m:v_rod) (noun:anim:m:v_rod:prop:fname) (noun:anim:m:v_rod:prop:lname) (adj:m:v_naz:&pron:int:rel:def) (verb:imperf:past:m) (noun:inanim:n:v_naz) (noun:inanim:n:v_naz:nv) (num) (noun) ",
    "timestamp": "2018-08-12T01:25:08Z"
  },
  {
    "id": 23625,
    "title": "Задунайська Січ",
    "text": "(adj:f:v_naz) (noun:inanim:f:v_naz) (adj) (noun:inanim:f:v_naz) (adv) (adj:f:v_naz) (noun:inanim:f:v_naz) (adj:p:v_rod) (adj:p:v_rod) (noun:anim:p:v_rod) (noun:anim:m:v_rod) (adj:f:v_naz:&adjp:actv:perf) (adv) (noun:inanim:n:v_naz) (adj:p:v_oru) (noun:inanim:p:v_oru) (noun:inanim:f:v_rod:prop:geo) (noun:inanim:f:v_rod) (conj:coord) (noun:inanim:f:v_rod) (adj:m:v_rod) (adj:m:v_rod) (noun:inanim:n:v_rod) (conj) (noun:inanim:m:v_mis) (num) (noun) (conj) (adj:m:v_naz) (noun:inanim:f:v_rod) (noun:inanim:m:v_rod:prop:geo) ",
    "timestamp": "2018-09-13T21:55:51Z"
  },
  {
    "id": 23626,
    "title": "Чорноморське козацьке військо",
    "text": "(noun:inanim:n:v_naz:prop:geo) (adj:n:v_naz) (noun:inanim:n:v_naz) (adj:n:v_naz) (adj:n:v_naz) (noun:inanim:n:v_naz) (conj) (noun:inanim:f:v_dav) (noun:inanim:f:v_rod) (num) (num) (noun:inanim:p:v_rod) ",
    "timestamp": "2018-06-02T07:36:01Z"
  },
  {
    "id": 23627,
    "title": "Кубанське козацьке військо",
    "text": "(noun:inanim:n:v_naz:prop:geo) (adj:n:v_naz) (noun:inanim:n:v_naz) (noun:inanim:f:v_naz) (noun:inanim:n:v_rod) (intj) (noun:inanim:f:v_dav) (noun:inanim:f:v_rod) (noun:inanim:f:v_rod) ",
    "timestamp": "2018-10-18T12:59:41Z"
  },
  {
    "id": 23628,
    "title": "Клейноди",
    "text": "(noun:inanim:p:v_naz) (noun:m:v_mis:&pron:pers:3) (noun) (noun:inanim:m:v_naz) (noun:inanim:f:v_naz) (noun:inanim:f:v_naz) (noun:inanim:p:v_naz) (conj:coord) (noun:inanim:p:v_naz) (adj:f:v_rod) (conj:coord) (adj:f:v_rod:compb) (noun:inanim:f:v_rod) (conj:coord) (adj:p:v_rod) (adj:p:v_rod) (conj:coord) (adj:p:v_rod:compb) (noun:inanim:p:v_rod) (conj) (noun) (conj) (num) (num) (noun:inanim:p:v_mis) ",
    "timestamp": "2018-09-25T17:21:25Z"
  },
  {
    "id": 23633,
    "title": "Анхель (водоспад)",
    "text": "(noun) (noun) (noun) (adj:m:v_naz:comps) (conj) (noun:inanim:m:v_mis) (noun:inanim:m:v_naz) (adj:m:v_naz:&adjp:pasv:perf) (intj) (noun:inanim:f:v_dav) (noun) (noun:inanim:f:v_dav) (noun) (conj) (adj:p:v_rod) (noun:inanim:p:v_mis) (noun:inanim:f:v_rod:prop:geo) (conj) (adj:m:v_dav) (noun:inanim:m:v_rod) (noun) (conj) (num) (intj) (adj:m:v_naz:compb) (noun:inanim:m:v_naz) (conj) (noun:inanim:m:v_rod:prop:geo) ",
    "timestamp": "2017-12-10T18:25:06Z"
  },
  {
    "id": 23637,
    "title": "Анчоус",
    "text": "(noun:inanim:m:v_naz) (noun) (noun:inanim:m:v_naz) (noun:anim:p:v_rod) (conj) (noun:inanim:f:v_rod) (adj:p:v_rod) (noun) ",
    "timestamp": "2018-01-13T17:20:19Z"
  },
  {
    "id": 23638,
    "title": "Анчоус європейський",
    "text": "(noun:inanim:m:v_naz) (adj:m:v_naz) (conj:coord) (noun:anim:f:v_naz) (noun) (noun) (adj:f:v_naz) (adj:f:v_naz) (noun:anim:f:v_naz) (noun:inanim:f:v_rod) (adj:p:v_rod) (noun) ",
    "timestamp": "2018-06-09T13:43:46Z"
  },
  {
    "id": 23639,
    "title": "Мірей Матьє",
    "text": "(noun) (noun:anim:m:v_naz:nv:np:prop:lname) (noun) (noun) (noun) (num) (noun:inanim:m:v_rod) (num) (noun:inanim:m:v_rod) (noun:inanim:f:v_naz) (noun:anim:f:v_naz) ",
    "timestamp": "2018-06-25T21:07:00Z"
  },
  {
    "id": 23641,
    "title": "Аншлюс",
    "text": "(noun:inanim:m:v_naz) (conj) (noun:m:v_mis:&pron:pers:3) (noun) (verb) (noun:inanim:n:v_naz) (noun:inanim:n:v_naz) (noun:inanim:f:v_naz) (noun:inanim:n:v_naz) (adj:f:v_rod) (noun:inanim:f:v_rod) (noun:inanim:n:v_naz:nv) (adj:f:v_rod) (noun:inanim:f:v_rod:prop:geo) (num) (num) (noun:inanim:m:v_rod) (num) (noun) ",
    "timestamp": "2018-07-23T11:28:27Z"
  },
  {
    "id": 23642,
    "title": "Арабо-ізраїльський конфлікт",
    "text": "(adj:m:v_naz) (noun:inanim:m:v_naz) (conj:coord) (adj:p:v_naz) (noun:inanim:f:v_rod) (noun:inanim:n:v_naz) (conj) (noun:inanim:f:v_oru) (adj:p:v_rod) (noun) (conj:coord) (adv:&insert) (adj:p:v_oru) (adj:p:v_oru:&adjp:pasv:imperf) (adj:p:v_oru:compb) (noun:inanim:p:v_oru) (conj:subord) (verb:rev:imperf:pres:p:3) (noun:inanim:f:v_oru) (adj:m:v_rod) (adj:m:v_rod) (noun) (adj:p:v_rod) (adj:p:v_rod:&adjp:pasv:perf) (noun:anim:m:v_oru:prop:fname) (adj:p:v_rod) (noun:inanim:p:v_rod) (conj) (adj:m:v_rod:&pron:dem:ind) (noun:inanim:m:v_rod) (conj:coord) (adj:m:v_oru) (noun:inanim:m:v_oru) (conj:coord) (adv:&pron:dem) (conj:coord) (noun:inanim:f:v_oru) (noun:anim:m:v_naz:prop:fname) (conj) (noun:n:v_rod:&pron:def) ",
    "timestamp": "2018-05-07T18:11:44Z"
  },
  {
    "id": 23643,
    "title": "Арктика",
    "text": "(noun:inanim:f:v_naz:prop:geo) (conj) (noun) (noun) (noun:anim:f:v_naz) (adj) (conj:subord) (verb:imperf:pres:s:3:xp1) (conj) (noun:inanim:n:v_oru) (adj:f:v_rod:compb) (noun:anim:f:v_rod) (adj:m:v_naz:compb) (adj:m:v_naz:compb) (adj:m:v_naz:compb) (noun:inanim:m:v_naz) (noun:inanim:f:v_rod:prop) (conj:subord) (verb:imperf:pres:s:3) (noun:inanim:f:v_rod) (noun:inanim:p:v_rod) (noun:inanim:f:v_rod:prop:geo) (conj:coord) (adj:f:v_rod:compb) (noun:inanim:f:v_rod:prop:geo) (adv) (adj:m:v_naz:&pron:gen) (adj:m:v_naz:compb) (adj:m:v_naz) (noun:inanim:m:v_naz) (conj) (noun:inanim:p:v_oru) (prep) (adj:p:v_rod) (noun:inanim:p:v_rod) (noun:inanim:f:v_rod:prop:geo) (conj:coord) (adv:&insert) (adj:p:v_naz) (noun) (adj:m:v_rod) (conj:coord) (noun:anim:m:v_rod:prop:lname) (noun:inanim:p:v_rod) ",
    "timestamp": "2018-03-05T19:18:00Z"
  },
  {
    "id": 23645,
    "title": "Фіалка триколірна",
    "text": "(noun:inanim:f:v_naz:prop:geo) (adj:f:v_naz) (noun) (noun) (adj:p:v_naz) (noun:inanim:f:v_rod) (noun:anim:m:v_naz) (conj:coord) (noun:anim:f:v_naz) (noun:anim:p:v_naz) (adj:p:v_naz) (noun:inanim:p:v_naz:ns) (adj:p:v_naz) (noun:inanim:p:v_naz) (noun:anim:m:v_naz:prop:fname) (conj:coord) (noun) (noun) (conj:coord) (adj:p:v_naz:&pron:def) ",
    "timestamp": "2018-04-21T09:08:56Z"
  },
  {
    "id": 23647,
    "title": "Аорта",
    "text": "(noun:inanim:f:v_naz) (noun) (noun) (adj:f:v_naz:compb) (noun:inanim:f:v_naz) (adj:f:v_rod) (noun:inanim:f:v_rod) (conj:subord) (verb:imperf:pres:s:3:&insert:xp1) (conj) (adj:m:v_rod:compb) (noun:inanim:m:v_rod) (noun:inanim:n:v_rod) ",
    "timestamp": "2018-03-29T20:14:21Z"
  },
  {
    "id": 23648,
    "title": "Апатозавр",
    "text": "(noun) (adj:m:v_naz:compb) (adj:m:v_naz) (noun:anim:m:v_naz) ",
    "timestamp": "2017-09-13T17:23:36Z"
  },
  {
    "id": 23649,
    "title": "Батурин",
    "text": "(noun:inanim:m:v_naz:prop:geo) (noun:inanim:n:v_naz) (adj:m:v_rod) (noun:inanim:m:v_rod) (adj:f:v_rod) (noun:inanim:f:v_rod) (intj) (noun:inanim:f:v_dav) (noun:inanim:m:v_naz:prop:geo) (noun:inanim:m:v_naz) (noun:inanim:m:v_rod:prop:geo) (conj) (num) (intj) (adj) (noun) (conj) (adj:f:v_rod) (noun:inanim:f:v_rod) (noun:anim:m:v_naz:prop:lname) (adj:m:v_naz) ",
    "timestamp": "2018-10-15T21:01:38Z"
  },
  {
    "id": 23650,
    "title": "Бузьке козацьке військо",
    "text": "(noun:inanim:n:v_naz:prop:geo) (adj:n:v_naz) (noun:inanim:n:v_naz) (adj:n:v_naz) (noun:inanim:n:v_naz) (intj) (noun:inanim:m:v_mis) (noun) (conj) (noun:inanim:f:v_dav) (noun:inanim:f:v_dav) (num) (intj) (noun:inanim:m:v_dav:xp1) (num) (noun:inanim:n:v_naz) ",
    "timestamp": "2018-08-06T10:17:07Z"
  },
  {
    "id": 23651,
    "title": "Булава",
    "text": "(noun:anim:m:v_naz:prop:lname) (conj) (adj) (noun) (noun:inanim:f:v_naz) (noun:inanim:f:v_naz) (adj:f:v_naz:compb) (noun:inanim:f:v_naz) (adv:compb) (adj:f:v_rod) (noun:inanim:f:v_rod) (conj:coord) (adv:&insert) (noun:inanim:m:v_naz) (noun:inanim:f:v_rod) (conj) (adj:p:v_rod:&pron:ind) (noun:inanim:p:v_mis) ",
    "timestamp": "2018-05-30T13:45:47Z"
  },
  {
    "id": 23654,
    "title": "Габрієль Марсель",
    "text": "(noun) (noun:anim:m:v_naz:nv:np:prop:fname) (noun:inanim:m:v_naz:prop:geo) (noun) (noun) (noun) (noun) (num) (noun:inanim:m:v_rod) (num) (noun:inanim:m:v_naz:prop:geo) (num) (noun:inanim:m:v_rod) (num) (noun:inanim:m:v_naz:prop:geo) (adj:m:v_naz) (noun:anim:m:v_naz) (noun:anim:m:v_naz) (conj:coord) (noun:anim:m:v_naz) ",
    "timestamp": "2018-09-18T09:07:51Z"
  },
  {
    "id": 23660,
    "title": "Громадський контроль (партія)",
    "text": "(noun:anim:m:v_naz:prop:lname) (noun:inanim:m:v_naz) (noun:inanim:f:v_naz) (adj:f:v_naz) (noun:inanim:f:v_naz) (conj:subord) (verb:perf:past:f) (conj) (num) (noun:inanim:n:v_naz:nv) (num) (noun) ",
    "timestamp": "2012-01-09T19:29:21Z"
  },
  {
    "id": 23661,
    "title": "Гринвіч",
    "text": "(noun:inanim:m:v_naz:prop:geo) (noun) (noun) (noun) (noun) (noun) (conj:coord) (noun) (adv:&pron:ind) (noun:inanim:n:v_naz) (conj) (adj:f:v_dav:compb) (noun:inanim:f:v_rod:prop:geo) (conj) (num:p:v_naz:&pron:ind) (noun:inanim:p:v_rod) (conj) (noun:anim:m:v_rod:prop:lname:xp1) (adv) (noun) (noun:inanim:f:v_dav:prop:geo) (conj:coord) (adv:&pron:dem) (noun:inanim:f:v_naz) (noun:anim:m:v_rod:prop:lname:xp1) ",
    "timestamp": "2018-08-08T17:43:48Z"
  },
  {
    "id": 23669,
    "title": "Пинтя Хоробрий",
    "text": "(noun:anim:m:v_naz:prop:fname) (adj:m:v_naz:compb) (noun) (noun) (adj) (adj:n:v_naz:compb) (noun:inanim:n:v_naz) (noun:anim:m:v_naz:prop:lname) (noun:anim:m:v_naz:prop:fname) (noun) (noun) (noun) (num) (adj:m:v_rod:compb) (num) (noun:inanim:f:v_naz:nv:abbr) (noun) (noun) (noun) (noun:inanim:m:v_naz) (noun) (noun) (num) (noun:inanim:m:v_rod) (num) (noun:anim:m:v_rod:prop:lname) (noun:anim:m:v_naz:nv:np:prop:lname) (noun) (noun:inanim:f:v_naz:prop:geo) (noun:anim:m:v_naz) (noun:inanim:m:v_rod) (noun:anim:p:v_rod) (noun:anim:p:v_rod) (adj:m:v_rod) (noun:inanim:n:v_naz) ",
    "timestamp": "2018-07-18T15:01:20Z"
  },
  {
    "id": 23676,
    "title": "Весліанський університет Огайо",
    "text": "(adj) (noun:inanim:m:v_naz) (noun) (noun) (adj) (noun) (adj:m:v_naz:&pron:dem:ind) (conj) (adj:p:v_rod:comps) (conj:coord) (adj:p:v_rod:comps) (noun:inanim:p:v_rod) (noun:inanim:p:v_naz:nv:ns:prop:geo) (verb:rev:imperf:pres:s:3) (conj) (noun:inanim:n:v_mis) (noun:inanim:m:v_dav:prop:geo) (conj) (noun:inanim:n:v_mis) (noun:inanim:m:v_naz:prop:geo) (noun:inanim:m:v_naz) (noun:inanim:m:v_naz:nv:np:prop:geo) ",
    "timestamp": "2017-03-12T17:01:36Z"
  },
  {
    "id": 23680,
    "title": "Андрій Юрійович",
    "text": "(noun:anim:m:v_naz:prop:fname) (noun:anim:m:v_naz:prop:pname) (verb) (noun:inanim:n:v_naz:nv) (num) (noun:inanim:m:v_rod) (num) (noun:anim:m:v_naz) (noun:inanim:n:v_rod) (noun:inanim:f:v_rod:prop:geo) (noun:anim:m:v_naz:prop:lname) (noun:anim:m:v_naz) (conj) (num) (conj:coord) (conj) (num) (noun:inanim:n:v_naz:nv) (num) ",
    "timestamp": "2018-09-30T13:09:13Z"
  },
  {
    "id": 23682,
    "title": "Султан",
    "text": "(noun:anim:m:v_naz:xp1) (noun:anim:m:v_naz) (num) (adj:m:v_naz) (noun:inanim:m:v_naz) (conj:subord) (verb:imperf:pres:s:3) (adj:n:v_naz:compb) (noun:inanim:n:v_naz) (conj:coord) (adj:f:v_zna:compb) (noun:inanim:f:v_zna) (conj:subord) (noun:inanim:f:v_naz) (noun:anim:m:v_rod) (adj:f:v_naz:rare) (adj:f:v_naz:&adjp:pasv:perf) (conj) (noun:inanim:m:v_mis:prop) ",
    "timestamp": "2018-07-16T18:06:07Z"
  },
  {
    "id": 23683,
    "title": "Абдул-Гамід I",
    "text": "(noun) (noun:anim:m:v_naz:prop:fname) (num) (noun:anim:m:v_naz) (noun) (noun) (noun) (noun:anim:m:v_naz:xp1) (num) (noun) (num) (noun:inanim:m:v_rod) (num) (num) (noun:inanim:m:v_rod) (num) (adj:m:v_naz) (adj:m:v_naz) (conj:coord) (adj:m:v_naz) (noun:anim:m:v_naz) (adj:m:v_rod) (noun:inanim:n:v_naz) (noun:anim:m:v_naz:xp1) (adj:f:v_rod) (noun:inanim:f:v_rod) (num) (num) (conj) (noun:inanim:f:v_rod) (noun:anim:p:v_rod:prop:fname) ",
    "timestamp": "2018-02-07T13:44:20Z"
  },
  {
    "id": 23686,
    "title": "Абрамович Дмитро Іванович",
    "text": "(noun:anim:m:v_naz:prop:fname) (noun:anim:f:v_naz:nv:np:prop:lname) (noun:anim:m:v_naz:prop:lname) (num) (noun:inanim:m:v_rod) (num) (noun:inanim:m:v_rod) (num) (num) (noun:inanim:m:v_rod) (num) (noun:inanim:m:v_naz:prop:geo) (adj:m:v_naz:compb) (noun:anim:m:v_naz) (noun:inanim:f:v_rod) (conj:coord) (noun:inanim:f:v_rod) ",
    "timestamp": "2017-08-07T12:04:17Z"
  },
  {
    "id": 23687,
    "title": "Авари",
    "text": "(noun:anim:p:v_naz) (conj:coord) (noun) (noun) (noun) (noun) (noun:inanim:m:v_naz) (noun) (adj) (noun) (adj:m:v_naz:compb) (adj:m:v_naz) (noun:inanim:m:v_naz) (conj) (adj:m:v_dav:&pron:int:rel:def) (adj:f:v_zna:compb) (noun:inanim:f:v_naz) (verb:imperf:past:p) (adj:p:v_naz) (noun:inanim:p:v_naz) ",
    "timestamp": "2018-06-19T12:41:09Z"
  },
  {
    "id": 23688,
    "title": "Август II Фрідріх",
    "text": "(noun:anim:m:v_naz:prop:fname) (num) (noun:anim:m:v_naz:prop:fname) (adv:&insert) (noun:anim:m:v_naz:prop:fname) (num) (adj:m:v_naz:compb) (noun:m:v_mis:&pron:pers:3) (noun) (num) (adj) (noun) (noun) (num) (num) (noun:inanim:m:v_rod) (num) (num) (noun:inanim:m:v_rod) (num) (noun:anim:m:v_naz) (noun:inanim:f:v_rod) (adj:f:v_rod) (num) (num) (num) (num) (noun:anim:m:v_naz) (noun:inanim:f:v_rod:prop:geo) (noun:anim:m:v_naz:prop:fname) (noun:anim:m:v_naz:prop:fname) (num) (conj) (num) ",
    "timestamp": "2018-06-28T21:52:52Z"
  },
  {
    "id": 23690,
    "title": "Август III Фрідріх",
    "text": "(noun:anim:m:v_naz:prop:fname) (num) (noun:anim:m:v_naz:prop:fname) (num) (noun:inanim:m:v_rod) (num) (num) (noun:inanim:m:v_rod) (num) (noun:anim:m:v_naz) (noun:inanim:f:v_rod:prop:geo) (conj:coord) (noun:anim:m:v_naz) (noun) (adj:m:v_naz:compb) (noun:anim:m:v_naz) (adj:m:v_naz) (conj:coord) (adj:m:v_naz) (num) (num) (noun:anim:m:v_naz) (conj:coord) (noun:anim:m:v_naz) (noun:anim:m:v_rod:prop:fname) (num) (noun:inanim:n:v_rod:prop:geo) ",
    "timestamp": "2018-07-04T13:19:09Z"
  },
  {
    "id": 23691,
    "title": "Белліні (родина)",
    "text": "(noun:anim:m:v_naz:nv:np:prop:lname) (noun:inanim:f:v_naz) (adj:p:v_rod) (noun:anim:p:v_rod) (noun:inanim:f:v_rod) (noun:inanim:n:v_naz:prop:geo) (noun:anim:p:v_naz) (adj:f:v_rod) (noun:inanim:f:v_rod) ",
    "timestamp": "2017-10-18T14:26:32Z"
  },
  {
    "id": 23705,
    "title": "Хіґурасі Каґоме",
    "text": "(noun:anim:m:v_rod) (intj) (noun:anim:s:v_naz:&pron:pers:1) (noun) (adj:f:v_naz:compb) (noun:inanim:f:v_naz) (noun) ",
    "timestamp": "2016-05-04T05:19:40Z"
  },
  {
    "id": 23706,
    "title": "Августинці",
    "text": "(noun:anim:m:v_mis) (noun) (conj:coord) (noun) (noun:inanim:m:v_naz:xp1) (noun:inanim:m:v_naz) (noun) (adj:n:v_naz) (noun:inanim:n:v_naz) (noun:anim:p:v_rod:xp1) (num:p:v_rod:&pron:ind) (adj:p:v_rod) (noun:inanim:p:v_rod:xp1) (conj:coord) (noun:inanim:p:v_rod) (adj:f:v_rod) (noun:inanim:f:v_rod) (adj:p:v_naz:&pron:int:rel:def) (verb:rev:imperf:pres:p:3) (noun:inanim:m:v_oru) (adj:m:v_rod:compb) (adj:f:v_naz) (conj:subord) (verb:imperf:past:m) (adj:m:v_naz:&adjp:pasv:perf) (prep) (adv:compb) (noun:inanim:p:v_rod) (adv) (noun:inanim:f:v_rod) (adj) (adj:f:v_naz) (num) (conj:coord) (verb:rev:imperf:past:m) (noun:inanim:n:v_oru) (adj:p:v_naz:&pron:int:rel:def) (verb:imperf:past:p) (verb:imperf:inf) (conj) (noun:inanim:p:v_oru) (adj:m:v_oru:compb) (noun:inanim:n:v_naz:nv) (adj:p:v_rod) ",
    "timestamp": "2018-10-04T08:23:11Z"
  },
  {
    "id": 23707,
    "title": "Александру Авереску",
    "text": "(noun:anim:m:v_dav:prop:fname) (noun) (noun) (noun) (noun) (num) (noun:inanim:m:v_rod) (num) (num) (noun:inanim:m:v_rod) (num) (adj:m:v_naz) (adj:m:v_naz) (conj:coord) (adj:m:v_naz) (noun:anim:m:v_naz) (noun:anim:m:v_naz) (noun:inanim:f:v_rod:prop:geo) (conj) (num) ",
    "timestamp": "2018-09-29T06:18:05Z"
  },
  {
    "id": 23708,
    "title": "Аверкій (Кедров)",
    "text": "(noun:anim:m:v_naz:prop:fname) (adj:n:v_naz:compb) (noun:inanim:n:v_naz) (conj:coord) (noun:inanim:n:v_naz) (noun:anim:m:v_naz:prop:fname) (noun:anim:f:v_naz:nv:np:prop:lname) (noun) (num) (noun:inanim:m:v_rod) (num) (noun) (num) (noun:inanim:m:v_rod:xp1) (num) (noun:inanim:m:v_naz) (noun:inanim:m:v_naz:prop:abbr) (noun) (adj:m:v_naz:compb) (adj:m:v_naz:compb) (noun:anim:m:v_naz) (adj:m:v_rod:compb) (noun:inanim:n:v_naz) ",
    "timestamp": "2018-09-09T03:56:53Z"
  },
  {
    "id": 23709,
    "title": "Авратинський Степан",
    "text": "(adj:m:v_naz) (noun:anim:m:v_naz:prop:fname) (adv:&insert:&predic) (noun) (prep) (noun:inanim:m:v_naz) (num) (adj:m:v_naz) (noun:anim:m:v_naz) ",
    "timestamp": "2017-01-12T11:54:50Z"
  },
  {
    "id": 23711,
    "title": "Австрорусинство",
    "text": "(noun) (noun:inanim:f:v_naz) (noun:inanim:p:v_rod) (adj:p:v_naz:&pron:int:rel:def) (verb:imperf:past:p) (noun:inanim:n:v_naz) (noun:inanim:n:v_naz) (noun:inanim:f:v_rod) (noun:inanim:f:v_rod) (conj:coord) (noun:inanim:n:v_rod) (noun:inanim:f:v_rod:prop:geo) (noun:inanim:n:v_naz:nv) (adj:m:v_rod) (noun:inanim:m:v_dav:xp1) (conj:coord) (adj:f:v_rod) (noun:inanim:f:v_rod) (noun:inanim:m:v_oru) ",
    "timestamp": "2016-12-07T19:01:02Z"
  },
  {
    "id": 23715,
    "title": "Прем'єр-міністри Бельгії",
    "text": "(noun:anim:m:v_naz) (noun:anim:m:v_naz) (noun:inanim:f:v_rod:prop:geo) (noun:anim:m:v_naz:xp1) (noun:inanim:m:v_rod) (noun:inanim:n:v_rod) (noun:inanim:f:v_naz:prop:geo) ",
    "timestamp": "2016-11-23T18:39:27Z"
  },
  {
    "id": 23716,
    "title": "Агапіт (Вишневський)",
    "text": "(noun:anim:m:v_naz:prop:fname) (noun:anim:m:v_naz:prop:lname) (adj:n:v_naz:compb) (noun:inanim:n:v_naz) (noun:anim:m:v_naz:prop:fname) (noun:anim:m:v_naz:prop:pname) (noun:anim:m:v_naz:prop:lname) (num) (num) (noun:inanim:m:v_rod) (num) (noun:inanim:f:v_naz:prop:geo) (num) (noun:inanim:m:v_naz:nv:abbr) (noun:inanim:m:v_naz:prop:geo) (adv) (noun:inanim:m:v_naz:prop:geo) (adj:m:v_naz:compb) (adj:m:v_naz) (adj:m:v_naz) (noun:anim:m:v_naz) (noun:anim:m:v_naz) (adj:m:v_naz) (conj:coord) (adj:m:v_naz) (noun:anim:m:v_naz:xp1) (adj:f:v_rod) (noun:anim:f:v_rod) (noun:anim:f:v_rod:prop:lname) (noun:anim:f:v_rod:prop:fname) (adj:m:v_naz:&pron:dem:ind) (conj) (noun:anim:p:v_rod) (noun:inanim:n:v_naz) (noun:inanim:f:v_naz:nv:np:prop:abbr) ",
    "timestamp": "2018-09-06T15:36:35Z"
  },
  {
    "id": 23718,
    "title": "Адальберт Магдебурзький",
    "text": "(noun:anim:m:v_naz:prop:fname) (noun:inanim:m:v_naz) (noun) (noun:m:v_mis:&pron:pers:3) (noun) (adv:compb) (num) (num) (noun:inanim:m:v_rod) (num) (adj:m:v_naz) (noun:anim:m:v_naz) (noun:anim:m:v_naz) (adj:m:v_naz) (noun:anim:m:v_naz) (noun:anim:m:v_naz) (adj:m:v_naz:compb) ",
    "timestamp": "2018-09-13T04:11:15Z"
  },
  {
    "id": 23723,
    "title": "Око",
    "text": "(noun:inanim:n:v_naz) (noun:inanim:m:v_naz) (noun) (adj:m:v_naz) (adj:m:v_naz) (noun:inanim:m:v_naz:xp1) (noun:inanim:m:v_naz:xp1) (adj:f:v_rod) (noun:inanim:f:v_rod) (noun:anim:f:v_rod) (conj:coord) (noun:anim:p:v_rod:xp1) (conj:subord) (verb:imperf:pres:s:3) (noun:inanim:f:v_oru) (verb:imperf:inf) (adj:n:v_naz) (noun:inanim:n:v_naz) (conj) (adj:m:v_dav:compb) (noun:inanim:m:v_mis) (noun:inanim:p:v_rod) (noun:inanim:p:v_rod) (conj:coord) (verb:imperf:pres:s:3) (noun:inanim:f:v_zna) (noun:inanim:m:v_rod) ",
    "timestamp": "2018-04-07T14:54:00Z"
  },
  {
    "id": 23725,
    "title": "Ернан Кортес",
    "text": "(noun:anim:m:v_naz:nv:np:prop:fname) (noun:anim:m:v_naz:prop:lname) (adv:&pron:int:rel) (noun) (conj:coord) (noun:anim:m:v_naz:nv:np:prop:lname) (noun) (noun) (noun) (noun) (noun) (conj) (noun) (noun) (adv:compc) (adj:m:v_naz:compb) (part) (noun:anim:m:v_naz:nv:np:prop:fname) (noun) (noun:anim:m:v_naz:prop:lname) (conj:coord) (noun) (noun:anim:m:v_naz:prop:lname) (noun) (noun) (noun) (num) (num) (adj:m:v_naz) (noun:anim:m:v_naz) (conj:subord) (verb:perf:past:m) (noun:inanim:f:v_zna:prop:geo) (conj:coord) (verb:perf:past:m) (noun:inanim:f:v_zna) (noun:anim:p:v_rod) ",
    "timestamp": "2018-06-29T11:27:51Z"
  },
  {
    "id": 23731,
    "title": "Гонконг",
    "text": "(adj:m:v_naz:compb) (adj:m:v_naz) (noun:inanim:m:v_naz) (noun:inanim:m:v_naz:prop:geo) (noun:inanim:m:v_naz:prop:geo:xp1) (noun:anim:m:v_naz:xp1) (adj) (noun) (adj) (noun) (noun) (noun) (noun) (noun) (noun) (noun) (noun) (noun) (noun) (noun) (adj) (adj) (noun) (noun:inanim:m:v_naz) (noun) (noun) (noun) (conj:coord) (verb:perf:impers) (noun:inanim:m:v_naz:prop:geo) (noun:anim:m:v_naz:xp1) (noun) (noun) (noun:inanim:m:v_naz) (noun:inanim:p:v_rod:ns) (adj:m:v_naz:compb) (adj:m:v_naz) (noun:inanim:m:v_naz) (adj:f:v_rod) (adj:f:v_rod:compb) (noun:inanim:f:v_rod:prop:geo) (adj:f:v_naz) (adj:f:v_naz) (noun:inanim:f:v_naz) (intj) (adj:m:v_dav:compb) (noun:inanim:m:v_mis) (noun:inanim:m:v_rod:prop:geo) (conj) (adj) (adj:m:v_dav) (noun:inanim:m:v_mis) ",
    "timestamp": "2018-09-18T16:04:14Z"
  },
  {
    "id": 23737,
    "title": "Шкуратівка",
    "text": "(noun:inanim:f:v_naz:prop:geo) (noun:inanim:n:v_naz) (conj) (noun) (conj) (adj:m:v_dav) (noun:inanim:m:v_mis) (noun:anim:f:v_rod:prop:lname) (noun:inanim:f:v_rod) ",
    "timestamp": "2017-03-06T15:22:55Z"
  },
  {
    "id": 23739,
    "title": "Грецька мова",
    "text": "(adj:f:v_naz) (noun:inanim:f:v_naz) (adv:compc) (noun:inanim:f:v_naz) (noun) (noun) (noun:inanim:p:v_rod) (noun) (adj:f:v_naz:&pron:dem:ind) (conj) (adj:p:v_rod) (conj:subord) (adj:f:v_naz:compb:&&adjp:pasv:perf) (conj) (noun) (num) (num) (intj) (noun:inanim:m:v_mis:prop:geo) (num) (num) (conj:coord) (adv:&insert) (conj) (noun:inanim:f:v_rod:prop:geo) (noun:inanim:m:v_mis:prop:geo) (noun:inanim:f:v_rod:prop:geo) (conj:coord) (conj) (noun) ",
    "timestamp": "2018-09-02T10:45:46Z"
  },
  {
    "id": 23755,
    "title": "Волочиськ",
    "text": "(noun:inanim:m:v_naz:prop:geo) (noun:inanim:n:v_naz) (conj) (noun) (noun:inanim:m:v_naz:xp1) (adj:f:v_rod) (adj:f:v_rod) (noun:inanim:f:v_rod) (conj:coord) (adj:m:v_rod) (noun:inanim:m:v_rod) (noun:anim:f:v_rod:prop:lname:xp1) (noun:inanim:f:v_rod) ",
    "timestamp": "2018-09-20T09:35:27Z"
  },
  {
    "id": 23758,
    "title": "Пора!",
    "text": "(noun:inanim:f:v_naz:xp1) (noun:inanim:f:v_naz) (num:p:v_rod) (adj:p:v_rod) (noun:inanim:p:v_rod) (conj:subord) (verb:imperf:past:p) (conj) (noun) ",
    "timestamp": "2017-04-06T11:01:29Z"
  },
  {
    "id": 23774,
    "title": "Понтифік",
    "text": "(noun:anim:m:v_naz) (conj) (noun:inanim:m:v_naz) (noun) (noun:anim:m:v_naz) (noun:inanim:p:v_rod) (noun:inanim:m:v_naz) (noun:anim:m:v_rod:xp1) (adj:f:v_rod) (noun:inanim:f:v_rod:prop:geo) ",
    "timestamp": "2015-05-19T11:41:30Z"
  },
  {
    "id": 23775,
    "title": "Жовква",
    "text": "(noun:inanim:f:v_naz:prop:geo) (noun:m:v_mis:&pron:pers:3) (noun) (noun) (noun) (conj) (num) (num) (noun:anim:m:v_naz:prop:lname) (noun:inanim:n:v_naz) (adj:m:v_rod) (noun:inanim:n:v_naz) (adj:m:v_rod) (noun:inanim:m:v_rod) (adj:f:v_dav) (noun:inanim:f:v_rod) (adj:m:v_naz) (noun:inanim:m:v_naz:xp1) ",
    "timestamp": "2018-08-27T10:24:04Z"
  },
  {
    "id": 23778,
    "title": "Стагфляція",
    "text": "(noun:inanim:f:v_naz) (noun:inanim:m:v_naz:xp1) (conj:subord) (verb:rev:imperf:pres:s:3) (conj) (noun:inanim:n:v_naz) (adj:m:v_rod:compb) (noun:inanim:m:v_dav:xp1) (noun:inanim:f:v_rod) (verb:imperf:impr:s:2) (adj:m:v_dav:&pron:int:rel:def) (noun:inanim:f:v_naz) (conj) (noun:inanim:n:v_mis) (verb:rev:imperf:pres:s:3) (adv) (conj) (noun:inanim:f:v_oru) ",
    "timestamp": "2018-07-11T08:31:03Z"
  },
  {
    "id": 23788,
    "title": "Довідка:Простір назв",
    "text": "(noun:inanim:m:v_naz) (noun:inanim:p:v_rod) (noun) (noun) (noun) (noun) (adj:m:v_naz) (noun:inanim:m:v_naz) (conj) (noun:inanim:n:v_naz) (adj:p:v_rod) (noun:inanim:p:v_rod) (conj) (noun:inanim:p:v_mis) (noun) (conj) (noun:p:v_rod:&pron:pers:3) (noun:inanim:n:v_oru) (adj:p:v_rod) (adj:p:v_rod) (adj:p:v_rod) (part) ",
    "timestamp": "2017-09-08T14:51:11Z"
  },
  {
    "id": 23794,
    "title": "Заїр",
    "text": "(noun:inanim:f:v_naz:prop:geo) (noun:inanim:m:v_naz:prop:geo) (noun) (noun) (noun) (noun:inanim:f:v_naz) (noun:anim:m:v_rod) (verb:imperf:past:f) (intj) (noun:inanim:f:v_rod) (adj:f:v_rod:compb) (noun:inanim:f:v_rod:prop:geo) (noun:inanim:f:v_naz:nv:np:prop:geo:xp1) (conj) (num) (noun:inanim:m:v_rod) (num) (num) (noun:inanim:m:v_rod) (num) (noun) ",
    "timestamp": "2017-09-29T22:22:57Z"
  },
  {
    "id": 23796,
    "title": "Журавський Віталій Станіславович",
    "text": "(noun:anim:m:v_naz:prop:lname) (noun:anim:m:v_naz:prop:fname) (noun:anim:m:v_naz:prop:pname:xp1) (noun:inanim:p:v_rod:ns) (num) (noun:inanim:m:v_rod) (num) (noun:inanim:m:v_naz:nv:abbr) (noun:inanim:m:v_naz:prop:geo) (adj:f:v_naz) (noun:inanim:f:v_naz) (adj:m:v_naz:compb) (noun:anim:m:v_naz) (noun:anim:m:v_naz) (adj:p:v_rod) (noun:inanim:p:v_rod) (noun:anim:m:v_naz) (adj:p:v_rod:compb) (noun:inanim:p:v_rod) (noun:anim:m:v_naz) (noun:anim:m:v_naz) (adj:f:v_rod) (noun:inanim:f:v_rod) (adj:p:v_rod) (noun:inanim:p:v_rod) (noun) (noun:anim:m:v_naz) (noun:anim:f:v_rod:prop:lname) (noun:inanim:f:v_rod) (adj:p:v_rod) (noun:inanim:p:v_rod) (noun:anim:m:v_naz:xp1) (noun:inanim:f:v_rod) (noun:anim:p:v_rod) (noun) (noun:anim:m:v_naz:xp1) (adj:f:v_rod) (noun:inanim:f:v_rod) (noun:anim:p:v_rod) (noun) (adj:m:v_naz:&adjp:pasv:perf:compb) (noun:anim:m:v_naz) (noun:inanim:f:v_rod) (conj:coord) (noun:anim:p:v_naz) (noun) (adj:m:v_naz:compb) (noun:anim:m:v_naz) (noun) (num) (num) (conj:coord) (num) (noun:inanim:p:v_rod) ",
    "timestamp": "2017-11-12T17:06:51Z"
  },
  {
    "id": 23797,
    "title": "Мистецтво",
    "text": "(noun) (adj:f:v_naz:&pron:dem:ind) (conj) (noun:inanim:p:v_rod) (adj:f:v_rod) (noun:inanim:f:v_rod) (noun:inanim:m:v_naz) (adj:f:v_rod) (noun:inanim:f:v_rod) (conj:subord) (verb:imperf:pres:s:3) (noun:inanim:f:v_naz) (conj) (adv:compb) (adj:p:v_rod:compb) (noun:inanim:p:v_mis:xp1) (adv:compb) (noun:inanim:n:v_naz:nv) (adj:p:v_rod:compb) (adj:p:v_rod:compb) (noun:inanim:p:v_rod) ",
    "timestamp": "2018-09-28T18:23:28Z"
  },
  {
    "id": 23798,
    "title": "Всеукраїнське об'єднання «Черкащани»",
    "text": "(adj:n:v_naz) (noun:inanim:n:v_naz) (noun:inanim:p:v_naz:prop:geo:ns) (noun:inanim:f:v_naz) (adj:f:v_naz) (noun:inanim:f:v_naz) ",
    "timestamp": "2018-06-27T10:57:48Z"
  },
  {
    "id": 23804,
    "title": "Яреськи",
    "text": "(noun:inanim:p:v_naz:prop:geo:ns) (noun:inanim:n:v_naz) (noun:inanim:n:v_rod:prop:geo) (noun:inanim:m:v_rod) (noun:anim:f:v_rod:prop:lname) (noun:inanim:f:v_rod) ",
    "timestamp": "2018-09-17T21:02:51Z"
  },
  {
    "id": 23806,
    "title": "Медобори",
    "text": "(noun) (adj:p:v_naz) (noun:inanim:p:v_naz:prop:geo:ns) (adv:compb) (adj:p:v_naz:&adjp:pasv:perf) (adj:p:v_naz) (noun:inanim:m:v_dav) (noun:inanim:n:v_rod) ",
    "timestamp": "2018-05-22T21:15:02Z"
  },
  {
    "id": 23816,
    "title": "Сабадиш Петро Євлампійович",
    "text": "(noun:anim:f:v_kly:prop:fname) (noun:anim:m:v_naz:prop:pname) (num) (noun:inanim:m:v_rod) (num) (num) (noun:inanim:m:v_rod) (num) (noun:inanim:n:v_naz) (noun:inanim:m:v_naz:prop:geo) (adv) (noun:inanim:n:v_naz:prop:geo) (num) (noun:inanim:m:v_rod) (num) (noun:inanim:m:v_naz:prop:geo) (adj:m:v_naz:compb) (noun:anim:m:v_naz) ",
    "timestamp": "2014-07-24T04:50:55Z"
  },
  {
    "id": 23817,
    "title": "Сабалдир Григорій Олексійович",
    "text": "(noun:anim:m:v_naz:prop:fname) (noun:anim:m:v_naz:prop:pname) (noun) (num) (noun:inanim:m:v_rod) (num) (noun:inanim:m:v_rod) (num) (noun:inanim:m:v_rod:prop:geo) (noun:inanim:f:v_naz:prop:geo) (num) (noun:inanim:m:v_rod) (num) (noun:inanim:m:v_naz:prop:geo) (adj:m:v_naz:compb) (noun:anim:m:v_naz) (noun) (conj:coord) (noun:anim:m:v_naz) ",
    "timestamp": "2018-03-18T10:26:08Z"
  },
  {
    "id": 23818,
    "title": "Сабалдир Павло Олексійович",
    "text": "(noun:anim:f:v_kly:prop:fname) (noun:anim:m:v_naz:prop:pname) (noun) (adj:m:v_naz) (noun:inanim:n:v_naz:coll) (noun:anim:f:v_kly:prop:fname) (adj:m:v_naz) (num) (num) (adj:m:v_naz:compb) (noun:anim:m:v_naz) (noun:anim:m:v_naz) (conj:coord) (noun:anim:m:v_naz) ",
    "timestamp": "2017-08-07T12:06:56Z"
  },
  {
    "id": 23819,
    "title": "Сабанєєв Іван Федорович",
    "text": "(noun:anim:m:v_naz:prop:fname) (noun:anim:m:v_naz:prop:lname) (noun) (num) (num) (noun:inanim:m:v_rod) (num) (noun:inanim:f:v_naz:prop:geo) (num) (num) (num) (noun:inanim:f:v_naz:prop:geo) (noun:anim:m:v_naz) (adj:m:v_naz:&pron:dem:ind) (conj) (noun:anim:p:v_rod) (adj:f:v_rod) (adj:f:v_rod) (noun:inanim:f:v_rod) ",
    "timestamp": "2018-06-18T23:34:39Z"
  },
  {
    "id": 23821,
    "title": "Сабат Микола",
    "text": "(noun:anim:m:v_naz:prop:fname) (noun:anim:m:v_naz:prop:lname) (noun) (noun:anim:m:v_naz:prop:lname) (num) (noun:inanim:m:v_rod) (num) (noun:inanim:m:v_naz:prop:geo) (num) (noun:inanim:m:v_rod) (num) (adj:m:v_naz:compb) (adj:m:v_naz) (noun:anim:m:v_naz) (adj:m:v_naz:compb) (noun:anim:m:v_naz) ",
    "timestamp": "2018-01-21T10:02:24Z"
  },
  {
    "id": 23822,
    "title": "Сабат-Свірська Марія Володимирівна",
    "text": "(noun) (noun:anim:f:v_naz:prop:pname:xp1) (noun:anim:m:v_naz:prop:lname) (noun:anim:f:v_naz:prop:lname) (num) (noun:inanim:m:v_rod) (num) (noun:inanim:f:v_naz:prop:geo) (adv:&pron:dem) (adj:m:v_rod) (noun:inanim:m:v_rod) (noun:inanim:m:v_rod:prop:geo) (adj:f:v_rod) (noun:inanim:f:v_rod) (num) (noun:inanim:m:v_rod) (num) (noun:inanim:n:v_naz:prop:geo) (adj:f:v_naz) (conj:coord) (adj:f:v_naz:compb) (noun:anim:f:v_naz) (adj:n:v_naz:compb) (noun:anim:f:v_naz:nv:xp1) ",
    "timestamp": "2018-01-17T14:48:24Z"
  },
  {
    "id": 23825,
    "title": "Сабін-Гус Юрій Давидович",
    "text": "(noun) (noun:anim:m:v_naz:prop:lname) (noun:anim:p:v_rod:prop:fname) (noun:anim:m:v_naz:prop:lname) (noun) (num) (noun:inanim:m:v_rod) (num) (noun:inanim:n:v_naz:nv:np:prop:geo) (num) (noun:inanim:m:v_rod) (num) (noun:inanim:m:v_naz:prop:geo) (adj:m:v_naz) (noun:anim:m:v_naz) (noun:inanim:m:v_naz) (adj:m:v_naz:compb) (noun:anim:m:v_naz) (noun:inanim:f:v_naz:nv:np:prop:abbr) (conj) (num) (noun) ",
    "timestamp": "2018-03-11T15:50:26Z"
  },
  {
    "id": 23826,
    "title": "Сабінін Лев Родіонович",
    "text": "(noun:anim:m:v_naz:prop:fname) (noun:anim:m:v_naz:prop:pname) (noun) (adj:n:v_naz:compb) (noun:inanim:n:v_naz) (noun) (num) (noun:inanim:m:v_rod:xp1) (num) (noun:inanim:f:v_naz:prop:geo) (num) (noun:inanim:m:v_rod) (num) (noun:inanim:f:v_naz:prop:geo) (noun:anim:m:v_naz) (noun:anim:m:v_naz) (conj:coord) (adj:m:v_naz:compb) (noun:anim:m:v_naz) (adj:m:v_naz:&adjp:pasv:perf:compb) (noun:anim:m:v_naz) (noun:inanim:f:v_naz:nv:np:prop:abbr) (conj) (num) (noun) ",
    "timestamp": "2018-06-19T12:44:20Z"
  },
  {
    "id": 23827,
    "title": "Саблучок Іван Семенович",
    "text": "(noun:anim:m:v_naz:prop:fname) (noun:anim:m:v_naz:prop:lname) (noun) (noun) (num) (num) (noun:anim:m:v_naz) (noun:anim:m:v_naz) (conj:coord) (noun:anim:m:v_naz) ",
    "timestamp": "2018-06-07T15:45:48Z"
  },
  {
    "id": 23828,
    "title": "Сабов Євменій Іванович",
    "text": "(noun) (noun:anim:m:v_naz:prop:lname) (num) (noun:inanim:m:v_rod) (num) (noun:inanim:m:v_naz:prop:geo) (adv:&pron:dem) (adj:m:v_rod) (noun:inanim:m:v_rod) (intj) (noun:inanim:n:v_mis:prop:geo) (num) (noun:inanim:m:v_rod:xp1) (num) (noun:inanim:m:v_naz:nv:abbr) (noun) (adv:&pron:dem) (adj:f:v_rod) (noun:inanim:f:v_rod) (adj:m:v_naz) (noun:anim:m:v_naz) (conj:coord) (adj:m:v_naz) (noun:anim:m:v_naz) (intj) (noun:inanim:n:v_mis:prop:geo) ",
    "timestamp": "2018-08-07T10:24:54Z"
  },
  {
    "id": 23829,
    "title": "Сабов Кирило Антонович",
    "text": "(noun:anim:m:v_naz:prop:fname) (noun:anim:m:v_naz:prop:lname) (noun:anim:m:v_naz:prop:lname) (num) (num) (adj:m:v_naz) (noun:anim:m:v_naz) (noun:anim:m:v_naz) (noun:anim:m:v_naz) (conj:coord) (noun:anim:m:v_naz) (adj:f:v_rod) (noun:inanim:f:v_rod) ",
    "timestamp": "2018-10-14T10:22:27Z"
  },
  {
    "id": 23830,
    "title": "Ніль (Саварин)",
    "text": "(noun) (noun) (noun:anim:m:v_naz:prop:lname) (num) (noun:inanim:m:v_rod) (num) (adj:m:v_naz:compb) (noun:inanim:m:v_naz:prop:geo) (noun:inanim:f:v_naz:prop:geo) (num) (noun:inanim:m:v_rod) (num) (noun:inanim:m:v_naz:prop:geo) (noun:inanim:f:v_naz:prop:geo) (adj:m:v_naz) (noun:anim:m:v_naz) (noun:anim:m:v_naz) (noun:anim:m:v_naz) (noun:anim:f:v_rod:prop:lname) (adj:f:v_rod) (noun:inanim:f:v_rod) (conj) (noun:inanim:f:v_dav:prop:geo) (adj:m:v_naz) (noun:anim:m:v_naz:xp1) (noun:inanim:n:v_naz:nv:prop:abbr) (conj) (num) ",
    "timestamp": "2018-09-04T10:46:30Z"
  },
  {
    "id": 23831,
    "title": "Петро Саварин",
    "text": "(noun:anim:f:v_kly:prop:fname) (noun:anim:m:v_naz:prop:lname) (num) (noun:inanim:m:v_rod) (num) (noun:inanim:f:v_naz:nv:abbr) (noun:inanim:m:v_naz:prop:geo) (noun:anim:m:v_rod:prop:lname) (noun:inanim:m:v_rod) (num) (noun:inanim:m:v_rod) (num) (noun:inanim:m:v_naz:prop:geo) (adj:m:v_naz:compb) (noun:anim:m:v_naz) (noun:anim:m:v_naz) (adj:m:v_naz) (noun:anim:m:v_naz) ",
    "timestamp": "2018-09-04T08:02:01Z"
  },
  {
    "id": 23832,
    "title": "Саватій (Брабец)",
    "text": "(noun:anim:m:v_naz) (noun:anim:m:v_naz:prop:fname) (conj) (noun:inanim:m:v_rod) (noun:anim:m:v_naz:prop:fname) (noun:anim:m:v_naz:prop:fname) (noun) (conj:coord) (noun) (num) (adj:m:v_rod:compb) (num) (adj:m:v_naz) (noun) (num) (noun:inanim:m:v_rod) (num) (noun:inanim:f:v_naz:prop:geo) (adj:m:v_naz) (adj:m:v_naz) (noun:anim:m:v_naz) (noun:anim:m:v_naz) ",
    "timestamp": "2017-12-13T16:06:33Z"
  },
  {
    "id": 23833,
    "title": "Савенко Петро Назарович",
    "text": "(noun:anim:f:v_kly:prop:fname) (noun:anim:m:v_naz:prop:pname) (noun:anim:m:v_naz:prop:lname) (num) (num) (adj:m:v_rod:compb) (adj:m:v_naz:&&adjp:pasv:imperf) (noun:anim:m:v_naz) (noun:inanim:m:v_oru) (conj) (noun) ",
    "timestamp": "2017-01-25T09:31:17Z"
  },
  {
    "id": 23834,
    "title": "Савенко Сергій Миколайович",
    "text": "(noun:anim:m:v_naz:prop:fname) (noun:anim:m:v_naz:prop:pname) (noun:anim:m:v_naz:prop:lname) (num) (num) (noun:inanim:m:v_rod) (num) (noun:anim:m:v_naz) (noun:inanim:m:v_oru) (conj) (noun:inanim:f:v_rod:prop:geo) ",
    "timestamp": "2018-02-16T21:20:44Z"
  },
  {
    "id": 23835,
    "title": "Савенков Віктор Якович",
    "text": "(noun:anim:m:v_naz:prop:fname) (noun:anim:m:v_naz:prop:pname) (noun:anim:m:v_naz:prop:lname) (num) (noun:inanim:m:v_rod) (num) (noun:inanim:f:v_naz:nv:abbr) (noun) (noun:anim:f:v_rod:prop:lname) (noun:inanim:f:v_rod) (noun:inanim:f:v_rod:prop:geo) (num) (noun:inanim:m:v_rod) (num) (adj:m:v_naz:compb) (noun:anim:m:v_naz) ",
    "timestamp": "2014-08-28T05:21:21Z"
  },
  {
    "id": 23836,
    "title": "Савин Віктор Маркіянович",
    "text": "(noun:anim:m:v_naz:prop:fname) (noun) (adj:m:v_naz) (num) (adj:m:v_rod:compb) (num) (noun:inanim:f:v_naz:prop:geo) (num) (noun:inanim:m:v_rod) (num) (noun:anim:m:v_naz) (conj:coord) (noun:anim:m:v_naz:xp1) (adj:m:v_naz:&adjp:pasv:perf:compb) (noun:anim:m:v_naz) (noun:inanim:f:v_naz:nv:np:prop:abbr) ",
    "timestamp": "2018-09-17T00:00:20Z"
  },
  {
    "id": 23837,
    "title": "Савинці (смт)",
    "text": "(noun:inanim:f:v_dav:prop:geo) (noun:inanim:n:v_naz) (adj:m:v_rod) (noun:anim:m:v_dav:xp1) (adj:m:v_rod) (noun:inanim:m:v_rod) (adj:f:v_rod) (noun:inanim:f:v_rod) (prep) (prep) (noun:inanim:m:v_oru:prop:geo) (num) (noun:anim:p:v_rod) (num) (num) (num) ",
    "timestamp": "2018-08-12T02:41:56Z"
  },
  {
    "id": 23838,
    "title": "Савицька Іванна Олександрівна",
    "text": "(noun:anim:f:v_naz:prop:lname) (noun:anim:f:v_naz:prop:fname) (noun:anim:f:v_naz:prop:pname) (adj:n:v_naz) (noun) (num) (noun:inanim:m:v_rod) (num) (noun) (noun:inanim:m:v_naz) (noun:anim:p:v_rod) (noun:inanim:f:v_naz:prop:geo) (noun:inanim:f:v_naz) (noun:anim:f:v_naz) (conj) (num) (noun:inanim:n:v_naz) (conj) (noun:inanim:p:v_naz:nv:ns:prop:geo) ",
    "timestamp": "2018-07-20T15:21:18Z"
  },
  {
    "id": 23839,
    "title": "Савицька Олена",
    "text": "(noun:anim:f:v_naz:prop:lname) (noun:anim:f:v_naz:prop:fname:xp1) (adj:f:v_naz:&&adjp:pasv:perf) (noun:anim:m:v_naz:prop:lname) (noun:inanim:p:v_rod:ns) (num) (noun:anim:m:v_naz) (noun:anim:m:v_naz) ",
    "timestamp": "2018-03-29T14:47:43Z"
  },
  {
    "id": 23840,
    "title": "Савицька Стефанія",
    "text": "(noun:anim:f:v_naz:prop:fname) (noun:anim:f:v_naz:prop:lname) (noun) (num) (noun:inanim:m:v_rod) (num) (noun:inanim:m:v_naz:prop:geo) (num) (noun:inanim:m:v_rod) (num) (noun:inanim:n:v_naz:nv:np:prop:geo) (noun:inanim:f:v_naz) (adj:f:v_naz) (noun:anim:f:v_naz) (noun:anim:f:v_naz) (adj:m:v_rod) (noun:inanim:m:v_rod) (noun:anim:m:v_naz) ",
    "timestamp": "2018-05-25T03:14:44Z"
  }
]